2017-09-19T00:00:00.5105Z ROSS6 -- stats -- 2017/09/19 00:00:00 UTC -- TIME 4122372000 LAT 56.8305985 LON -132.3641859 ALT 4.79 SATVIS 8 ROLL -0.021 PITCH -0.035 YAW -0.116 SP 0.122504085302 HD 353 TH 104 CURWP 1
2017-09-19T00:00:00.6144Z ROSS6 -- winchinfo -- 2017/09/19 00:00:00 UTC -- STATUS 1  Dir stationary  Rev 0 Res 810 Spd 100.00 Ver 8_16_2017 
2017-09-19T00:00:00.6147Z ROSS6 -- winchstatus -- 2017/09/19 00:00:00 UTC -- STATUS 1  Dir stationary  Rev 0 Res 810 Spd 100.00 Ver 8_16_2017  DOWNLOADING no
2017-09-19T00:00:01.5015Z ROSS6 -- stats -- 2017/09/19 00:00:01 UTC -- TIME 4123372000 LAT 56.8305998 LON -132.3641866 ALT 4.79 SATVIS 8 ROLL -0.019 PITCH -0.035 YAW -0.115 SP 0.129214078188 HD 353 TH 104 CURWP 1
2017-09-19T00:00:01.6030Z ROSS6 -- winchinfo -- 2017/09/19 00:00:01 UTC -- STATUS 1  Dir stationary  Rev 0 Res 809 Spd 100.00 Ver 8_16_2017 
2017-09-19T00:00:01.6032Z ROSS6 -- winchstatus -- 2017/09/19 00:00:01 UTC -- STATUS 1  Dir stationary  Rev 0 Res 809 Spd 100.00 Ver 8_16_2017  DOWNLOADING no
2017-09-19T00:00:02.5024Z ROSS6 -- stats -- 2017/09/19 00:00:02 UTC -- TIME 4124372000 LAT 56.8306008 LON -132.364186 ALT 4.8 SATVIS 8 ROLL -0.009 PITCH -0.034 YAW -0.114 SP 0.131090939045 HD 353 TH 104 CURWP 1
2017-09-19T00:00:02.6044Z ROSS6 -- winchinfo -- 2017/09/19 00:00:02 UTC -- STATUS 1  Dir stationary  Rev 0 Res 808 Spd 100.00 Ver 8_16_2017 
2017-09-19T00:00:02.6046Z ROSS6 -- winchstatus -- 2017/09/19 00:00:02 UTC -- STATUS 1  Dir stationary  Rev 0 Res 808 Spd 100.00 Ver 8_16_2017  DOWNLOADING no
2017-09-19T00:00:03.5014Z ROSS6 -- stats -- 2017/09/19 00:00:03 UTC -- TIME 4125372000 LAT 56.8306015 LON -132.3641848 ALT 4.77 SATVIS 8 ROLL -0.002 PITCH -0.033 YAW -0.114 SP 0.131814718246 HD 353 TH 104 CURWP 1
2017-09-19T00:00:03.6031Z ROSS6 -- winchinfo -- 2017/09/19 00:00:03 UTC -- STATUS 1  Dir stationary  Rev 0 Res 809 Spd 100.00 Ver 8_16_2017 
2017-09-19T00:00:03.6033Z ROSS6 -- winchstatus -- 2017/09/19 00:00:03 UTC -- STATUS 1  Dir stationary  Rev 0 Res 809 Spd 100.00 Ver 8_16_2017  DOWNLOADING no
2017-09-19T00:00:04.5024Z ROSS6 -- stats -- 2017/09/19 00:00:04 UTC -- TIME 4126371000 LAT 56.8306028 LON -132.3641846 ALT 4.67 SATVIS 8 ROLL -0.006 PITCH -0.033 YAW -0.113 SP 0.137957930565 HD 353 TH 104 CURWP 1
2017-09-19T00:00:04.6042Z ROSS6 -- winchinfo -- 2017/09/19 00:00:04 UTC -- STATUS 1  Dir stationary  Rev 0 Res 809 Spd 100.00 Ver 8_16_2017 
2017-09-19T00:00:04.6044Z ROSS6 -- winchstatus -- 2017/09/19 00:00:04 UTC -- STATUS 1  Dir stationary  Rev 0 Res 809 Spd 100.00 Ver 8_16_2017  DOWNLOADING no
2017-09-19T00:00:05.5022Z ROSS6 -- stats -- 2017/09/19 00:00:05 UTC -- TIME 4127372000 LAT 56.830604 LON -132.3641842 ALT 4.6 SATVIS 8 ROLL -0.018 PITCH -0.032 YAW -0.110 SP 0.172220155597 HD 353 TH 104 CURWP 1
2017-09-19T00:00:05.6037Z ROSS6 -- winchinfo -- 2017/09/19 00:00:05 UTC -- STATUS 1  Dir stationary  Rev 0 Res 808 Spd 100.00 Ver 8_16_2017 
2017-09-19T00:00:05.6039Z ROSS6 -- winchstatus -- 2017/09/19 00:00:05 UTC -- STATUS 1  Dir stationary  Rev 0 Res 808 Spd 100.00 Ver 8_16_2017  DOWNLOADING no
2017-09-19T00:00:06.5022Z ROSS6 -- stats -- 2017/09/19 00:00:06 UTC -- TIME 4128372000 LAT 56.8306056 LON -132.3641844 ALT 4.59 SATVIS 8 ROLL -0.025 PITCH -0.032 YAW -0.106 SP 0.204905986786 HD 353 TH 104 CURWP 1
2017-09-19T00:00:06.6037Z ROSS6 -- winchinfo -- 2017/09/19 00:00:06 UTC -- STATUS 1  Dir stationary  Rev 0 Res 809 Spd 100.00 Ver 8_16_2017 
2017-09-19T00:00:06.6040Z ROSS6 -- winchstatus -- 2017/09/19 00:00:06 UTC -- STATUS 1  Dir stationary  Rev 0 Res 809 Spd 100.00 Ver 8_16_2017  DOWNLOADING no
2017-09-19T00:00:07.5013Z ROSS6 -- stats -- 2017/09/19 00:00:07 UTC -- TIME 4129371000 LAT 56.8306078 LON -132.3641847 ALT 4.56 SATVIS 8 ROLL -0.021 PITCH -0.034 YAW -0.100 SP 0.24026440084 HD 354 TH 104 CURWP 1
2017-09-19T00:00:07.6031Z ROSS6 -- winchinfo -- 2017/09/19 00:00:07 UTC -- STATUS 1  Dir stationary  Rev 0 Res 808 Spd 100.00 Ver 8_16_2017 
2017-09-19T00:00:07.6033Z ROSS6 -- winchstatus -- 2017/09/19 00:00:07 UTC -- STATUS 1  Dir stationary  Rev 0 Res 808 Spd 100.00 Ver 8_16_2017  DOWNLOADING no
2017-09-19T00:00:08.5021Z ROSS6 -- stats -- 2017/09/19 00:00:08 UTC -- TIME 4130372000 LAT 56.8306103 LON -132.3641853 ALT 4.55 SATVIS 8 ROLL -0.010 PITCH -0.033 YAW -0.093 SP 0.27836933732 HD 354 TH 104 CURWP 1
2017-09-19T00:00:08.6038Z ROSS6 -- winchinfo -- 2017/09/19 00:00:08 UTC -- STATUS 1  Dir stationary  Rev 0 Res 808 Spd 100.00 Ver 8_16_2017 
2017-09-19T00:00:08.6040Z ROSS6 -- winchstatus -- 2017/09/19 00:00:08 UTC -- STATUS 1  Dir stationary  Rev 0 Res 808 Spd 100.00 Ver 8_16_2017  DOWNLOADING no
2017-09-19T00:00:09.5020Z ROSS6 -- stats -- 2017/09/19 00:00:09 UTC -- TIME 4131372000 LAT 56.830613 LON -132.3641857 ALT 4.53 SATVIS 8 ROLL -0.004 PITCH -0.032 YAW -0.084 SP 0.314254432917 HD 355 TH 104 CURWP 1
2017-09-19T00:00:09.6035Z ROSS6 -- winchinfo -- 2017/09/19 00:00:09 UTC -- STATUS 1  Dir stationary  Rev 0 Res 808 Spd 100.00 Ver 8_16_2017 
2017-09-19T00:00:09.6037Z ROSS6 -- winchstatus -- 2017/09/19 00:00:09 UTC -- STATUS 1  Dir stationary  Rev 0 Res 808 Spd 100.00 Ver 8_16_2017  DOWNLOADING no
2017-09-19T00:00:10.5020Z ROSS6 -- stats -- 2017/09/19 00:00:10 UTC -- TIME 4132372000 LAT 56.8306161 LON -132.3641863 ALT 4.52 SATVIS 8 ROLL -0.008 PITCH -0.032 YAW -0.073 SP 0.357177704573 HD 355 TH 104 CURWP 1
2017-09-19T00:00:10.6038Z ROSS6 -- winchinfo -- 2017/09/19 00:00:10 UTC -- STATUS 1  Dir stationary  Rev 0 Res 808 Spd 100.00 Ver 8_16_2017 
2017-09-19T00:00:10.6040Z ROSS6 -- winchstatus -- 2017/09/19 00:00:10 UTC -- STATUS 1  Dir stationary  Rev 0 Res 808 Spd 100.00 Ver 8_16_2017  DOWNLOADING no
2017-09-19T00:00:11.5099Z ROSS6 -- stats -- 2017/09/19 00:00:11 UTC -- TIME 4133372000 LAT 56.8306195 LON -132.364187 ALT 4.51 SATVIS 8 ROLL -0.016 PITCH -0.032 YAW -0.058 SP 0.387641370296 HD 356 TH 104 CURWP 1
2017-09-19T00:00:11.6114Z ROSS6 -- winchinfo -- 2017/09/19 00:00:11 UTC -- STATUS 1  Dir stationary  Rev 0 Res 808 Spd 100.00 Ver 8_16_2017 
2017-09-19T00:00:11.6116Z ROSS6 -- winchstatus -- 2017/09/19 00:00:11 UTC -- STATUS 1  Dir stationary  Rev 0 Res 808 Spd 100.00 Ver 8_16_2017  DOWNLOADING no
2017-09-19T00:00:12.5022Z ROSS6 -- stats -- 2017/09/19 00:00:12 UTC -- TIME 4134372000 LAT 56.8306228 LON -132.3641867 ALT 4.48 SATVIS 8 ROLL -0.021 PITCH -0.032 YAW -0.041 SP 0.388168334961 HD 357 TH 104 CURWP 1
2017-09-19T00:00:12.6042Z ROSS6 -- winchinfo -- 2017/09/19 00:00:12 UTC -- STATUS 1  Dir stationary  Rev 0 Res 810 Spd 100.00 Ver 8_16_2017 
2017-09-19T00:00:12.6044Z ROSS6 -- winchstatus -- 2017/09/19 00:00:12 UTC -- STATUS 1  Dir stationary  Rev 0 Res 810 Spd 100.00 Ver 8_16_2017  DOWNLOADING no
2017-09-19T00:00:13.5018Z ROSS6 -- stats -- 2017/09/19 00:00:13 UTC -- TIME 4135372000 LAT 56.8306262 LON -132.3641851 ALT 4.36 SATVIS 8 ROLL -0.018 PITCH -0.033 YAW -0.022 SP 0.437963008881 HD 358 TH 104 CURWP 1
2017-09-19T00:00:13.6033Z ROSS6 -- winchinfo -- 2017/09/19 00:00:13 UTC -- STATUS 1  Dir stationary  Rev 0 Res 809 Spd 100.00 Ver 8_16_2017 
2017-09-19T00:00:13.6035Z ROSS6 -- winchstatus -- 2017/09/19 00:00:13 UTC -- STATUS 1  Dir stationary  Rev 0 Res 809 Spd 100.00 Ver 8_16_2017  DOWNLOADING no
2017-09-19T00:00:14.5017Z ROSS6 -- stats -- 2017/09/19 00:00:14 UTC -- TIME 4136371000 LAT 56.8306301 LON -132.3641837 ALT 4.25 SATVIS 8 ROLL -0.011 PITCH -0.032 YAW -0.002 SP 0.480343580246 HD 359 TH 104 CURWP 1
2017-09-19T00:00:14.6040Z ROSS6 -- winchinfo -- 2017/09/19 00:00:14 UTC -- STATUS 1  Dir stationary  Rev 0 Res 808 Spd 100.00 Ver 8_16_2017 
2017-09-19T00:00:14.6043Z ROSS6 -- winchstatus -- 2017/09/19 00:00:14 UTC -- STATUS 1  Dir stationary  Rev 0 Res 808 Spd 100.00 Ver 8_16_2017  DOWNLOADING no
2017-09-19T00:00:15.5016Z ROSS6 -- stats -- 2017/09/19 00:00:15 UTC -- TIME 4137372000 LAT 56.8306342 LON -132.3641823 ALT 4.15 SATVIS 8 ROLL -0.007 PITCH -0.032 YAW 0.019 SP 0.511277258396 HD 1 TH 104 CURWP 1
2017-09-19T00:00:15.6032Z ROSS6 -- winchinfo -- 2017/09/19 00:00:15 UTC -- STATUS 1  Dir stationary  Rev 0 Res 809 Spd 100.00 Ver 8_16_2017 
2017-09-19T00:00:15.6034Z ROSS6 -- winchstatus -- 2017/09/19 00:00:15 UTC -- STATUS 1  Dir stationary  Rev 0 Res 809 Spd 100.00 Ver 8_16_2017  DOWNLOADING no
2017-09-19T00:00:16.5021Z ROSS6 -- stats -- 2017/09/19 00:00:16 UTC -- TIME 4138372000 LAT 56.8306386 LON -132.3641808 ALT 4.08 SATVIS 8 ROLL -0.010 PITCH -0.031 YAW 0.041 SP 0.55163371563 HD 2 TH 104 CURWP 1
2017-09-19T00:00:16.6048Z ROSS6 -- winchinfo -- 2017/09/19 00:00:16 UTC -- STATUS 1  Dir stationary  Rev 0 Res 808 Spd 100.00 Ver 8_16_2017 
2017-09-19T00:00:16.6051Z ROSS6 -- winchstatus -- 2017/09/19 00:00:16 UTC -- STATUS 1  Dir stationary  Rev 0 Res 808 Spd 100.00 Ver 8_16_2017  DOWNLOADING no
2017-09-19T00:00:17.5015Z ROSS6 -- stats -- 2017/09/19 00:00:17 UTC -- TIME 4139372000 LAT 56.8306428 LON -132.3641788 ALT 4.16 SATVIS 8 ROLL -0.020 PITCH -0.031 YAW 0.064 SP 0.585266888142 HD 3 TH 104 CURWP 1
2017-09-19T00:00:17.6030Z ROSS6 -- winchinfo -- 2017/09/19 00:00:17 UTC -- STATUS 1  Dir stationary  Rev 0 Res 809 Spd 100.00 Ver 8_16_2017 
2017-09-19T00:00:17.6032Z ROSS6 -- winchstatus -- 2017/09/19 00:00:17 UTC -- STATUS 1  Dir stationary  Rev 0 Res 809 Spd 100.00 Ver 8_16_2017  DOWNLOADING no
2017-09-19T00:00:18.5015Z ROSS6 -- stats -- 2017/09/19 00:00:18 UTC -- TIME 4140372000 LAT 56.8306473 LON -132.3641768 ALT 4.34 SATVIS 8 ROLL -0.028 PITCH -0.032 YAW 0.084 SP 0.61903065443 HD 4 TH 104 CURWP 1
2017-09-19T00:00:18.6035Z ROSS6 -- winchinfo -- 2017/09/19 00:00:18 UTC -- STATUS 1  Dir stationary  Rev 0 Res 809 Spd 100.00 Ver 8_16_2017 
2017-09-19T00:00:18.6037Z ROSS6 -- winchstatus -- 2017/09/19 00:00:18 UTC -- STATUS 1  Dir stationary  Rev 0 Res 809 Spd 100.00 Ver 8_16_2017  DOWNLOADING no
2017-09-19T00:00:19.5005Z ROSS6 -- stats -- 2017/09/19 00:00:19 UTC -- TIME 4141372000 LAT 56.8306517 LON -132.3641727 ALT 4.52 SATVIS 8 ROLL -0.030 PITCH -0.033 YAW 0.100 SP 0.650124549866 HD 5 TH 104 CURWP 1
2017-09-19T00:00:19.6021Z ROSS6 -- winchinfo -- 2017/09/19 00:00:19 UTC -- STATUS 1  Dir stationary  Rev 0 Res 809 Spd 100.00 Ver 8_16_2017 
2017-09-19T00:00:19.6023Z ROSS6 -- winchstatus -- 2017/09/19 00:00:19 UTC -- STATUS 1  Dir stationary  Rev 0 Res 809 Spd 100.00 Ver 8_16_2017  DOWNLOADING no
2017-09-19T00:00:20.5016Z ROSS6 -- stats -- 2017/09/19 00:00:20 UTC -- TIME 4142372000 LAT 56.8306557 LON -132.3641667 ALT 4.71 SATVIS 8 ROLL -0.026 PITCH -0.032 YAW 0.110 SP 0.649190068245 HD 6 TH 104 CURWP 1
2017-09-19T00:00:20.6043Z ROSS6 -- winchinfo -- 2017/09/19 00:00:20 UTC -- STATUS 1  Dir stationary  Rev 0 Res 808 Spd 100.00 Ver 8_16_2017 
2017-09-19T00:00:20.6046Z ROSS6 -- winchstatus -- 2017/09/19 00:00:20 UTC -- STATUS 1  Dir stationary  Rev 0 Res 808 Spd 100.00 Ver 8_16_2017  DOWNLOADING no
2017-09-19T00:00:21.5013Z ROSS6 -- stats -- 2017/09/19 00:00:21 UTC -- TIME 4143371000 LAT 56.8306598 LON -132.3641602 ALT 4.87 SATVIS 8 ROLL -0.021 PITCH -0.030 YAW 0.112 SP 0.654568195343 HD 6 TH 104 CURWP 1
2017-09-19T00:00:21.6028Z ROSS6 -- winchinfo -- 2017/09/19 00:00:21 UTC -- STATUS 1  Dir stationary  Rev 0 Res 810 Spd 100.00 Ver 8_16_2017 
2017-09-19T00:00:21.6030Z ROSS6 -- winchstatus -- 2017/09/19 00:00:21 UTC -- STATUS 1  Dir stationary  Rev 0 Res 810 Spd 100.00 Ver 8_16_2017  DOWNLOADING no
2017-09-19T00:00:22.5092Z ROSS6 -- stats -- 2017/09/19 00:00:22 UTC -- TIME 4144372000 LAT 56.8306641 LON -132.3641536 ALT 5.0 SATVIS 8 ROLL -0.021 PITCH -0.030 YAW 0.110 SP 0.663305521011 HD 6 TH 104 CURWP 1
2017-09-19T00:00:22.6118Z ROSS6 -- winchinfo -- 2017/09/19 00:00:22 UTC -- STATUS 1  Dir stationary  Rev 0 Res 809 Spd 100.00 Ver 8_16_2017 
2017-09-19T00:00:22.6123Z ROSS6 -- winchstatus -- 2017/09/19 00:00:22 UTC -- STATUS 1  Dir stationary  Rev 0 Res 809 Spd 100.00 Ver 8_16_2017  DOWNLOADING no
2017-09-19T00:00:23.5012Z ROSS6 -- stats -- 2017/09/19 00:00:23 UTC -- TIME 4145372000 LAT 56.8306684 LON -132.3641464 ALT 5.12 SATVIS 8 ROLL -0.023 PITCH -0.031 YAW 0.102 SP 0.670110940933 HD 5 TH 104 CURWP 1
2017-09-19T00:00:23.6030Z ROSS6 -- winchinfo -- 2017/09/19 00:00:23 UTC -- STATUS 1  Dir stationary  Rev 0 Res 809 Spd 100.00 Ver 8_16_2017 
2017-09-19T00:00:23.6032Z ROSS6 -- winchstatus -- 2017/09/19 00:00:23 UTC -- STATUS 1  Dir stationary  Rev 0 Res 809 Spd 100.00 Ver 8_16_2017  DOWNLOADING no
2017-09-19T00:00:24.5011Z ROSS6 -- stats -- 2017/09/19 00:00:24 UTC -- TIME 4146372000 LAT 56.8306724 LON -132.3641379 ALT 5.27 SATVIS 8 ROLL -0.024 PITCH -0.031 YAW 0.089 SP 0.691165566444 HD 5 TH 104 CURWP 1
2017-09-19T00:00:24.6027Z ROSS6 -- winchinfo -- 2017/09/19 00:00:24 UTC -- STATUS 1  Dir stationary  Rev 0 Res 810 Spd 100.00 Ver 8_16_2017 
2017-09-19T00:00:24.6028Z ROSS6 -- winchstatus -- 2017/09/19 00:00:24 UTC -- STATUS 1  Dir stationary  Rev 0 Res 810 Spd 100.00 Ver 8_16_2017  DOWNLOADING no
2017-09-19T00:00:25.5011Z ROSS6 -- stats -- 2017/09/19 00:00:25 UTC -- TIME 4147372000 LAT 56.8306766 LON -132.3641288 ALT 5.39 SATVIS 8 ROLL -0.023 PITCH -0.032 YAW 0.073 SP 0.724118590355 HD 4 TH 104 CURWP 1
2017-09-19T00:00:25.6026Z ROSS6 -- winchinfo -- 2017/09/19 00:00:25 UTC -- STATUS 1  Dir stationary  Rev 0 Res 809 Spd 100.00 Ver 8_16_2017 
2017-09-19T00:00:25.6028Z ROSS6 -- winchstatus -- 2017/09/19 00:00:25 UTC -- STATUS 1  Dir stationary  Rev 0 Res 809 Spd 100.00 Ver 8_16_2017  DOWNLOADING no
2017-09-19T00:00:26.5012Z ROSS6 -- stats -- 2017/09/19 00:00:26 UTC -- TIME 4148371000 LAT 56.8306812 LON -132.3641201 ALT 5.41 SATVIS 8 ROLL -0.019 PITCH -0.032 YAW 0.053 SP 0.750252485275 HD 3 TH 104 CURWP 1
2017-09-19T00:00:26.6037Z ROSS6 -- winchinfo -- 2017/09/19 00:00:26 UTC -- STATUS 1  Dir stationary  Rev 0 Res 810 Spd 100.00 Ver 8_16_2017 
2017-09-19T00:00:26.6040Z ROSS6 -- winchstatus -- 2017/09/19 00:00:26 UTC -- STATUS 1  Dir stationary  Rev 0 Res 810 Spd 100.00 Ver 8_16_2017  DOWNLOADING no
2017-09-19T00:00:27.5009Z ROSS6 -- stats -- 2017/09/19 00:00:27 UTC -- TIME 4149372000 LAT 56.8306867 LON -132.3641124 ALT 5.37 SATVIS 8 ROLL -0.016 PITCH -0.032 YAW 0.032 SP 0.741243839264 HD 1 TH 104 CURWP 1
2017-09-19T00:00:27.6023Z ROSS6 -- winchinfo -- 2017/09/19 00:00:27 UTC -- STATUS 1  Dir stationary  Rev 0 Res 810 Spd 100.00 Ver 8_16_2017 
2017-09-19T00:00:27.6025Z ROSS6 -- winchstatus -- 2017/09/19 00:00:27 UTC -- STATUS 1  Dir stationary  Rev 0 Res 810 Spd 100.00 Ver 8_16_2017  DOWNLOADING no
2017-09-19T00:00:28.5009Z ROSS6 -- stats -- 2017/09/19 00:00:28 UTC -- TIME 4150371000 LAT 56.8306929 LON -132.3641057 ALT 5.26 SATVIS 8 ROLL -0.015 PITCH -0.035 YAW 0.012 SP 0.746728420258 HD 0 TH 104 CURWP 1
2017-09-19T00:00:28.6024Z ROSS6 -- winchinfo -- 2017/09/19 00:00:28 UTC -- STATUS 1  Dir stationary  Rev 0 Res 809 Spd 100.00 Ver 8_16_2017 
2017-09-19T00:00:28.6026Z ROSS6 -- winchstatus -- 2017/09/19 00:00:28 UTC -- STATUS 1  Dir stationary  Rev 0 Res 809 Spd 100.00 Ver 8_16_2017  DOWNLOADING no
2017-09-19T00:00:29.5008Z ROSS6 -- stats -- 2017/09/19 00:00:29 UTC -- TIME 4151372000 LAT 56.8306999 LON -132.3641004 ALT 5.02 SATVIS 8 ROLL -0.015 PITCH -0.036 YAW -0.007 SP 0.745801687241 HD 359 TH 104 CURWP 1
2017-09-19T00:00:29.6023Z ROSS6 -- winchinfo -- 2017/09/19 00:00:29 UTC -- STATUS 1  Dir stationary  Rev 0 Res 809 Spd 100.00 Ver 8_16_2017 
2017-09-19T00:00:29.6025Z ROSS6 -- winchstatus -- 2017/09/19 00:00:29 UTC -- STATUS 1  Dir stationary  Rev 0 Res 809 Spd 100.00 Ver 8_16_2017  DOWNLOADING no
2017-09-19T00:00:30.5009Z ROSS6 -- stats -- 2017/09/19 00:00:30 UTC -- TIME 4152372000 LAT 56.8307066 LON -132.3640949 ALT 4.82 SATVIS 8 ROLL -0.016 PITCH -0.035 YAW -0.023 SP 0.763558506966 HD 358 TH 104 CURWP 1
2017-09-19T00:00:30.6026Z ROSS6 -- winchinfo -- 2017/09/19 00:00:30 UTC -- STATUS 1  Dir stationary  Rev 0 Res 809 Spd 100.00 Ver 8_16_2017 
2017-09-19T00:00:30.6028Z ROSS6 -- winchstatus -- 2017/09/19 00:00:30 UTC -- STATUS 1  Dir stationary  Rev 0 Res 809 Spd 100.00 Ver 8_16_2017  DOWNLOADING no
2017-09-19T00:00:31.5007Z ROSS6 -- stats -- 2017/09/19 00:00:31 UTC -- TIME 4153372000 LAT 56.8307131 LON -132.3640895 ALT 4.67 SATVIS 8 ROLL -0.018 PITCH -0.035 YAW -0.037 SP 0.781104624271 HD 357 TH 104 CURWP 1
2017-09-19T00:00:31.6023Z ROSS6 -- winchinfo -- 2017/09/19 00:00:31 UTC -- STATUS 1  Dir stationary  Rev 0 Res 809 Spd 100.00 Ver 8_16_2017 
2017-09-19T00:00:31.6025Z ROSS6 -- winchstatus -- 2017/09/19 00:00:31 UTC -- STATUS 1  Dir stationary  Rev 0 Res 809 Spd 100.00 Ver 8_16_2017  DOWNLOADING no
2017-09-19T00:00:32.5009Z ROSS6 -- stats -- 2017/09/19 00:00:32 UTC -- TIME 4154372000 LAT 56.8307191 LON -132.3640834 ALT 4.62 SATVIS 8 ROLL -0.017 PITCH -0.036 YAW -0.049 SP 0.772286593914 HD 357 TH 104 CURWP 1
2017-09-19T00:00:32.6033Z ROSS6 -- winchinfo -- 2017/09/19 00:00:32 UTC -- STATUS 1  Dir stationary  Rev 0 Res 808 Spd 100.00 Ver 8_16_2017 
2017-09-19T00:00:32.6035Z ROSS6 -- winchstatus -- 2017/09/19 00:00:32 UTC -- STATUS 1  Dir stationary  Rev 0 Res 808 Spd 100.00 Ver 8_16_2017  DOWNLOADING no
2017-09-19T00:00:33.5086Z ROSS6 -- stats -- 2017/09/19 00:00:33 UTC -- TIME 4155372000 LAT 56.8307252 LON -132.3640781 ALT 4.53 SATVIS 8 ROLL -0.017 PITCH -0.036 YAW -0.059 SP 0.768372476101 HD 356 TH 104 CURWP 1
2017-09-19T00:00:33.6101Z ROSS6 -- winchinfo -- 2017/09/19 00:00:33 UTC -- STATUS 1  Dir stationary  Rev 0 Res 808 Spd 100.00 Ver 8_16_2017 
2017-09-19T00:00:33.6103Z ROSS6 -- winchstatus -- 2017/09/19 00:00:33 UTC -- STATUS 1  Dir stationary  Rev 0 Res 808 Spd 100.00 Ver 8_16_2017  DOWNLOADING no
2017-09-19T00:00:34.5005Z ROSS6 -- stats -- 2017/09/19 00:00:34 UTC -- TIME 4156372000 LAT 56.8307314 LON -132.3640733 ALT 4.45 SATVIS 8 ROLL -0.017 PITCH -0.036 YAW -0.068 SP 0.769155085087 HD 356 TH 104 CURWP 1
2017-09-19T00:00:34.6020Z ROSS6 -- winchinfo -- 2017/09/19 00:00:34 UTC -- STATUS 1  Dir stationary  Rev 0 Res 809 Spd 100.00 Ver 8_16_2017 
2017-09-19T00:00:34.6022Z ROSS6 -- winchstatus -- 2017/09/19 00:00:34 UTC -- STATUS 1  Dir stationary  Rev 0 Res 809 Spd 100.00 Ver 8_16_2017  DOWNLOADING no
2017-09-19T00:00:35.5002Z ROSS6 -- stats -- 2017/09/19 00:00:35 UTC -- TIME 4157372000 LAT 56.8307372 LON -132.364068 ALT 4.42 SATVIS 8 ROLL -0.018 PITCH -0.036 YAW -0.075 SP 0.753139138222 HD 355 TH 104 CURWP 1
2017-09-19T00:00:35.6015Z ROSS6 -- winchinfo -- 2017/09/19 00:00:35 UTC -- STATUS 1  Dir stationary  Rev 0 Res 810 Spd 100.00 Ver 8_16_2017 
2017-09-19T00:00:35.6017Z ROSS6 -- winchstatus -- 2017/09/19 00:00:35 UTC -- STATUS 1  Dir stationary  Rev 0 Res 810 Spd 100.00 Ver 8_16_2017  DOWNLOADING no
2017-09-19T00:00:36.5005Z ROSS6 -- stats -- 2017/09/19 00:00:36 UTC -- TIME 4158372000 LAT 56.8307431 LON -132.3640634 ALT 4.43 SATVIS 8 ROLL -0.018 PITCH -0.035 YAW -0.081 SP 0.739126443863 HD 355 TH 104 CURWP 1
2017-09-19T00:00:36.6020Z ROSS6 -- winchinfo -- 2017/09/19 00:00:36 UTC -- STATUS 1  Dir stationary  Rev 0 Res 809 Spd 100.00 Ver 8_16_2017 
2017-09-19T00:00:36.6021Z ROSS6 -- winchstatus -- 2017/09/19 00:00:36 UTC -- STATUS 1  Dir stationary  Rev 0 Res 809 Spd 100.00 Ver 8_16_2017  DOWNLOADING no
2017-09-19T00:00:37.5004Z ROSS6 -- stats -- 2017/09/19 00:00:37 UTC -- TIME 4159372000 LAT 56.8307493 LON -132.3640597 ALT 4.46 SATVIS 8 ROLL -0.018 PITCH -0.034 YAW -0.086 SP 0.727023422718 HD 355 TH 104 CURWP 1
2017-09-19T00:00:37.6019Z ROSS6 -- winchinfo -- 2017/09/19 00:00:37 UTC -- STATUS 1  Dir stationary  Rev 0 Res 809 Spd 100.00 Ver 8_16_2017 
2017-09-19T00:00:37.6021Z ROSS6 -- winchstatus -- 2017/09/19 00:00:37 UTC -- STATUS 1  Dir stationary  Rev 0 Res 809 Spd 100.00 Ver 8_16_2017  DOWNLOADING no
2017-09-19T00:00:38.5005Z ROSS6 -- stats -- 2017/09/19 00:00:38 UTC -- TIME 4160372000 LAT 56.8307555 LON -132.3640562 ALT 4.51 SATVIS 8 ROLL -0.016 PITCH -0.034 YAW -0.091 SP 0.727157652378 HD 354 TH 104 CURWP 1
2017-09-19T00:00:38.6025Z ROSS6 -- winchinfo -- 2017/09/19 00:00:38 UTC -- STATUS 1  Dir stationary  Rev 0 Res 809 Spd 100.00 Ver 8_16_2017 
2017-09-19T00:00:38.6027Z ROSS6 -- winchstatus -- 2017/09/19 00:00:38 UTC -- STATUS 1  Dir stationary  Rev 0 Res 809 Spd 100.00 Ver 8_16_2017  DOWNLOADING no
2017-09-19T00:00:39.5004Z ROSS6 -- stats -- 2017/09/19 00:00:39 UTC -- TIME 4161371000 LAT 56.8307615 LON -132.3640526 ALT 4.59 SATVIS 8 ROLL -0.016 PITCH -0.035 YAW -0.095 SP 0.719624042511 HD 354 TH 104 CURWP 1
2017-09-19T00:00:39.6020Z ROSS6 -- winchinfo -- 2017/09/19 00:00:39 UTC -- STATUS 1  Dir stationary  Rev 0 Res 810 Spd 100.00 Ver 8_16_2017 
2017-09-19T00:00:39.6022Z ROSS6 -- winchstatus -- 2017/09/19 00:00:39 UTC -- STATUS 1  Dir stationary  Rev 0 Res 810 Spd 100.00 Ver 8_16_2017  DOWNLOADING no
2017-09-19T00:00:40.5003Z ROSS6 -- stats -- 2017/09/19 00:00:40 UTC -- TIME 4162372000 LAT 56.8307674 LON -132.364049 ALT 4.65 SATVIS 8 ROLL -0.016 PITCH -0.035 YAW -0.099 SP 0.717973709106 HD 354 TH 104 CURWP 1
2017-09-19T00:00:40.6026Z ROSS6 -- winchinfo -- 2017/09/19 00:00:40 UTC -- STATUS 1  Dir stationary  Rev 0 Res 809 Spd 100.00 Ver 8_16_2017 
2017-09-19T00:00:40.6029Z ROSS6 -- winchstatus -- 2017/09/19 00:00:40 UTC -- STATUS 1  Dir stationary  Rev 0 Res 809 Spd 100.00 Ver 8_16_2017  DOWNLOADING no
2017-09-19T00:00:41.5002Z ROSS6 -- stats -- 2017/09/19 00:00:41 UTC -- TIME 4163372000 LAT 56.8307731 LON -132.3640452 ALT 4.69 SATVIS 8 ROLL -0.017 PITCH -0.034 YAW -0.102 SP 0.721851944923 HD 354 TH 104 CURWP 1
2017-09-19T00:00:41.6017Z ROSS6 -- winchinfo -- 2017/09/19 00:00:41 UTC -- STATUS 1  Dir stationary  Rev 0 Res 809 Spd 100.00 Ver 8_16_2017 
2017-09-19T00:00:41.6019Z ROSS6 -- winchstatus -- 2017/09/19 00:00:41 UTC -- STATUS 1  Dir stationary  Rev 0 Res 809 Spd 100.00 Ver 8_16_2017  DOWNLOADING no
2017-09-19T00:00:42.5002Z ROSS6 -- stats -- 2017/09/19 00:00:42 UTC -- TIME 4164371000 LAT 56.830779 LON -132.3640414 ALT 4.73 SATVIS 8 ROLL -0.018 PITCH -0.032 YAW -0.103 SP 0.739897251129 HD 354 TH 104 CURWP 1
2017-09-19T00:00:42.6023Z ROSS6 -- winchinfo -- 2017/09/19 00:00:42 UTC -- STATUS 1  Dir stationary  Rev 0 Res 808 Spd 100.00 Ver 8_16_2017 
2017-09-19T00:00:42.6025Z ROSS6 -- winchstatus -- 2017/09/19 00:00:42 UTC -- STATUS 1  Dir stationary  Rev 0 Res 808 Spd 100.00 Ver 8_16_2017  DOWNLOADING no
2017-09-19T00:00:43.5001Z ROSS6 -- stats -- 2017/09/19 00:00:43 UTC -- TIME 4165372000 LAT 56.8307853 LON -132.3640383 ALT 4.79 SATVIS 8 ROLL -0.016 PITCH -0.032 YAW -0.102 SP 0.752859055996 HD 354 TH 104 CURWP 1
2017-09-19T00:00:43.6016Z ROSS6 -- winchinfo -- 2017/09/19 00:00:43 UTC -- STATUS 1  Dir stationary  Rev 0 Res 810 Spd 100.00 Ver 8_16_2017 
2017-09-19T00:00:43.6017Z ROSS6 -- winchstatus -- 2017/09/19 00:00:43 UTC -- STATUS 1  Dir stationary  Rev 0 Res 810 Spd 100.00 Ver 8_16_2017  DOWNLOADING no
2017-09-19T00:00:44.5082Z ROSS6 -- stats -- 2017/09/19 00:00:44 UTC -- TIME 4166372000 LAT 56.8307918 LON -132.3640348 ALT 4.81 SATVIS 8 ROLL -0.014 PITCH -0.034 YAW -0.097 SP 0.784568250179 HD 354 TH 104 CURWP 1
2017-09-19T00:00:44.6098Z ROSS6 -- winchinfo -- 2017/09/19 00:00:44 UTC -- STATUS 1  Dir stationary  Rev 0 Res 810 Spd 100.00 Ver 8_16_2017 
2017-09-19T00:00:44.6100Z ROSS6 -- winchstatus -- 2017/09/19 00:00:44 UTC -- STATUS 1  Dir stationary  Rev 0 Res 810 Spd 100.00 Ver 8_16_2017  DOWNLOADING no
2017-09-19T00:00:45.4989Z ROSS6 -- stats -- 2017/09/19 00:00:45 UTC -- TIME 4167372000 LAT 56.8307989 LON -132.3640318 ALT 4.78 SATVIS 8 ROLL -0.013 PITCH -0.033 YAW -0.090 SP 0.811654686928 HD 354 TH 104 CURWP 1
2017-09-19T00:00:45.6005Z ROSS6 -- winchinfo -- 2017/09/19 00:00:45 UTC -- STATUS 1  Dir stationary  Rev 0 Res 808 Spd 100.00 Ver 8_16_2017 
2017-09-19T00:00:45.6006Z ROSS6 -- winchstatus -- 2017/09/19 00:00:45 UTC -- STATUS 1  Dir stationary  Rev 0 Res 808 Spd 100.00 Ver 8_16_2017  DOWNLOADING no
2017-09-19T00:00:46.4997Z ROSS6 -- stats -- 2017/09/19 00:00:46 UTC -- TIME 4168372000 LAT 56.8308063 LON -132.3640288 ALT 4.74 SATVIS 8 ROLL -0.017 PITCH -0.032 YAW -0.082 SP 0.861395657063 HD 355 TH 104 CURWP 1
2017-09-19T00:00:46.6012Z ROSS6 -- winchinfo -- 2017/09/19 00:00:46 UTC -- STATUS 1  Dir stationary  Rev 0 Res 809 Spd 100.00 Ver 8_16_2017 
2017-09-19T00:00:46.6014Z ROSS6 -- winchstatus -- 2017/09/19 00:00:46 UTC -- STATUS 1  Dir stationary  Rev 0 Res 809 Spd 100.00 Ver 8_16_2017  DOWNLOADING no
2017-09-19T00:00:47.4997Z ROSS6 -- stats -- 2017/09/19 00:00:47 UTC -- TIME 4169372000 LAT 56.8308142 LON -132.3640256 ALT 4.69 SATVIS 8 ROLL -0.023 PITCH -0.033 YAW -0.075 SP 0.889427304268 HD 355 TH 104 CURWP 1
2017-09-19T00:00:47.6012Z ROSS6 -- winchinfo -- 2017/09/19 00:00:47 UTC -- STATUS 1  Dir stationary  Rev 0 Res 808 Spd 100.00 Ver 8_16_2017 
2017-09-19T00:00:47.6014Z ROSS6 -- winchstatus -- 2017/09/19 00:00:47 UTC -- STATUS 1  Dir stationary  Rev 0 Res 808 Spd 100.00 Ver 8_16_2017  DOWNLOADING no
2017-09-19T00:00:48.4995Z ROSS6 -- stats -- 2017/09/19 00:00:48 UTC -- TIME 4170371000 LAT 56.8308219 LON -132.3640218 ALT 4.67 SATVIS 8 ROLL -0.024 PITCH -0.036 YAW -0.070 SP 0.88846296072 HD 355 TH 104 CURWP 1
2017-09-19T00:00:48.6013Z ROSS6 -- winchinfo -- 2017/09/19 00:00:48 UTC -- STATUS 1  Dir stationary  Rev 0 Res 809 Spd 100.00 Ver 8_16_2017 
2017-09-19T00:00:48.6015Z ROSS6 -- winchstatus -- 2017/09/19 00:00:48 UTC -- STATUS 1  Dir stationary  Rev 0 Res 809 Spd 100.00 Ver 8_16_2017  DOWNLOADING no
2017-09-19T00:00:49.4996Z ROSS6 -- stats -- 2017/09/19 00:00:49 UTC -- TIME 4171371000 LAT 56.830829 LON -132.3640165 ALT 4.6 SATVIS 8 ROLL -0.021 PITCH -0.035 YAW -0.068 SP 0.894723176956 HD 356 TH 104 CURWP 1
2017-09-19T00:00:49.6011Z ROSS6 -- winchinfo -- 2017/09/19 00:00:49 UTC -- STATUS 1  Dir stationary  Rev 0 Res 810 Spd 100.00 Ver 8_16_2017 
2017-09-19T00:00:49.6013Z ROSS6 -- winchstatus -- 2017/09/19 00:00:49 UTC -- STATUS 1  Dir stationary  Rev 0 Res 810 Spd 100.00 Ver 8_16_2017  DOWNLOADING no
2017-09-19T00:00:50.4996Z ROSS6 -- stats -- 2017/09/19 00:00:50 UTC -- TIME 4172372000 LAT 56.8308359 LON -132.3640109 ALT 4.54 SATVIS 8 ROLL -0.016 PITCH -0.033 YAW -0.068 SP 0.890326797962 HD 356 TH 104 CURWP 1
2017-09-19T00:00:50.6012Z ROSS6 -- winchinfo -- 2017/09/19 00:00:50 UTC -- STATUS 1  Dir stationary  Rev 0 Res 809 Spd 100.00 Ver 8_16_2017 
2017-09-19T00:00:50.6014Z ROSS6 -- winchstatus -- 2017/09/19 00:00:50 UTC -- STATUS 1  Dir stationary  Rev 0 Res 809 Spd 100.00 Ver 8_16_2017  DOWNLOADING no
2017-09-19T00:00:51.4985Z ROSS6 -- stats -- 2017/09/19 00:00:51 UTC -- TIME 4173372000 LAT 56.830843 LON -132.3640054 ALT 4.47 SATVIS 8 ROLL -0.013 PITCH -0.032 YAW -0.070 SP 0.862582147121 HD 356 TH 104 CURWP 1
2017-09-19T00:00:51.6002Z ROSS6 -- winchinfo -- 2017/09/19 00:00:51 UTC -- STATUS 1  Dir stationary  Rev 0 Res 808 Spd 100.00 Ver 8_16_2017 
2017-09-19T00:00:51.6004Z ROSS6 -- winchstatus -- 2017/09/19 00:00:51 UTC -- STATUS 1  Dir stationary  Rev 0 Res 808 Spd 100.00 Ver 8_16_2017  DOWNLOADING no
2017-09-19T00:00:52.4994Z ROSS6 -- stats -- 2017/09/19 00:00:52 UTC -- TIME 4174372000 LAT 56.83085 LON -132.3640004 ALT 4.41 SATVIS 8 ROLL -0.015 PITCH -0.034 YAW -0.073 SP 0.844590425491 HD 355 TH 104 CURWP 1
2017-09-19T00:00:52.6010Z ROSS6 -- winchinfo -- 2017/09/19 00:00:52 UTC -- STATUS 1  Dir stationary  Rev 0 Res 808 Spd 100.00 Ver 8_16_2017 
2017-09-19T00:00:52.6012Z ROSS6 -- winchstatus -- 2017/09/19 00:00:52 UTC -- STATUS 1  Dir stationary  Rev 0 Res 808 Spd 100.00 Ver 8_16_2017  DOWNLOADING no
2017-09-19T00:00:53.4993Z ROSS6 -- stats -- 2017/09/19 00:00:53 UTC -- TIME 4175372000 LAT 56.8308572 LON -132.3639959 ALT 4.37 SATVIS 8 ROLL -0.019 PITCH -0.034 YAW -0.076 SP 0.823286533356 HD 355 TH 104 CURWP 1
2017-09-19T00:00:53.6009Z ROSS6 -- winchinfo -- 2017/09/19 00:00:53 UTC -- STATUS 1  Dir stationary  Rev 0 Res 809 Spd 100.00 Ver 8_16_2017 
2017-09-19T00:00:53.6011Z ROSS6 -- winchstatus -- 2017/09/19 00:00:53 UTC -- STATUS 1  Dir stationary  Rev 0 Res 809 Spd 100.00 Ver 8_16_2017  DOWNLOADING no
2017-09-19T00:00:54.4994Z ROSS6 -- stats -- 2017/09/19 00:00:54 UTC -- TIME 4176371000 LAT 56.8308642 LON -132.3639912 ALT 4.36 SATVIS 8 ROLL -0.022 PITCH -0.034 YAW -0.080 SP 0.824050545692 HD 355 TH 104 CURWP 1
2017-09-19T00:00:54.6010Z ROSS6 -- winchinfo -- 2017/09/19 00:00:54 UTC -- STATUS 1  Dir stationary  Rev 0 Res 810 Spd 100.00 Ver 8_16_2017 
2017-09-19T00:00:54.6011Z ROSS6 -- winchstatus -- 2017/09/19 00:00:54 UTC -- STATUS 1  Dir stationary  Rev 0 Res 810 Spd 100.00 Ver 8_16_2017  DOWNLOADING no
2017-09-19T00:00:55.5073Z ROSS6 -- stats -- 2017/09/19 00:00:55 UTC -- TIME 4177372000 LAT 56.8308707 LON -132.3639856 ALT 4.4 SATVIS 8 ROLL -0.020 PITCH -0.034 YAW -0.086 SP 0.818853855133 HD 355 TH 104 CURWP 1
2017-09-19T00:00:55.6091Z ROSS6 -- winchinfo -- 2017/09/19 00:00:55 UTC -- STATUS 1  Dir stationary  Rev 0 Res 809 Spd 100.00 Ver 8_16_2017 
2017-09-19T00:00:55.6093Z ROSS6 -- winchstatus -- 2017/09/19 00:00:55 UTC -- STATUS 1  Dir stationary  Rev 0 Res 809 Spd 100.00 Ver 8_16_2017  DOWNLOADING no
2017-09-19T00:00:56.4993Z ROSS6 -- stats -- 2017/09/19 00:00:56 UTC -- TIME 4178372000 LAT 56.8308771 LON -132.3639799 ALT 4.46 SATVIS 8 ROLL -0.016 PITCH -0.034 YAW -0.092 SP 0.818200528622 HD 354 TH 104 CURWP 1
2017-09-19T00:00:56.6009Z ROSS6 -- winchinfo -- 2017/09/19 00:00:56 UTC -- STATUS 1  Dir stationary  Rev 0 Res 809 Spd 100.00 Ver 8_16_2017 
2017-09-19T00:00:56.6011Z ROSS6 -- winchstatus -- 2017/09/19 00:00:56 UTC -- STATUS 1  Dir stationary  Rev 0 Res 809 Spd 100.00 Ver 8_16_2017  DOWNLOADING no
2017-09-19T00:00:57.4992Z ROSS6 -- stats -- 2017/09/19 00:00:57 UTC -- TIME 4179372000 LAT 56.8308833 LON -132.3639745 ALT 4.55 SATVIS 8 ROLL -0.013 PITCH -0.034 YAW -0.099 SP 0.805287599564 HD 354 TH 104 CURWP 1
2017-09-19T00:00:57.6007Z ROSS6 -- winchinfo -- 2017/09/19 00:00:57 UTC -- STATUS 1  Dir stationary  Rev 0 Res 808 Spd 100.00 Ver 8_16_2017 
2017-09-19T00:00:57.6009Z ROSS6 -- winchstatus -- 2017/09/19 00:00:57 UTC -- STATUS 1  Dir stationary  Rev 0 Res 808 Spd 100.00 Ver 8_16_2017  DOWNLOADING no
2017-09-19T00:00:58.4992Z ROSS6 -- stats -- 2017/09/19 00:00:58 UTC -- TIME 4180372000 LAT 56.8308897 LON -132.3639692 ALT 4.61 SATVIS 8 ROLL -0.014 PITCH -0.034 YAW -0.105 SP 0.785834431648 HD 353 TH 104 CURWP 1
2017-09-19T00:00:58.6010Z ROSS6 -- winchinfo -- 2017/09/19 00:00:58 UTC -- STATUS 1  Dir stationary  Rev 0 Res 809 Spd 100.00 Ver 8_16_2017 
2017-09-19T00:00:58.6012Z ROSS6 -- winchstatus -- 2017/09/19 00:00:58 UTC -- STATUS 1  Dir stationary  Rev 0 Res 809 Spd 100.00 Ver 8_16_2017  DOWNLOADING no
2017-09-19T00:00:59.4991Z ROSS6 -- stats -- 2017/09/19 00:00:59 UTC -- TIME 4181371000 LAT 56.8308963 LON -132.3639648 ALT 4.62 SATVIS 8 ROLL -0.019 PITCH -0.035 YAW -0.112 SP 0.780699133873 HD 353 TH 104 CURWP 1
2017-09-19T00:00:59.6007Z ROSS6 -- winchinfo -- 2017/09/19 00:00:59 UTC -- STATUS 1  Dir stationary  Rev 0 Res 809 Spd 100.00 Ver 8_16_2017 
2017-09-19T00:00:59.6009Z ROSS6 -- winchstatus -- 2017/09/19 00:00:59 UTC -- STATUS 1  Dir stationary  Rev 0 Res 809 Spd 100.00 Ver 8_16_2017  DOWNLOADING no
2017-09-19T00:01:00.4991Z ROSS6 -- stats -- 2017/09/19 00:01:00 UTC -- TIME 4182372000 LAT 56.8309031 LON -132.3639607 ALT 4.61 SATVIS 8 ROLL -0.022 PITCH -0.035 YAW -0.118 SP 0.788927018642 HD 353 TH 104 CURWP 1
2017-09-19T00:01:00.6017Z ROSS6 -- winchinfo -- 2017/09/19 00:01:00 UTC -- STATUS 1  Dir stationary  Rev 0 Res 808 Spd 100.00 Ver 8_16_2017 
2017-09-19T00:01:00.6020Z ROSS6 -- winchstatus -- 2017/09/19 00:01:00 UTC -- STATUS 1  Dir stationary  Rev 0 Res 808 Spd 100.00 Ver 8_16_2017  DOWNLOADING no
2017-09-19T00:01:01.4989Z ROSS6 -- stats -- 2017/09/19 00:01:01 UTC -- TIME 4183371000 LAT 56.8309097 LON -132.3639561 ALT 4.61 SATVIS 8 ROLL -0.021 PITCH -0.035 YAW -0.125 SP 0.784049451351 HD 352 TH 104 CURWP 1
2017-09-19T00:01:01.6006Z ROSS6 -- winchinfo -- 2017/09/19 00:01:01 UTC -- STATUS 1  Dir stationary  Rev 0 Res 809 Spd 100.00 Ver 8_16_2017 
2017-09-19T00:01:01.6008Z ROSS6 -- winchstatus -- 2017/09/19 00:01:01 UTC -- STATUS 1  Dir stationary  Rev 0 Res 809 Spd 100.00 Ver 8_16_2017  DOWNLOADING no
2017-09-19T00:01:02.4989Z ROSS6 -- stats -- 2017/09/19 00:01:02 UTC -- TIME 4184372000 LAT 56.8309166 LON -132.3639521 ALT 4.56 SATVIS 8 ROLL -0.016 PITCH -0.034 YAW -0.132 SP 0.786375284195 HD 352 TH 104 CURWP 1
2017-09-19T00:01:02.6005Z ROSS6 -- winchinfo -- 2017/09/19 00:01:02 UTC -- STATUS 1  Dir stationary  Rev 0 Res 810 Spd 100.00 Ver 8_16_2017 
2017-09-19T00:01:02.6007Z ROSS6 -- winchstatus -- 2017/09/19 00:01:02 UTC -- STATUS 1  Dir stationary  Rev 0 Res 810 Spd 100.00 Ver 8_16_2017  DOWNLOADING no
2017-09-19T00:01:03.4990Z ROSS6 -- stats -- 2017/09/19 00:01:03 UTC -- TIME 4185372000 LAT 56.8309235 LON -132.3639483 ALT 4.51 SATVIS 8 ROLL -0.013 PITCH -0.035 YAW -0.139 SP 0.782272517681 HD 352 TH 104 CURWP 1
2017-09-19T00:01:03.6007Z ROSS6 -- winchinfo -- 2017/09/19 00:01:03 UTC -- STATUS 1  Dir stationary  Rev 0 Res 810 Spd 100.00 Ver 8_16_2017 
2017-09-19T00:01:03.6009Z ROSS6 -- winchstatus -- 2017/09/19 00:01:03 UTC -- STATUS 1  Dir stationary  Rev 0 Res 810 Spd 100.00 Ver 8_16_2017  DOWNLOADING no
2017-09-19T00:01:04.4988Z ROSS6 -- stats -- 2017/09/19 00:01:04 UTC -- TIME 4186372000 LAT 56.8309303 LON -132.3639447 ALT 4.48 SATVIS 8 ROLL -0.015 PITCH -0.035 YAW -0.145 SP 0.781046330929 HD 351 TH 104 CURWP 1
2017-09-19T00:01:04.6012Z ROSS6 -- winchinfo -- 2017/09/19 00:01:04 UTC -- STATUS 1  Dir stationary  Rev 0 Res 809 Spd 100.00 Ver 8_16_2017 
2017-09-19T00:01:04.6014Z ROSS6 -- winchstatus -- 2017/09/19 00:01:04 UTC -- STATUS 1  Dir stationary  Rev 0 Res 809 Spd 100.00 Ver 8_16_2017  DOWNLOADING no
2017-09-19T00:01:05.4988Z ROSS6 -- stats -- 2017/09/19 00:01:05 UTC -- TIME 4187372000 LAT 56.8309371 LON -132.3639406 ALT 4.43 SATVIS 8 ROLL -0.020 PITCH -0.034 YAW -0.149 SP 0.818661093712 HD 351 TH 104 CURWP 1
2017-09-19T00:01:05.6004Z ROSS6 -- winchinfo -- 2017/09/19 00:01:05 UTC -- STATUS 1  Dir stationary  Rev 0 Res 810 Spd 100.00 Ver 8_16_2017 
2017-09-19T00:01:05.6006Z ROSS6 -- winchstatus -- 2017/09/19 00:01:05 UTC -- STATUS 1  Dir stationary  Rev 0 Res 810 Spd 100.00 Ver 8_16_2017  DOWNLOADING no
2017-09-19T00:01:06.5076Z ROSS6 -- stats -- 2017/09/19 00:01:06 UTC -- TIME 4188372000 LAT 56.8309436 LON -132.3639345 ALT 4.33 SATVIS 8 ROLL -0.020 PITCH -0.033 YAW -0.149 SP 0.849278271198 HD 351 TH 104 CURWP 1
2017-09-19T00:01:06.6095Z ROSS6 -- winchinfo -- 2017/09/19 00:01:06 UTC -- STATUS 1  Dir stationary  Rev 0 Res 810 Spd 100.00 Ver 8_16_2017 
2017-09-19T00:01:06.6097Z ROSS6 -- winchstatus -- 2017/09/19 00:01:06 UTC -- STATUS 1  Dir stationary  Rev 0 Res 810 Spd 100.00 Ver 8_16_2017  DOWNLOADING no
2017-09-19T00:01:07.4987Z ROSS6 -- stats -- 2017/09/19 00:01:07 UTC -- TIME 4189372000 LAT 56.8309505 LON -132.3639295 ALT 4.28 SATVIS 8 ROLL -0.013 PITCH -0.035 YAW -0.145 SP 0.855605900288 HD 351 TH 104 CURWP 1
2017-09-19T00:01:07.6003Z ROSS6 -- winchinfo -- 2017/09/19 00:01:07 UTC -- STATUS 1  Dir stationary  Rev 0 Res 810 Spd 100.00 Ver 8_16_2017 
2017-09-19T00:01:07.6005Z ROSS6 -- winchstatus -- 2017/09/19 00:01:07 UTC -- STATUS 1  Dir stationary  Rev 0 Res 810 Spd 100.00 Ver 8_16_2017  DOWNLOADING no
2017-09-19T00:01:08.4988Z ROSS6 -- stats -- 2017/09/19 00:01:08 UTC -- TIME 4190372000 LAT 56.8309583 LON -132.3639268 ALT 4.25 SATVIS 8 ROLL -0.008 PITCH -0.034 YAW -0.136 SP 0.863439321518 HD 352 TH 104 CURWP 1
2017-09-19T00:01:08.6005Z ROSS6 -- winchinfo -- 2017/09/19 00:01:08 UTC -- STATUS 1  Dir stationary  Rev 0 Res 809 Spd 100.00 Ver 8_16_2017 
2017-09-19T00:01:08.6007Z ROSS6 -- winchstatus -- 2017/09/19 00:01:08 UTC -- STATUS 1  Dir stationary  Rev 0 Res 809 Spd 100.00 Ver 8_16_2017  DOWNLOADING no
2017-09-19T00:01:09.4986Z ROSS6 -- stats -- 2017/09/19 00:01:09 UTC -- TIME 4191372000 LAT 56.8309663 LON -132.363925 ALT 4.29 SATVIS 8 ROLL -0.011 PITCH -0.032 YAW -0.122 SP 0.89200937748 HD 353 TH 104 CURWP 1
2017-09-19T00:01:09.6001Z ROSS6 -- winchinfo -- 2017/09/19 00:01:09 UTC -- STATUS 1  Dir stationary  Rev 0 Res 809 Spd 100.00 Ver 8_16_2017 
2017-09-19T00:01:09.6003Z ROSS6 -- winchstatus -- 2017/09/19 00:01:09 UTC -- STATUS 1  Dir stationary  Rev 0 Res 809 Spd 100.00 Ver 8_16_2017  DOWNLOADING no
2017-09-19T00:01:10.4991Z ROSS6 -- stats -- 2017/09/19 00:01:10 UTC -- TIME 4192372000 LAT 56.8309744 LON -132.3639228 ALT 4.34 SATVIS 8 ROLL -0.020 PITCH -0.033 YAW -0.105 SP 0.941251039505 HD 353 TH 104 CURWP 1
2017-09-19T00:01:10.6009Z ROSS6 -- winchinfo -- 2017/09/19 00:01:10 UTC -- STATUS 1  Dir stationary  Rev 0 Res 809 Spd 100.00 Ver 8_16_2017 
2017-09-19T00:01:10.6011Z ROSS6 -- winchstatus -- 2017/09/19 00:01:10 UTC -- STATUS 1  Dir stationary  Rev 0 Res 809 Spd 100.00 Ver 8_16_2017  DOWNLOADING no
2017-09-19T00:01:11.4986Z ROSS6 -- stats -- 2017/09/19 00:01:11 UTC -- TIME 4193372000 LAT 56.8309828 LON -132.3639214 ALT 4.43 SATVIS 8 ROLL -0.028 PITCH -0.035 YAW -0.087 SP 0.98351919651 HD 355 TH 104 CURWP 1
2017-09-19T00:01:11.6002Z ROSS6 -- winchinfo -- 2017/09/19 00:01:11 UTC -- STATUS 1  Dir stationary  Rev 0 Res 808 Spd 100.00 Ver 8_16_2017 
2017-09-19T00:01:11.6004Z ROSS6 -- winchstatus -- 2017/09/19 00:01:11 UTC -- STATUS 1  Dir stationary  Rev 0 Res 808 Spd 100.00 Ver 8_16_2017  DOWNLOADING no
2017-09-19T00:01:12.4984Z ROSS6 -- stats -- 2017/09/19 00:01:12 UTC -- TIME 4194372000 LAT 56.8309914 LON -132.3639188 ALT 4.49 SATVIS 8 ROLL -0.029 PITCH -0.035 YAW -0.069 SP 1.03638088703 HD 356 TH 104 CURWP 1
2017-09-19T00:01:12.6006Z ROSS6 -- winchinfo -- 2017/09/19 00:01:12 UTC -- STATUS 1  Dir stationary  Rev 0 Res 809 Spd 100.00 Ver 8_16_2017 
2017-09-19T00:01:12.6009Z ROSS6 -- winchstatus -- 2017/09/19 00:01:12 UTC -- STATUS 1  Dir stationary  Rev 0 Res 809 Spd 100.00 Ver 8_16_2017  DOWNLOADING no
2017-09-19T00:01:13.4985Z ROSS6 -- stats -- 2017/09/19 00:01:13 UTC -- TIME 4195372000 LAT 56.8309998 LON -132.3639145 ALT 4.47 SATVIS 8 ROLL -0.022 PITCH -0.034 YAW -0.052 SP 1.03456938267 HD 357 TH 104 CURWP 1
2017-09-19T00:01:13.6002Z ROSS6 -- winchinfo -- 2017/09/19 00:01:13 UTC -- STATUS 1  Dir stationary  Rev 0 Res 809 Spd 100.00 Ver 8_16_2017 
2017-09-19T00:01:13.6004Z ROSS6 -- winchstatus -- 2017/09/19 00:01:13 UTC -- STATUS 1  Dir stationary  Rev 0 Res 809 Spd 100.00 Ver 8_16_2017  DOWNLOADING no
2017-09-19T00:01:14.4983Z ROSS6 -- stats -- 2017/09/19 00:01:14 UTC -- TIME 4196372000 LAT 56.831008 LON -132.3639091 ALT 4.39 SATVIS 8 ROLL -0.016 PITCH -0.035 YAW -0.038 SP 1.01316547394 HD 357 TH 104 CURWP 1
2017-09-19T00:01:14.6003Z ROSS6 -- winchinfo -- 2017/09/19 00:01:14 UTC -- STATUS 1  Dir stationary  Rev 0 Res 808 Spd 100.00 Ver 8_16_2017 
2017-09-19T00:01:14.6005Z ROSS6 -- winchstatus -- 2017/09/19 00:01:14 UTC -- STATUS 1  Dir stationary  Rev 0 Res 808 Spd 100.00 Ver 8_16_2017  DOWNLOADING no
2017-09-19T00:01:15.4984Z ROSS6 -- stats -- 2017/09/19 00:01:15 UTC -- TIME 4197372000 LAT 56.8310167 LON -132.3639043 ALT 4.23 SATVIS 8 ROLL -0.017 PITCH -0.034 YAW -0.026 SP 1.00135803223 HD 358 TH 104 CURWP 1
2017-09-19T00:01:15.6002Z ROSS6 -- winchinfo -- 2017/09/19 00:01:15 UTC -- STATUS 1  Dir stationary  Rev 0 Res 809 Spd 100.00 Ver 8_16_2017 
2017-09-19T00:01:15.6005Z ROSS6 -- winchstatus -- 2017/09/19 00:01:15 UTC -- STATUS 1  Dir stationary  Rev 0 Res 809 Spd 100.00 Ver 8_16_2017  DOWNLOADING no
2017-09-19T00:01:16.4984Z ROSS6 -- stats -- 2017/09/19 00:01:16 UTC -- TIME 4198372000 LAT 56.8310252 LON -132.3638998 ALT 4.17 SATVIS 8 ROLL -0.024 PITCH -0.034 YAW -0.014 SP 0.995743870735 HD 359 TH 104 CURWP 1
2017-09-19T00:01:16.6001Z ROSS6 -- winchinfo -- 2017/09/19 00:01:16 UTC -- STATUS 1  Dir stationary  Rev 0 Res 810 Spd 100.00 Ver 8_16_2017 
2017-09-19T00:01:16.6003Z ROSS6 -- winchstatus -- 2017/09/19 00:01:16 UTC -- STATUS 1  Dir stationary  Rev 0 Res 810 Spd 100.00 Ver 8_16_2017  DOWNLOADING no
2017-09-19T00:01:17.5072Z ROSS6 -- stats -- 2017/09/19 00:01:17 UTC -- TIME 4199372000 LAT 56.8310336 LON -132.3638951 ALT 4.09 SATVIS 8 ROLL -0.029 PITCH -0.034 YAW -0.003 SP 0.982369303703 HD 359 TH 104 CURWP 1
2017-09-19T00:01:17.6088Z ROSS6 -- winchinfo -- 2017/09/19 00:01:17 UTC -- STATUS 1  Dir stationary  Rev 0 Res 810 Spd 100.00 Ver 8_16_2017 
2017-09-19T00:01:17.6090Z ROSS6 -- winchstatus -- 2017/09/19 00:01:17 UTC -- STATUS 1  Dir stationary  Rev 0 Res 810 Spd 100.00 Ver 8_16_2017  DOWNLOADING no
2017-09-19T00:01:18.4981Z ROSS6 -- stats -- 2017/09/19 00:01:18 UTC -- TIME 4200372000 LAT 56.831042 LON -132.3638901 ALT 4.0 SATVIS 8 ROLL -0.029 PITCH -0.034 YAW 0.006 SP 0.979547977448 HD 0 TH 104 CURWP 1
2017-09-19T00:01:18.6003Z ROSS6 -- winchinfo -- 2017/09/19 00:01:18 UTC -- STATUS 1  Dir stationary  Rev 0 Res 809 Spd 100.00 Ver 8_16_2017 
2017-09-19T00:01:18.6006Z ROSS6 -- winchstatus -- 2017/09/19 00:01:18 UTC -- STATUS 1  Dir stationary  Rev 0 Res 809 Spd 100.00 Ver 8_16_2017  DOWNLOADING no
2017-09-19T00:01:19.4981Z ROSS6 -- stats -- 2017/09/19 00:01:19 UTC -- TIME 4201372000 LAT 56.8310505 LON -132.363886 ALT 4.0 SATVIS 8 ROLL -0.023 PITCH -0.034 YAW 0.013 SP 0.96957808733 HD 0 TH 104 CURWP 1
2017-09-19T00:01:19.5999Z ROSS6 -- winchinfo -- 2017/09/19 00:01:19 UTC -- STATUS 1  Dir stationary  Rev 0 Res 810 Spd 100.00 Ver 8_16_2017 
2017-09-19T00:01:19.6001Z ROSS6 -- winchstatus -- 2017/09/19 00:01:19 UTC -- STATUS 1  Dir stationary  Rev 0 Res 810 Spd 100.00 Ver 8_16_2017  DOWNLOADING no
2017-09-19T00:01:21.4975Z ROSS6 -- stats -- 2017/09/19 00:01:21 UTC -- TIME 4203371000 LAT 56.8310669 LON -132.3638766 ALT 3.99 SATVIS 8 ROLL -0.019 PITCH -0.034 YAW 0.028 SP 0.943108320236 HD 1 TH 104 CURWP 1
2017-09-19T00:01:21.5989Z ROSS6 -- winchinfo -- 2017/09/19 00:01:21 UTC -- STATUS 1  Dir stationary  Rev 0 Res 810 Spd 100.00 Ver 8_16_2017 
2017-09-19T00:01:21.5991Z ROSS6 -- winchstatus -- 2017/09/19 00:01:21 UTC -- STATUS 1  Dir stationary  Rev 0 Res 810 Spd 100.00 Ver 8_16_2017  DOWNLOADING no
2017-09-19T00:01:22.4978Z ROSS6 -- stats -- 2017/09/19 00:01:22 UTC -- TIME 4204372000 LAT 56.8310752 LON -132.3638716 ALT 3.95 SATVIS 8 ROLL -0.025 PITCH -0.035 YAW 0.036 SP 0.938350200653 HD 2 TH 104 CURWP 1
2017-09-19T00:01:22.5994Z ROSS6 -- winchinfo -- 2017/09/19 00:01:22 UTC -- STATUS 1  Dir stationary  Rev 0 Res 809 Spd 100.00 Ver 8_16_2017 
2017-09-19T00:01:22.5996Z ROSS6 -- winchstatus -- 2017/09/19 00:01:22 UTC -- STATUS 1  Dir stationary  Rev 0 Res 809 Spd 100.00 Ver 8_16_2017  DOWNLOADING no
2017-09-19T00:01:23.4989Z ROSS6 -- stats -- 2017/09/19 00:01:23 UTC -- TIME 4205372000 LAT 56.8310832 LON -132.3638675 ALT 3.96 SATVIS 8 ROLL -0.030 PITCH -0.034 YAW 0.046 SP 0.930693805218 HD 2 TH 104 CURWP 1
2017-09-19T00:01:23.6004Z ROSS6 -- winchinfo -- 2017/09/19 00:01:23 UTC -- STATUS 1  Dir stationary  Rev 0 Res 810 Spd 100.00 Ver 8_16_2017 
2017-09-19T00:01:23.6006Z ROSS6 -- winchstatus -- 2017/09/19 00:01:23 UTC -- STATUS 1  Dir stationary  Rev 0 Res 810 Spd 100.00 Ver 8_16_2017  DOWNLOADING no
2017-09-19T00:01:24.4977Z ROSS6 -- stats -- 2017/09/19 00:01:24 UTC -- TIME 4206371000 LAT 56.8310912 LON -132.3638633 ALT 4.03 SATVIS 8 ROLL -0.030 PITCH -0.035 YAW 0.055 SP 0.925571501255 HD 3 TH 104 CURWP 1
2017-09-19T00:01:24.6002Z ROSS6 -- winchinfo -- 2017/09/19 00:01:24 UTC -- STATUS 1  Dir stationary  Rev 0 Res 808 Spd 100.00 Ver 8_16_2017 
2017-09-19T00:01:24.6005Z ROSS6 -- winchstatus -- 2017/09/19 00:01:24 UTC -- STATUS 1  Dir stationary  Rev 0 Res 808 Spd 100.00 Ver 8_16_2017  DOWNLOADING no
2017-09-19T00:01:25.4976Z ROSS6 -- stats -- 2017/09/19 00:01:25 UTC -- TIME 4207372000 LAT 56.8310988 LON -132.3638586 ALT 4.11 SATVIS 8 ROLL -0.025 PITCH -0.035 YAW 0.065 SP 0.910321593285 HD 3 TH 104 CURWP 1
2017-09-19T00:01:25.5992Z ROSS6 -- winchinfo -- 2017/09/19 00:01:25 UTC -- STATUS 1  Dir stationary  Rev 0 Res 808 Spd 100.00 Ver 8_16_2017 
2017-09-19T00:01:25.5993Z ROSS6 -- winchstatus -- 2017/09/19 00:01:25 UTC -- STATUS 1  Dir stationary  Rev 0 Res 808 Spd 100.00 Ver 8_16_2017  DOWNLOADING no
2017-09-19T00:01:26.4978Z ROSS6 -- stats -- 2017/09/19 00:01:26 UTC -- TIME 4208372000 LAT 56.8311058 LON -132.3638522 ALT 4.14 SATVIS 8 ROLL -0.020 PITCH -0.035 YAW 0.075 SP 0.917678654194 HD 4 TH 104 CURWP 1
2017-09-19T00:01:26.6005Z ROSS6 -- winchinfo -- 2017/09/19 00:01:26 UTC -- STATUS 1  Dir stationary  Rev 0 Res 810 Spd 100.00 Ver 8_16_2017 
2017-09-19T00:01:26.6007Z ROSS6 -- winchstatus -- 2017/09/19 00:01:26 UTC -- STATUS 1  Dir stationary  Rev 0 Res 810 Spd 100.00 Ver 8_16_2017  DOWNLOADING no
2017-09-19T00:01:27.4975Z ROSS6 -- stats -- 2017/09/19 00:01:27 UTC -- TIME 4209371000 LAT 56.8311128 LON -132.3638457 ALT 4.24 SATVIS 8 ROLL -0.020 PITCH -0.033 YAW 0.085 SP 0.932115137577 HD 4 TH 104 CURWP 1
2017-09-19T00:01:27.5990Z ROSS6 -- winchinfo -- 2017/09/19 00:01:27 UTC -- STATUS 1  Dir stationary  Rev 0 Res 809 Spd 100.00 Ver 8_16_2017 
2017-09-19T00:01:27.5991Z ROSS6 -- winchstatus -- 2017/09/19 00:01:27 UTC -- STATUS 1  Dir stationary  Rev 0 Res 809 Spd 100.00 Ver 8_16_2017  DOWNLOADING no
2017-09-19T00:01:28.5065Z ROSS6 -- stats -- 2017/09/19 00:01:28 UTC -- TIME 4210372000 LAT 56.8311201 LON -132.3638397 ALT 4.42 SATVIS 8 ROLL -0.024 PITCH -0.032 YAW 0.099 SP 0.955113112926 HD 5 TH 104 CURWP 1
2017-09-19T00:01:28.6087Z ROSS6 -- winchinfo -- 2017/09/19 00:01:28 UTC -- STATUS 1  Dir stationary  Rev 0 Res 810 Spd 100.00 Ver 8_16_2017 
2017-09-19T00:01:28.6089Z ROSS6 -- winchstatus -- 2017/09/19 00:01:28 UTC -- STATUS 1  Dir stationary  Rev 0 Res 810 Spd 100.00 Ver 8_16_2017  DOWNLOADING no
2017-09-19T00:01:29.4974Z ROSS6 -- stats -- 2017/09/19 00:01:29 UTC -- TIME 4211372000 LAT 56.8311277 LON -132.3638339 ALT 4.58 SATVIS 8 ROLL -0.026 PITCH -0.034 YAW 0.115 SP 0.96348208189 HD 6 TH 104 CURWP 1
2017-09-19T00:01:29.5991Z ROSS6 -- winchinfo -- 2017/09/19 00:01:29 UTC -- STATUS 1  Dir stationary  Rev 0 Res 809 Spd 100.00 Ver 8_16_2017 
2017-09-19T00:01:29.5993Z ROSS6 -- winchstatus -- 2017/09/19 00:01:29 UTC -- STATUS 1  Dir stationary  Rev 0 Res 809 Spd 100.00 Ver 8_16_2017  DOWNLOADING no
2017-09-19T00:01:30.4975Z ROSS6 -- stats -- 2017/09/19 00:01:30 UTC -- TIME 4212372000 LAT 56.8311359 LON -132.3638292 ALT 4.66 SATVIS 8 ROLL -0.026 PITCH -0.034 YAW 0.135 SP 0.97695595026 HD 7 TH 104 CURWP 1
2017-09-19T00:01:30.6000Z ROSS6 -- winchinfo -- 2017/09/19 00:01:30 UTC -- STATUS 1  Dir stationary  Rev 0 Res 810 Spd 100.00 Ver 8_16_2017 
2017-09-19T00:01:30.6003Z ROSS6 -- winchstatus -- 2017/09/19 00:01:30 UTC -- STATUS 1  Dir stationary  Rev 0 Res 810 Spd 100.00 Ver 8_16_2017  DOWNLOADING no
2017-09-19T00:01:31.4973Z ROSS6 -- stats -- 2017/09/19 00:01:31 UTC -- TIME 4213372000 LAT 56.8311443 LON -132.363824 ALT 4.72 SATVIS 8 ROLL -0.023 PITCH -0.034 YAW 0.157 SP 0.982123434544 HD 9 TH 104 CURWP 1
2017-09-19T00:01:31.5990Z ROSS6 -- winchinfo -- 2017/09/19 00:01:31 UTC -- STATUS 1  Dir stationary  Rev 0 Res 809 Spd 100.00 Ver 8_16_2017 
2017-09-19T00:01:31.5992Z ROSS6 -- winchstatus -- 2017/09/19 00:01:31 UTC -- STATUS 1  Dir stationary  Rev 0 Res 809 Spd 100.00 Ver 8_16_2017  DOWNLOADING no
2017-09-19T00:01:32.4972Z ROSS6 -- stats -- 2017/09/19 00:01:32 UTC -- TIME 4214372000 LAT 56.8311526 LON -132.363819 ALT 4.75 SATVIS 8 ROLL -0.023 PITCH -0.036 YAW 0.180 SP 0.988446176052 HD 10 TH 104 CURWP 1
2017-09-19T00:01:32.5988Z ROSS6 -- winchinfo -- 2017/09/19 00:01:32 UTC -- STATUS 1  Dir stationary  Rev 0 Res 809 Spd 100.00 Ver 8_16_2017 
2017-09-19T00:01:32.5990Z ROSS6 -- winchstatus -- 2017/09/19 00:01:32 UTC -- STATUS 1  Dir stationary  Rev 0 Res 809 Spd 100.00 Ver 8_16_2017  DOWNLOADING no
2017-09-19T00:01:33.4972Z ROSS6 -- stats -- 2017/09/19 00:01:33 UTC -- TIME 4215371000 LAT 56.8311608 LON -132.3638138 ALT 4.74 SATVIS 8 ROLL -0.026 PITCH -0.035 YAW 0.204 SP 0.97629070282 HD 11 TH 104 CURWP 1
2017-09-19T00:01:33.5986Z ROSS6 -- winchinfo -- 2017/09/19 00:01:33 UTC -- STATUS 1  Dir stationary  Rev 0 Res 808 Spd 100.00 Ver 8_16_2017 
2017-09-19T00:01:33.5987Z ROSS6 -- winchstatus -- 2017/09/19 00:01:33 UTC -- STATUS 1  Dir stationary  Rev 0 Res 808 Spd 100.00 Ver 8_16_2017  DOWNLOADING no
2017-09-19T00:01:34.4970Z ROSS6 -- stats -- 2017/09/19 00:01:34 UTC -- TIME 4216372000 LAT 56.8311698 LON -132.3638102 ALT 4.7 SATVIS 8 ROLL -0.030 PITCH -0.034 YAW 0.228 SP 0.956968605518 HD 13 TH 104 CURWP 1
2017-09-19T00:01:34.5985Z ROSS6 -- winchinfo -- 2017/09/19 00:01:34 UTC -- STATUS 1  Dir stationary  Rev 0 Res 809 Spd 100.00 Ver 8_16_2017 
2017-09-19T00:01:34.5987Z ROSS6 -- winchstatus -- 2017/09/19 00:01:34 UTC -- STATUS 1  Dir stationary  Rev 0 Res 809 Spd 100.00 Ver 8_16_2017  DOWNLOADING no
2017-09-19T00:01:35.4971Z ROSS6 -- stats -- 2017/09/19 00:01:35 UTC -- TIME 4217372000 LAT 56.831179 LON -132.3638072 ALT 4.63 SATVIS 8 ROLL -0.031 PITCH -0.034 YAW 0.252 SP 0.954894483089 HD 14 TH 104 CURWP 1
2017-09-19T00:01:35.5986Z ROSS6 -- winchinfo -- 2017/09/19 00:01:35 UTC -- STATUS 1  Dir stationary  Rev 0 Res 810 Spd 100.00 Ver 8_16_2017 
2017-09-19T00:01:35.5988Z ROSS6 -- winchstatus -- 2017/09/19 00:01:35 UTC -- STATUS 1  Dir stationary  Rev 0 Res 810 Spd 100.00 Ver 8_16_2017  DOWNLOADING no
2017-09-19T00:01:36.4970Z ROSS6 -- stats -- 2017/09/19 00:01:36 UTC -- TIME 4218372000 LAT 56.8311881 LON -132.3638039 ALT 4.55 SATVIS 8 ROLL -0.028 PITCH -0.035 YAW 0.274 SP 0.956652462482 HD 15 TH 104 CURWP 1
2017-09-19T00:01:36.5991Z ROSS6 -- winchinfo -- 2017/09/19 00:01:36 UTC -- STATUS 1  Dir stationary  Rev 0 Res 808 Spd 100.00 Ver 8_16_2017 
2017-09-19T00:01:36.5994Z ROSS6 -- winchstatus -- 2017/09/19 00:01:36 UTC -- STATUS 1  Dir stationary  Rev 0 Res 808 Spd 100.00 Ver 8_16_2017  DOWNLOADING no
2017-09-19T00:01:37.4968Z ROSS6 -- stats -- 2017/09/19 00:01:37 UTC -- TIME 4219372000 LAT 56.8311971 LON -132.3638008 ALT 4.54 SATVIS 8 ROLL -0.025 PITCH -0.034 YAW 0.296 SP 0.963642060757 HD 16 TH 104 CURWP 1
2017-09-19T00:01:37.5983Z ROSS6 -- winchinfo -- 2017/09/19 00:01:37 UTC -- STATUS 1  Dir stationary  Rev 0 Res 810 Spd 100.00 Ver 8_16_2017 
2017-09-19T00:01:37.5985Z ROSS6 -- winchstatus -- 2017/09/19 00:01:37 UTC -- STATUS 1  Dir stationary  Rev 0 Res 810 Spd 100.00 Ver 8_16_2017  DOWNLOADING no
2017-09-19T00:01:38.4969Z ROSS6 -- stats -- 2017/09/19 00:01:38 UTC -- TIME 4220372000 LAT 56.8312051 LON -132.3637953 ALT 4.45 SATVIS 8 ROLL -0.024 PITCH -0.033 YAW 0.317 SP 0.961686015129 HD 18 TH 104 CURWP 1
2017-09-19T00:01:38.5984Z ROSS6 -- winchinfo -- 2017/09/19 00:01:38 UTC -- STATUS 1  Dir stationary  Rev 0 Res 810 Spd 100.00 Ver 8_16_2017 
2017-09-19T00:01:38.5986Z ROSS6 -- winchstatus -- 2017/09/19 00:01:38 UTC -- STATUS 1  Dir stationary  Rev 0 Res 810 Spd 100.00 Ver 8_16_2017  DOWNLOADING no
2017-09-19T00:01:39.5047Z ROSS6 -- stats -- 2017/09/19 00:01:39 UTC -- TIME 4221372000 LAT 56.831213 LON -132.36379 ALT 4.39 SATVIS 8 ROLL -0.026 PITCH -0.034 YAW 0.338 SP 0.950013160706 HD 19 TH 104 CURWP 1
2017-09-19T00:01:39.6063Z ROSS6 -- winchinfo -- 2017/09/19 00:01:39 UTC -- STATUS 1  Dir stationary  Rev 0 Res 810 Spd 100.00 Ver 8_16_2017 
2017-09-19T00:01:39.6065Z ROSS6 -- winchstatus -- 2017/09/19 00:01:39 UTC -- STATUS 1  Dir stationary  Rev 0 Res 810 Spd 100.00 Ver 8_16_2017  DOWNLOADING no
2017-09-19T00:01:40.4968Z ROSS6 -- stats -- 2017/09/19 00:01:40 UTC -- TIME 4222372000 LAT 56.8312209 LON -132.3637847 ALT 4.34 SATVIS 8 ROLL -0.028 PITCH -0.034 YAW 0.359 SP 0.922091841698 HD 20 TH 104 CURWP 1
2017-09-19T00:01:40.5983Z ROSS6 -- winchinfo -- 2017/09/19 00:01:40 UTC -- STATUS 1  Dir stationary  Rev 0 Res 810 Spd 100.00 Ver 8_16_2017 
2017-09-19T00:01:40.5984Z ROSS6 -- winchstatus -- 2017/09/19 00:01:40 UTC -- STATUS 1  Dir stationary  Rev 0 Res 810 Spd 100.00 Ver 8_16_2017  DOWNLOADING no
2017-09-19T00:01:41.4968Z ROSS6 -- stats -- 2017/09/19 00:01:41 UTC -- TIME 4223372000 LAT 56.8312284 LON -132.3637789 ALT 4.3 SATVIS 8 ROLL -0.029 PITCH -0.034 YAW 0.379 SP 0.899582147598 HD 21 TH 104 CURWP 1
2017-09-19T00:01:41.5982Z ROSS6 -- winchinfo -- 2017/09/19 00:01:41 UTC -- STATUS 1  Dir stationary  Rev 0 Res 809 Spd 100.00 Ver 8_16_2017 
2017-09-19T00:01:41.5984Z ROSS6 -- winchstatus -- 2017/09/19 00:01:41 UTC -- STATUS 1  Dir stationary  Rev 0 Res 809 Spd 100.00 Ver 8_16_2017  DOWNLOADING no
2017-09-19T00:01:42.4968Z ROSS6 -- stats -- 2017/09/19 00:01:42 UTC -- TIME 4224372000 LAT 56.8312353 LON -132.3637713 ALT 4.22 SATVIS 8 ROLL -0.026 PITCH -0.033 YAW 0.398 SP 0.879935622215 HD 22 TH 104 CURWP 1
2017-09-19T00:01:42.5985Z ROSS6 -- winchinfo -- 2017/09/19 00:01:42 UTC -- STATUS 1  Dir stationary  Rev 0 Res 809 Spd 100.00 Ver 8_16_2017 
2017-09-19T00:01:42.5986Z ROSS6 -- winchstatus -- 2017/09/19 00:01:42 UTC -- STATUS 1  Dir stationary  Rev 0 Res 809 Spd 100.00 Ver 8_16_2017  DOWNLOADING no
2017-09-19T00:01:43.4967Z ROSS6 -- stats -- 2017/09/19 00:01:43 UTC -- TIME 4225372000 LAT 56.8312421 LON -132.3637632 ALT 4.15 SATVIS 8 ROLL -0.023 PITCH -0.031 YAW 0.416 SP 0.900075435638 HD 23 TH 104 CURWP 1
2017-09-19T00:01:43.5982Z ROSS6 -- winchinfo -- 2017/09/19 00:01:43 UTC -- STATUS 1  Dir stationary  Rev 0 Res 809 Spd 100.00 Ver 8_16_2017 
2017-09-19T00:01:43.5983Z ROSS6 -- winchstatus -- 2017/09/19 00:01:43 UTC -- STATUS 1  Dir stationary  Rev 0 Res 809 Spd 100.00 Ver 8_16_2017  DOWNLOADING no
2017-09-19T00:01:44.4966Z ROSS6 -- stats -- 2017/09/19 00:01:44 UTC -- TIME 4226372000 LAT 56.8312485 LON -132.3637541 ALT 4.12 SATVIS 8 ROLL -0.024 PITCH -0.029 YAW 0.433 SP 0.937679409981 HD 24 TH 104 CURWP 1
2017-09-19T00:01:44.5981Z ROSS6 -- winchinfo -- 2017/09/19 00:01:44 UTC -- STATUS 1  Dir stationary  Rev 0 Res 810 Spd 100.00 Ver 8_16_2017 
2017-09-19T00:01:44.5982Z ROSS6 -- winchstatus -- 2017/09/19 00:01:44 UTC -- STATUS 1  Dir stationary  Rev 0 Res 810 Spd 100.00 Ver 8_16_2017  DOWNLOADING no
2017-09-19T00:01:45.4965Z ROSS6 -- stats -- 2017/09/19 00:01:45 UTC -- TIME 4227372000 LAT 56.8312553 LON -132.3637448 ALT 4.09 SATVIS 8 ROLL -0.025 PITCH -0.031 YAW 0.452 SP 0.966417372227 HD 25 TH 104 CURWP 1
2017-09-19T00:01:45.5981Z ROSS6 -- winchinfo -- 2017/09/19 00:01:45 UTC -- STATUS 1  Dir stationary  Rev 0 Res 809 Spd 100.00 Ver 8_16_2017 
2017-09-19T00:01:45.5982Z ROSS6 -- winchstatus -- 2017/09/19 00:01:45 UTC -- STATUS 1  Dir stationary  Rev 0 Res 809 Spd 100.00 Ver 8_16_2017  DOWNLOADING no
2017-09-19T00:01:46.4966Z ROSS6 -- stats -- 2017/09/19 00:01:46 UTC -- TIME 4228371000 LAT 56.8312627 LON -132.3637359 ALT 4.04 SATVIS 8 ROLL -0.026 PITCH -0.033 YAW 0.470 SP 0.983280658722 HD 26 TH 104 CURWP 1
2017-09-19T00:01:46.5977Z ROSS6 -- winchinfo -- 2017/09/19 00:01:46 UTC -- STATUS 1  Dir stationary  Rev 0 Res 809 Spd 100.00 Ver 8_16_2017 
2017-09-19T00:01:46.5978Z ROSS6 -- winchstatus -- 2017/09/19 00:01:46 UTC -- STATUS 1  Dir stationary  Rev 0 Res 809 Spd 100.00 Ver 8_16_2017  DOWNLOADING no
2017-09-19T00:01:47.4967Z ROSS6 -- stats -- 2017/09/19 00:01:47 UTC -- TIME 4229371000 LAT 56.8312704 LON -132.3637275 ALT 4.04 SATVIS 8 ROLL -0.026 PITCH -0.032 YAW 0.487 SP 1.01336991787 HD 27 TH 104 CURWP 1
2017-09-19T00:01:47.5983Z ROSS6 -- winchinfo -- 2017/09/19 00:01:47 UTC -- STATUS 1  Dir stationary  Rev 0 Res 809 Spd 100.00 Ver 8_16_2017 
2017-09-19T00:01:47.5985Z ROSS6 -- winchstatus -- 2017/09/19 00:01:47 UTC -- STATUS 1  Dir stationary  Rev 0 Res 809 Spd 100.00 Ver 8_16_2017  DOWNLOADING no
2017-09-19T00:01:48.4964Z ROSS6 -- stats -- 2017/09/19 00:01:48 UTC -- TIME 4230372000 LAT 56.8312778 LON -132.3637175 ALT 4.02 SATVIS 8 ROLL -0.027 PITCH -0.031 YAW 0.501 SP 1.0449719429 HD 28 TH 104 CURWP 1
2017-09-19T00:01:48.5979Z ROSS6 -- winchinfo -- 2017/09/19 00:01:48 UTC -- STATUS 1  Dir stationary  Rev 0 Res 810 Spd 100.00 Ver 8_16_2017 
2017-09-19T00:01:48.5981Z ROSS6 -- winchstatus -- 2017/09/19 00:01:48 UTC -- STATUS 1  Dir stationary  Rev 0 Res 810 Spd 100.00 Ver 8_16_2017  DOWNLOADING no
2017-09-19T00:01:49.4962Z ROSS6 -- stats -- 2017/09/19 00:01:49 UTC -- TIME 4231372000 LAT 56.8312852 LON -132.3637056 ALT 3.91 SATVIS 8 ROLL -0.028 PITCH -0.032 YAW 0.514 SP 1.08997547626 HD 29 TH 104 CURWP 1
2017-09-19T00:01:49.5977Z ROSS6 -- winchinfo -- 2017/09/19 00:01:49 UTC -- STATUS 1  Dir stationary  Rev 0 Res 809 Spd 100.00 Ver 8_16_2017 
2017-09-19T00:01:49.5979Z ROSS6 -- winchstatus -- 2017/09/19 00:01:49 UTC -- STATUS 1  Dir stationary  Rev 0 Res 809 Spd 100.00 Ver 8_16_2017  DOWNLOADING no
2017-09-19T00:01:50.5053Z ROSS6 -- stats -- 2017/09/19 00:01:50 UTC -- TIME 4232372000 LAT 56.8312921 LON -132.3636923 ALT 3.8 SATVIS 8 ROLL -0.030 PITCH -0.033 YAW 0.522 SP 1.11032354832 HD 29 TH 104 CURWP 1
2017-09-19T00:01:50.6067Z ROSS6 -- winchinfo -- 2017/09/19 00:01:50 UTC -- STATUS 1  Dir stationary  Rev 0 Res 809 Spd 100.00 Ver 8_16_2017 
2017-09-19T00:01:50.6069Z ROSS6 -- winchstatus -- 2017/09/19 00:01:50 UTC -- STATUS 1  Dir stationary  Rev 0 Res 809 Spd 100.00 Ver 8_16_2017  DOWNLOADING no
2017-09-19T00:01:51.4960Z ROSS6 -- stats -- 2017/09/19 00:01:51 UTC -- TIME 4233372000 LAT 56.831299 LON -132.3636786 ALT 3.67 SATVIS 8 ROLL -0.029 PITCH -0.032 YAW 0.526 SP 1.11979150772 HD 30 TH 104 CURWP 1
2017-09-19T00:01:51.5975Z ROSS6 -- winchinfo -- 2017/09/19 00:01:51 UTC -- STATUS 1  Dir stationary  Rev 0 Res 810 Spd 100.00 Ver 8_16_2017 
2017-09-19T00:01:51.5977Z ROSS6 -- winchstatus -- 2017/09/19 00:01:51 UTC -- STATUS 1  Dir stationary  Rev 0 Res 810 Spd 100.00 Ver 8_16_2017  DOWNLOADING no
2017-09-19T00:01:52.4961Z ROSS6 -- stats -- 2017/09/19 00:01:52 UTC -- TIME 4234372000 LAT 56.8313058 LON -132.3636643 ALT 3.55 SATVIS 8 ROLL -0.027 PITCH -0.031 YAW 0.528 SP 1.13467359543 HD 30 TH 104 CURWP 1
2017-09-19T00:01:52.5977Z ROSS6 -- winchinfo -- 2017/09/19 00:01:52 UTC -- STATUS 1  Dir stationary  Rev 0 Res 810 Spd 100.00 Ver 8_16_2017 
2017-09-19T00:01:52.5979Z ROSS6 -- winchstatus -- 2017/09/19 00:01:52 UTC -- STATUS 1  Dir stationary  Rev 0 Res 810 Spd 100.00 Ver 8_16_2017  DOWNLOADING no
2017-09-19T00:01:53.4959Z ROSS6 -- stats -- 2017/09/19 00:01:53 UTC -- TIME 4235371000 LAT 56.8313126 LON -132.3636496 ALT 3.45 SATVIS 8 ROLL -0.021 PITCH -0.032 YAW 0.529 SP 1.15144276619 HD 30 TH 104 CURWP 1
2017-09-19T00:01:53.5975Z ROSS6 -- winchinfo -- 2017/09/19 00:01:53 UTC -- STATUS 1  Dir stationary  Rev 0 Res 810 Spd 100.00 Ver 8_16_2017 
2017-09-19T00:01:53.5976Z ROSS6 -- winchstatus -- 2017/09/19 00:01:53 UTC -- STATUS 1  Dir stationary  Rev 0 Res 810 Spd 100.00 Ver 8_16_2017  DOWNLOADING no
2017-09-19T00:01:54.4960Z ROSS6 -- stats -- 2017/09/19 00:01:54 UTC -- TIME 4236372000 LAT 56.8313194 LON -132.3636347 ALT 3.36 SATVIS 8 ROLL -0.018 PITCH -0.034 YAW 0.530 SP 1.14908361435 HD 30 TH 104 CURWP 1
2017-09-19T00:01:54.5975Z ROSS6 -- winchinfo -- 2017/09/19 00:01:54 UTC -- STATUS 1  Dir stationary  Rev 0 Res 810 Spd 100.00 Ver 8_16_2017 
2017-09-19T00:01:54.5977Z ROSS6 -- winchstatus -- 2017/09/19 00:01:54 UTC -- STATUS 1  Dir stationary  Rev 0 Res 810 Spd 100.00 Ver 8_16_2017  DOWNLOADING no
2017-09-19T00:01:55.4959Z ROSS6 -- stats -- 2017/09/19 00:01:55 UTC -- TIME 4237372000 LAT 56.8313262 LON -132.3636205 ALT 3.27 SATVIS 8 ROLL -0.018 PITCH -0.034 YAW 0.534 SP 1.13857650757 HD 30 TH 104 CURWP 1
2017-09-19T00:01:55.5975Z ROSS6 -- winchinfo -- 2017/09/19 00:01:55 UTC -- STATUS 1  Dir stationary  Rev 0 Res 809 Spd 100.00 Ver 8_16_2017 
2017-09-19T00:01:55.5977Z ROSS6 -- winchstatus -- 2017/09/19 00:01:55 UTC -- STATUS 1  Dir stationary  Rev 0 Res 809 Spd 100.00 Ver 8_16_2017  DOWNLOADING no
2017-09-19T00:01:56.4959Z ROSS6 -- stats -- 2017/09/19 00:01:56 UTC -- TIME 4238372000 LAT 56.8313332 LON -132.3636063 ALT 3.19 SATVIS 8 ROLL -0.021 PITCH -0.033 YAW 0.540 SP 1.12673008442 HD 30 TH 104 CURWP 1
2017-09-19T00:01:56.5974Z ROSS6 -- winchinfo -- 2017/09/19 00:01:56 UTC -- STATUS 1  Dir stationary  Rev 0 Res 809 Spd 100.00 Ver 8_16_2017 
2017-09-19T00:01:56.5976Z ROSS6 -- winchstatus -- 2017/09/19 00:01:56 UTC -- STATUS 1  Dir stationary  Rev 0 Res 809 Spd 100.00 Ver 8_16_2017  DOWNLOADING no
2017-09-19T00:01:57.4958Z ROSS6 -- stats -- 2017/09/19 00:01:57 UTC -- TIME 4239372000 LAT 56.8313399 LON -132.3635924 ALT 3.12 SATVIS 8 ROLL -0.025 PITCH -0.034 YAW 0.547 SP 1.11562132835 HD 31 TH 104 CURWP 1
2017-09-19T00:01:57.5973Z ROSS6 -- winchinfo -- 2017/09/19 00:01:57 UTC -- STATUS 1  Dir stationary  Rev 0 Res 810 Spd 100.00 Ver 8_16_2017 
2017-09-19T00:01:57.5974Z ROSS6 -- winchstatus -- 2017/09/19 00:01:57 UTC -- STATUS 1  Dir stationary  Rev 0 Res 810 Spd 100.00 Ver 8_16_2017  DOWNLOADING no
2017-09-19T00:01:58.4958Z ROSS6 -- stats -- 2017/09/19 00:01:58 UTC -- TIME 4240372000 LAT 56.8313461 LON -132.3635784 ALT 3.15 SATVIS 8 ROLL -0.027 PITCH -0.035 YAW 0.557 SP 1.10486090183 HD 31 TH 104 CURWP 1
2017-09-19T00:01:58.5978Z ROSS6 -- winchinfo -- 2017/09/19 00:01:58 UTC -- STATUS 1  Dir stationary  Rev 0 Res 810 Spd 100.00 Ver 8_16_2017 
2017-09-19T00:01:58.5980Z ROSS6 -- winchstatus -- 2017/09/19 00:01:58 UTC -- STATUS 1  Dir stationary  Rev 0 Res 810 Spd 100.00 Ver 8_16_2017  DOWNLOADING no
2017-09-19T00:01:59.4957Z ROSS6 -- stats -- 2017/09/19 00:01:59 UTC -- TIME 4241372000 LAT 56.831352 LON -132.3635643 ALT 3.22 SATVIS 8 ROLL -0.026 PITCH -0.034 YAW 0.567 SP 1.08342766762 HD 32 TH 104 CURWP 1
2017-09-19T00:01:59.5972Z ROSS6 -- winchinfo -- 2017/09/19 00:01:59 UTC -- STATUS 1  Dir stationary  Rev 0 Res 810 Spd 100.00 Ver 8_16_2017 
2017-09-19T00:01:59.5974Z ROSS6 -- winchstatus -- 2017/09/19 00:01:59 UTC -- STATUS 1  Dir stationary  Rev 0 Res 810 Spd 100.00 Ver 8_16_2017  DOWNLOADING no
2017-09-19T00:02:00.4957Z ROSS6 -- stats -- 2017/09/19 00:02:00 UTC -- TIME 4242372000 LAT 56.8313578 LON -132.3635507 ALT 3.32 SATVIS 8 ROLL -0.024 PITCH -0.033 YAW 0.577 SP 1.07433021069 HD 33 TH 104 CURWP 1
2017-09-19T00:02:00.5977Z ROSS6 -- winchinfo -- 2017/09/19 00:02:00 UTC -- STATUS 1  Dir stationary  Rev 0 Res 809 Spd 100.00 Ver 8_16_2017 
2017-09-19T00:02:00.5980Z ROSS6 -- winchstatus -- 2017/09/19 00:02:00 UTC -- STATUS 1  Dir stationary  Rev 0 Res 809 Spd 100.00 Ver 8_16_2017  DOWNLOADING no
2017-09-19T00:02:01.5045Z ROSS6 -- stats -- 2017/09/19 00:02:01 UTC -- TIME 4243372000 LAT 56.8313627 LON -132.3635365 ALT 3.57 SATVIS 8 ROLL -0.024 PITCH -0.034 YAW 0.588 SP 1.04744160175 HD 33 TH 104 CURWP 1
2017-09-19T00:02:01.6061Z ROSS6 -- winchinfo -- 2017/09/19 00:02:01 UTC -- STATUS 1  Dir stationary  Rev 0 Res 808 Spd 100.00 Ver 8_16_2017 
2017-09-19T00:02:01.6062Z ROSS6 -- winchstatus -- 2017/09/19 00:02:01 UTC -- STATUS 1  Dir stationary  Rev 0 Res 808 Spd 100.00 Ver 8_16_2017  DOWNLOADING no
2017-09-19T00:02:02.4956Z ROSS6 -- stats -- 2017/09/19 00:02:02 UTC -- TIME 4244372000 LAT 56.8313669 LON -132.3635216 ALT 4.0 SATVIS 7 ROLL -0.025 PITCH -0.034 YAW 0.599 SP 1.02070558071 HD 34 TH 104 CURWP 1
2017-09-19T00:02:02.5979Z ROSS6 -- winchinfo -- 2017/09/19 00:02:02 UTC -- STATUS 1  Dir stationary  Rev 0 Res 810 Spd 100.00 Ver 8_16_2017 
2017-09-19T00:02:02.5981Z ROSS6 -- winchstatus -- 2017/09/19 00:02:02 UTC -- STATUS 1  Dir stationary  Rev 0 Res 810 Spd 100.00 Ver 8_16_2017  DOWNLOADING no
2017-09-19T00:02:03.4955Z ROSS6 -- stats -- 2017/09/19 00:02:03 UTC -- TIME 4245372000 LAT 56.8313704 LON -132.3635066 ALT 4.54 SATVIS 7 ROLL -0.026 PITCH -0.033 YAW 0.610 SP 1.00385332108 HD 34 TH 104 CURWP 1
2017-09-19T00:02:03.5969Z ROSS6 -- winchinfo -- 2017/09/19 00:02:03 UTC -- STATUS 1  Dir stationary  Rev 0 Res 809 Spd 100.00 Ver 8_16_2017 
2017-09-19T00:02:03.5971Z ROSS6 -- winchstatus -- 2017/09/19 00:02:03 UTC -- STATUS 1  Dir stationary  Rev 0 Res 809 Spd 100.00 Ver 8_16_2017  DOWNLOADING no
2017-09-19T00:02:04.4954Z ROSS6 -- stats -- 2017/09/19 00:02:04 UTC -- TIME 4246372000 LAT 56.8313737 LON -132.3634919 ALT 5.08 SATVIS 8 ROLL -0.027 PITCH -0.033 YAW 0.620 SP 0.97975730896 HD 35 TH 104 CURWP 1
2017-09-19T00:02:04.5975Z ROSS6 -- winchinfo -- 2017/09/19 00:02:04 UTC -- STATUS 1  Dir stationary  Rev 0 Res 809 Spd 100.00 Ver 8_16_2017 
2017-09-19T00:02:04.5978Z ROSS6 -- winchstatus -- 2017/09/19 00:02:04 UTC -- STATUS 1  Dir stationary  Rev 0 Res 809 Spd 100.00 Ver 8_16_2017  DOWNLOADING no
2017-09-19T00:02:05.4954Z ROSS6 -- stats -- 2017/09/19 00:02:05 UTC -- TIME 4247372000 LAT 56.8313774 LON -132.3634775 ALT 5.53 SATVIS 8 ROLL -0.027 PITCH -0.033 YAW 0.629 SP 0.957110464573 HD 36 TH 104 CURWP 1
2017-09-19T00:02:05.5970Z ROSS6 -- winchinfo -- 2017/09/19 00:02:05 UTC -- STATUS 1  Dir stationary  Rev 0 Res 810 Spd 100.00 Ver 8_16_2017 
2017-09-19T00:02:05.5972Z ROSS6 -- winchstatus -- 2017/09/19 00:02:05 UTC -- STATUS 1  Dir stationary  Rev 0 Res 810 Spd 100.00 Ver 8_16_2017  DOWNLOADING no
2017-09-19T00:02:06.4954Z ROSS6 -- stats -- 2017/09/19 00:02:06 UTC -- TIME 4248372000 LAT 56.8313814 LON -132.3634634 ALT 5.87 SATVIS 8 ROLL -0.028 PITCH -0.033 YAW 0.637 SP 0.950429677963 HD 36 TH 104 CURWP 1
2017-09-19T00:02:06.5970Z ROSS6 -- winchinfo -- 2017/09/19 00:02:06 UTC -- STATUS 1  Dir stationary  Rev 0 Res 810 Spd 100.00 Ver 8_16_2017 
2017-09-19T00:02:06.5971Z ROSS6 -- winchstatus -- 2017/09/19 00:02:06 UTC -- STATUS 1  Dir stationary  Rev 0 Res 810 Spd 100.00 Ver 8_16_2017  DOWNLOADING no
2017-09-19T00:02:07.4953Z ROSS6 -- stats -- 2017/09/19 00:02:07 UTC -- TIME 4249372000 LAT 56.8313855 LON -132.3634496 ALT 6.15 SATVIS 8 ROLL -0.028 PITCH -0.034 YAW 0.643 SP 0.966598749161 HD 36 TH 104 CURWP 1
2017-09-19T00:02:07.5968Z ROSS6 -- winchinfo -- 2017/09/19 00:02:07 UTC -- STATUS 1  Dir stationary  Rev 0 Res 810 Spd 100.00 Ver 8_16_2017 
2017-09-19T00:02:07.5970Z ROSS6 -- winchstatus -- 2017/09/19 00:02:07 UTC -- STATUS 1  Dir stationary  Rev 0 Res 810 Spd 100.00 Ver 8_16_2017  DOWNLOADING no
2017-09-19T00:02:08.4952Z ROSS6 -- stats -- 2017/09/19 00:02:08 UTC -- TIME 4250372000 LAT 56.8313898 LON -132.363436 ALT 6.35 SATVIS 8 ROLL -0.028 PITCH -0.034 YAW 0.648 SP 0.976893186569 HD 37 TH 104 CURWP 1
2017-09-19T00:02:08.5968Z ROSS6 -- winchinfo -- 2017/09/19 00:02:08 UTC -- STATUS 1  Dir stationary  Rev 0 Res 810 Spd 100.00 Ver 8_16_2017 
2017-09-19T00:02:08.5970Z ROSS6 -- winchstatus -- 2017/09/19 00:02:08 UTC -- STATUS 1  Dir stationary  Rev 0 Res 810 Spd 100.00 Ver 8_16_2017  DOWNLOADING no
2017-09-19T00:02:09.4952Z ROSS6 -- stats -- 2017/09/19 00:02:09 UTC -- TIME 4251372000 LAT 56.8313944 LON -132.3634223 ALT 6.42 SATVIS 8 ROLL -0.029 PITCH -0.035 YAW 0.652 SP 0.972484707832 HD 37 TH 104 CURWP 1
2017-09-19T00:02:09.5968Z ROSS6 -- winchinfo -- 2017/09/19 00:02:09 UTC -- STATUS 1  Dir stationary  Rev 0 Res 810 Spd 100.00 Ver 8_16_2017 
2017-09-19T00:02:09.5971Z ROSS6 -- winchstatus -- 2017/09/19 00:02:09 UTC -- STATUS 1  Dir stationary  Rev 0 Res 810 Spd 100.00 Ver 8_16_2017  DOWNLOADING no
2017-09-19T00:02:10.4956Z ROSS6 -- stats -- 2017/09/19 00:02:10 UTC -- TIME 4252372000 LAT 56.8313988 LON -132.3634089 ALT 6.49 SATVIS 8 ROLL -0.028 PITCH -0.036 YAW 0.654 SP 0.971729040146 HD 37 TH 104 CURWP 1
2017-09-19T00:02:10.5977Z ROSS6 -- winchinfo -- 2017/09/19 00:02:10 UTC -- STATUS 1  Dir stationary  Rev 0 Res 809 Spd 100.00 Ver 8_16_2017 
2017-09-19T00:02:10.5979Z ROSS6 -- winchstatus -- 2017/09/19 00:02:10 UTC -- STATUS 1  Dir stationary  Rev 0 Res 809 Spd 100.00 Ver 8_16_2017  DOWNLOADING no
2017-09-19T00:02:11.4950Z ROSS6 -- stats -- 2017/09/19 00:02:11 UTC -- TIME 4253372000 LAT 56.8314032 LON -132.3633955 ALT 6.56 SATVIS 8 ROLL -0.027 PITCH -0.036 YAW 0.655 SP 0.977952063084 HD 37 TH 104 CURWP 1
2017-09-19T00:02:11.5967Z ROSS6 -- winchinfo -- 2017/09/19 00:02:11 UTC -- STATUS 1  Dir stationary  Rev 0 Res 810 Spd 100.00 Ver 8_16_2017 
2017-09-19T00:02:11.5969Z ROSS6 -- winchstatus -- 2017/09/19 00:02:11 UTC -- STATUS 1  Dir stationary  Rev 0 Res 810 Spd 100.00 Ver 8_16_2017  DOWNLOADING no
2017-09-19T00:02:12.5040Z ROSS6 -- stats -- 2017/09/19 00:02:12 UTC -- TIME 4254371000 LAT 56.8314074 LON -132.3633822 ALT 6.62 SATVIS 8 ROLL -0.027 PITCH -0.036 YAW 0.655 SP 0.965576529503 HD 37 TH 104 CURWP 1
2017-09-19T00:02:12.6056Z ROSS6 -- winchinfo -- 2017/09/19 00:02:12 UTC -- STATUS 1  Dir stationary  Rev 0 Res 809 Spd 100.00 Ver 8_16_2017 
2017-09-19T00:02:12.6058Z ROSS6 -- winchstatus -- 2017/09/19 00:02:12 UTC -- STATUS 1  Dir stationary  Rev 0 Res 809 Spd 100.00 Ver 8_16_2017  DOWNLOADING no
2017-09-19T00:02:13.4949Z ROSS6 -- stats -- 2017/09/19 00:02:13 UTC -- TIME 4255372000 LAT 56.8314115 LON -132.363369 ALT 6.68 SATVIS 8 ROLL -0.027 PITCH -0.036 YAW 0.654 SP 0.959131896496 HD 37 TH 104 CURWP 1
2017-09-19T00:02:13.5965Z ROSS6 -- winchinfo -- 2017/09/19 00:02:13 UTC -- STATUS 1  Dir stationary  Rev 0 Res 810 Spd 100.00 Ver 8_16_2017 
2017-09-19T00:02:13.5967Z ROSS6 -- winchstatus -- 2017/09/19 00:02:13 UTC -- STATUS 1  Dir stationary  Rev 0 Res 810 Spd 100.00 Ver 8_16_2017  DOWNLOADING no
2017-09-19T00:02:14.4952Z ROSS6 -- stats -- 2017/09/19 00:02:14 UTC -- TIME 4256372000 LAT 56.8314156 LON -132.3633559 ALT 6.73 SATVIS 8 ROLL -0.028 PITCH -0.035 YAW 0.653 SP 0.942481040955 HD 37 TH 104 CURWP 1
2017-09-19T00:02:14.5975Z ROSS6 -- winchinfo -- 2017/09/19 00:02:14 UTC -- STATUS 1  Dir stationary  Rev 0 Res 809 Spd 100.00 Ver 8_16_2017 
2017-09-19T00:02:14.5978Z ROSS6 -- winchstatus -- 2017/09/19 00:02:14 UTC -- STATUS 1  Dir stationary  Rev 0 Res 809 Spd 100.00 Ver 8_16_2017  DOWNLOADING no
2017-09-19T00:02:15.4949Z ROSS6 -- stats -- 2017/09/19 00:02:15 UTC -- TIME 4257372000 LAT 56.8314196 LON -132.3633429 ALT 6.79 SATVIS 8 ROLL -0.028 PITCH -0.035 YAW 0.651 SP 0.935977756977 HD 37 TH 104 CURWP 1
2017-09-19T00:02:15.5966Z ROSS6 -- winchinfo -- 2017/09/19 00:02:15 UTC -- STATUS 1  Dir stationary  Rev 0 Res 809 Spd 100.00 Ver 8_16_2017 
2017-09-19T00:02:15.5968Z ROSS6 -- winchstatus -- 2017/09/19 00:02:15 UTC -- STATUS 1  Dir stationary  Rev 0 Res 809 Spd 100.00 Ver 8_16_2017  DOWNLOADING no
2017-09-19T00:02:16.4948Z ROSS6 -- stats -- 2017/09/19 00:02:16 UTC -- TIME 4258372000 LAT 56.8314236 LON -132.3633299 ALT 6.82 SATVIS 8 ROLL -0.028 PITCH -0.036 YAW 0.648 SP 0.918932616711 HD 37 TH 104 CURWP 1
2017-09-19T00:02:16.5967Z ROSS6 -- winchinfo -- 2017/09/19 00:02:16 UTC -- STATUS 1  Dir stationary  Rev 0 Res 810 Spd 100.00 Ver 8_16_2017 
2017-09-19T00:02:16.5970Z ROSS6 -- winchstatus -- 2017/09/19 00:02:16 UTC -- STATUS 1  Dir stationary  Rev 0 Res 810 Spd 100.00 Ver 8_16_2017  DOWNLOADING no
2017-09-19T00:02:17.4948Z ROSS6 -- stats -- 2017/09/19 00:02:17 UTC -- TIME 4259372000 LAT 56.8314275 LON -132.3633171 ALT 6.84 SATVIS 8 ROLL -0.026 PITCH -0.035 YAW 0.644 SP 0.905225157738 HD 36 TH 104 CURWP 1
2017-09-19T00:02:17.5964Z ROSS6 -- winchinfo -- 2017/09/19 00:02:17 UTC -- STATUS 1  Dir stationary  Rev 0 Res 810 Spd 100.00 Ver 8_16_2017 
2017-09-19T00:02:17.5966Z ROSS6 -- winchstatus -- 2017/09/19 00:02:17 UTC -- STATUS 1  Dir stationary  Rev 0 Res 810 Spd 100.00 Ver 8_16_2017  DOWNLOADING no
2017-09-19T00:02:18.4947Z ROSS6 -- stats -- 2017/09/19 00:02:18 UTC -- TIME 4260372000 LAT 56.8314312 LON -132.3633044 ALT 6.85 SATVIS 8 ROLL -0.024 PITCH -0.035 YAW 0.640 SP 0.894219219685 HD 36 TH 104 CURWP 1
2017-09-19T00:02:18.5964Z ROSS6 -- winchinfo -- 2017/09/19 00:02:18 UTC -- STATUS 1  Dir stationary  Rev 0 Res 810 Spd 100.00 Ver 8_16_2017 
2017-09-19T00:02:18.5966Z ROSS6 -- winchstatus -- 2017/09/19 00:02:18 UTC -- STATUS 1  Dir stationary  Rev 0 Res 810 Spd 100.00 Ver 8_16_2017  DOWNLOADING no
2017-09-19T00:02:19.4946Z ROSS6 -- stats -- 2017/09/19 00:02:19 UTC -- TIME 4261371000 LAT 56.8314351 LON -132.3632911 ALT 6.85 SATVIS 8 ROLL -0.025 PITCH -0.033 YAW 0.635 SP 0.931699573994 HD 36 TH 104 CURWP 1
2017-09-19T00:02:19.5961Z ROSS6 -- winchinfo -- 2017/09/19 00:02:19 UTC -- STATUS 1  Dir stationary  Rev 0 Res 809 Spd 100.00 Ver 8_16_2017 
2017-09-19T00:02:19.5963Z ROSS6 -- winchstatus -- 2017/09/19 00:02:19 UTC -- STATUS 1  Dir stationary  Rev 0 Res 809 Spd 100.00 Ver 8_16_2017  DOWNLOADING no
2017-09-19T00:02:20.4949Z ROSS6 -- stats -- 2017/09/19 00:02:20 UTC -- TIME 4262371000 LAT 56.8314389 LON -132.3632774 ALT 6.85 SATVIS 8 ROLL -0.030 PITCH -0.033 YAW 0.627 SP 0.951071500778 HD 35 TH 104 CURWP 1
2017-09-19T00:02:20.5969Z ROSS6 -- winchinfo -- 2017/09/19 00:02:20 UTC -- STATUS 1  Dir stationary  Rev 0 Res 810 Spd 100.00 Ver 8_16_2017 
2017-09-19T00:02:20.5971Z ROSS6 -- winchstatus -- 2017/09/19 00:02:20 UTC -- STATUS 1  Dir stationary  Rev 0 Res 810 Spd 100.00 Ver 8_16_2017  DOWNLOADING no
2017-09-19T00:02:21.4945Z ROSS6 -- stats -- 2017/09/19 00:02:21 UTC -- TIME 4263372000 LAT 56.8314426 LON -132.363263 ALT 6.87 SATVIS 8 ROLL -0.032 PITCH -0.034 YAW 0.617 SP 0.991975665092 HD 35 TH 104 CURWP 1
2017-09-19T00:02:21.5961Z ROSS6 -- winchinfo -- 2017/09/19 00:02:21 UTC -- STATUS 1  Dir stationary  Rev 0 Res 810 Spd 100.00 Ver 8_16_2017 
2017-09-19T00:02:21.5963Z ROSS6 -- winchstatus -- 2017/09/19 00:02:21 UTC -- STATUS 1  Dir stationary  Rev 0 Res 810 Spd 100.00 Ver 8_16_2017  DOWNLOADING no
2017-09-19T00:02:22.4940Z ROSS6 -- stats -- 2017/09/19 00:02:22 UTC -- TIME 4264372000 LAT 56.8314463 LON -132.3632482 ALT 6.89 SATVIS 8 ROLL -0.028 PITCH -0.034 YAW 0.606 SP 1.02646243572 HD 34 TH 104 CURWP 1
2017-09-19T00:02:22.5953Z ROSS6 -- winchinfo -- 2017/09/19 00:02:22 UTC -- STATUS 1  Dir stationary  Rev 0 Res 809 Spd 100.00 Ver 8_16_2017 
2017-09-19T00:02:22.5955Z ROSS6 -- winchstatus -- 2017/09/19 00:02:22 UTC -- STATUS 1  Dir stationary  Rev 0 Res 809 Spd 100.00 Ver 8_16_2017  DOWNLOADING no
2017-09-19T00:02:23.5036Z ROSS6 -- stats -- 2017/09/19 00:02:23 UTC -- TIME 4265372000 LAT 56.8314499 LON -132.3632329 ALT 6.95 SATVIS 8 ROLL -0.020 PITCH -0.033 YAW 0.593 SP 1.05920743942 HD 33 TH 104 CURWP 1
2017-09-19T00:02:23.6053Z ROSS6 -- winchinfo -- 2017/09/19 00:02:23 UTC -- STATUS 1  Dir stationary  Rev 0 Res 810 Spd 100.00 Ver 8_16_2017 
2017-09-19T00:02:23.6055Z ROSS6 -- winchstatus -- 2017/09/19 00:02:23 UTC -- STATUS 1  Dir stationary  Rev 0 Res 810 Spd 100.00 Ver 8_16_2017  DOWNLOADING no
2017-09-19T00:02:24.4945Z ROSS6 -- stats -- 2017/09/19 00:02:24 UTC -- TIME 4266372000 LAT 56.8314537 LON -132.3632173 ALT 7.0 SATVIS 8 ROLL -0.015 PITCH -0.033 YAW 0.581 SP 1.0837007761 HD 33 TH 104 CURWP 1
2017-09-19T00:02:24.5961Z ROSS6 -- winchinfo -- 2017/09/19 00:02:24 UTC -- STATUS 1  Dir stationary  Rev 0 Res 810 Spd 100.00 Ver 8_16_2017 
2017-09-19T00:02:24.5963Z ROSS6 -- winchstatus -- 2017/09/19 00:02:24 UTC -- STATUS 1  Dir stationary  Rev 0 Res 810 Spd 100.00 Ver 8_16_2017  DOWNLOADING no
2017-09-19T00:02:25.4943Z ROSS6 -- stats -- 2017/09/19 00:02:25 UTC -- TIME 4267372000 LAT 56.831458 LON -132.3632014 ALT 7.05 SATVIS 8 ROLL -0.017 PITCH -0.034 YAW 0.571 SP 1.1078504324 HD 32 TH 104 CURWP 1
2017-09-19T00:02:25.5958Z ROSS6 -- winchinfo -- 2017/09/19 00:02:25 UTC -- STATUS 1  Dir stationary  Rev 0 Res 810 Spd 100.00 Ver 8_16_2017 
2017-09-19T00:02:25.5961Z ROSS6 -- winchstatus -- 2017/09/19 00:02:25 UTC -- STATUS 1  Dir stationary  Rev 0 Res 810 Spd 100.00 Ver 8_16_2017  DOWNLOADING no
2017-09-19T00:02:26.4942Z ROSS6 -- stats -- 2017/09/19 00:02:26 UTC -- TIME 4268372000 LAT 56.8314626 LON -132.3631855 ALT 7.12 SATVIS 8 ROLL -0.023 PITCH -0.034 YAW 0.563 SP 1.12932085991 HD 32 TH 104 CURWP 1
2017-09-19T00:02:26.5958Z ROSS6 -- winchinfo -- 2017/09/19 00:02:26 UTC -- STATUS 1  Dir stationary  Rev 0 Res 809 Spd 100.00 Ver 8_16_2017 
2017-09-19T00:02:26.5960Z ROSS6 -- winchstatus -- 2017/09/19 00:02:26 UTC -- STATUS 1  Dir stationary  Rev 0 Res 809 Spd 100.00 Ver 8_16_2017  DOWNLOADING no
2017-09-19T00:02:27.4942Z ROSS6 -- stats -- 2017/09/19 00:02:27 UTC -- TIME 4269372000 LAT 56.8314674 LON -132.363169 ALT 7.16 SATVIS 8 ROLL -0.028 PITCH -0.034 YAW 0.556 SP 1.14823377132 HD 31 TH 104 CURWP 1
2017-09-19T00:02:27.5959Z ROSS6 -- winchinfo -- 2017/09/19 00:02:27 UTC -- STATUS 1  Dir stationary  Rev 0 Res 809 Spd 100.00 Ver 8_16_2017 
2017-09-19T00:02:27.5961Z ROSS6 -- winchstatus -- 2017/09/19 00:02:27 UTC -- STATUS 1  Dir stationary  Rev 0 Res 809 Spd 100.00 Ver 8_16_2017  DOWNLOADING no
2017-09-19T00:02:28.4944Z ROSS6 -- stats -- 2017/09/19 00:02:28 UTC -- TIME 4270372000 LAT 56.8314725 LON -132.3631525 ALT 7.19 SATVIS 8 ROLL -0.024 PITCH -0.035 YAW 0.550 SP 1.15926802158 HD 31 TH 104 CURWP 1
2017-09-19T00:02:28.5963Z ROSS6 -- winchinfo -- 2017/09/19 00:02:28 UTC -- STATUS 1  Dir stationary  Rev 0 Res 809 Spd 100.00 Ver 8_16_2017 
2017-09-19T00:02:28.5965Z ROSS6 -- winchstatus -- 2017/09/19 00:02:28 UTC -- STATUS 1  Dir stationary  Rev 0 Res 809 Spd 100.00 Ver 8_16_2017  DOWNLOADING no
2017-09-19T00:02:29.4941Z ROSS6 -- stats -- 2017/09/19 00:02:29 UTC -- TIME 4271372000 LAT 56.8314775 LON -132.3631361 ALT 7.2 SATVIS 8 ROLL -0.017 PITCH -0.036 YAW 0.544 SP 1.16180610657 HD 31 TH 104 CURWP 1
2017-09-19T00:02:29.5957Z ROSS6 -- winchinfo -- 2017/09/19 00:02:29 UTC -- STATUS 1  Dir stationary  Rev 0 Res 810 Spd 100.00 Ver 8_16_2017 
2017-09-19T00:02:29.5959Z ROSS6 -- winchstatus -- 2017/09/19 00:02:29 UTC -- STATUS 1  Dir stationary  Rev 0 Res 810 Spd 100.00 Ver 8_16_2017  DOWNLOADING no
2017-09-19T00:02:30.4940Z ROSS6 -- stats -- 2017/09/19 00:02:30 UTC -- TIME 4272372000 LAT 56.8314825 LON -132.3631199 ALT 7.2 SATVIS 8 ROLL -0.015 PITCH -0.035 YAW 0.538 SP 1.15357112885 HD 30 TH 104 CURWP 1
2017-09-19T00:02:30.5964Z ROSS6 -- winchinfo -- 2017/09/19 00:02:30 UTC -- STATUS 1  Dir stationary  Rev 0 Res 809 Spd 100.00 Ver 8_16_2017 
2017-09-19T00:02:30.5966Z ROSS6 -- winchstatus -- 2017/09/19 00:02:30 UTC -- STATUS 1  Dir stationary  Rev 0 Res 809 Spd 100.00 Ver 8_16_2017  DOWNLOADING no
2017-09-19T00:02:31.4939Z ROSS6 -- stats -- 2017/09/19 00:02:31 UTC -- TIME 4273371000 LAT 56.8314878 LON -132.363104 ALT 7.17 SATVIS 8 ROLL -0.019 PITCH -0.035 YAW 0.533 SP 1.13246417046 HD 30 TH 104 CURWP 1
2017-09-19T00:02:31.5956Z ROSS6 -- winchinfo -- 2017/09/19 00:02:31 UTC -- STATUS 1  Dir stationary  Rev 0 Res 810 Spd 100.00 Ver 8_16_2017 
2017-09-19T00:02:31.5958Z ROSS6 -- winchstatus -- 2017/09/19 00:02:31 UTC -- STATUS 1  Dir stationary  Rev 0 Res 810 Spd 100.00 Ver 8_16_2017  DOWNLOADING no
2017-09-19T00:02:32.4939Z ROSS6 -- stats -- 2017/09/19 00:02:32 UTC -- TIME 4274372000 LAT 56.8314932 LON -132.3630884 ALT 7.14 SATVIS 8 ROLL -0.027 PITCH -0.036 YAW 0.528 SP 1.13508689404 HD 30 TH 104 CURWP 1
2017-09-19T00:02:32.5955Z ROSS6 -- winchinfo -- 2017/09/19 00:02:32 UTC -- STATUS 1  Dir stationary  Rev 0 Res 810 Spd 100.00 Ver 8_16_2017 
2017-09-19T00:02:32.5957Z ROSS6 -- winchstatus -- 2017/09/19 00:02:32 UTC -- STATUS 1  Dir stationary  Rev 0 Res 810 Spd 100.00 Ver 8_16_2017  DOWNLOADING no
2017-09-19T00:02:33.4937Z ROSS6 -- stats -- 2017/09/19 00:02:33 UTC -- TIME 4275372000 LAT 56.8314986 LON -132.363073 ALT 7.12 SATVIS 8 ROLL -0.030 PITCH -0.036 YAW 0.524 SP 1.13310182095 HD 30 TH 104 CURWP 1
2017-09-19T00:02:33.5952Z ROSS6 -- winchinfo -- 2017/09/19 00:02:33 UTC -- STATUS 1  Dir stationary  Rev 0 Res 810 Spd 100.00 Ver 8_16_2017 
2017-09-19T00:02:33.5954Z ROSS6 -- winchstatus -- 2017/09/19 00:02:33 UTC -- STATUS 1  Dir stationary  Rev 0 Res 810 Spd 100.00 Ver 8_16_2017  DOWNLOADING no
2017-09-19T00:02:34.5027Z ROSS6 -- stats -- 2017/09/19 00:02:34 UTC -- TIME 4276372000 LAT 56.8315038 LON -132.3630578 ALT 7.12 SATVIS 8 ROLL -0.025 PITCH -0.035 YAW 0.519 SP 1.11852431297 HD 29 TH 104 CURWP 1
2017-09-19T00:02:34.6045Z ROSS6 -- winchinfo -- 2017/09/19 00:02:34 UTC -- STATUS 1  Dir stationary  Rev 0 Res 810 Spd 100.00 Ver 8_16_2017 
2017-09-19T00:02:34.6047Z ROSS6 -- winchstatus -- 2017/09/19 00:02:34 UTC -- STATUS 1  Dir stationary  Rev 0 Res 810 Spd 100.00 Ver 8_16_2017  DOWNLOADING no
2017-09-19T00:02:35.4937Z ROSS6 -- stats -- 2017/09/19 00:02:35 UTC -- TIME 4277371000 LAT 56.8315088 LON -132.3630427 ALT 7.13 SATVIS 8 ROLL -0.016 PITCH -0.034 YAW 0.513 SP 1.10039007664 HD 29 TH 104 CURWP 1
2017-09-19T00:02:35.5961Z ROSS6 -- winchinfo -- 2017/09/19 00:02:35 UTC -- STATUS 1  Dir stationary  Rev 0 Res 809 Spd 100.00 Ver 8_16_2017 
2017-09-19T00:02:35.5963Z ROSS6 -- winchstatus -- 2017/09/19 00:02:35 UTC -- STATUS 1  Dir stationary  Rev 0 Res 809 Spd 100.00 Ver 8_16_2017  DOWNLOADING no
2017-09-19T00:02:36.4932Z ROSS6 -- stats -- 2017/09/19 00:02:36 UTC -- TIME 4278372000 LAT 56.8315137 LON -132.3630275 ALT 7.15 SATVIS 8 ROLL -0.011 PITCH -0.035 YAW 0.508 SP 1.07727849483 HD 29 TH 104 CURWP 1
2017-09-19T00:02:36.5936Z ROSS6 -- winchinfo -- 2017/09/19 00:02:36 UTC -- 17
2017-09-19T00:02:37.4935Z ROSS6 -- stats -- 2017/09/19 00:02:37 UTC -- TIME 4279372000 LAT 56.8315188 LON -132.3630128 ALT 7.17 SATVIS 8 ROLL -0.017 PITCH -0.035 YAW 0.503 SP 1.06599390507 HD 28 TH 104 CURWP 1
2017-09-19T00:02:37.5944Z ROSS6 -- winchinfo -- 2017/09/19 00:02:37 UTC -- 6_2017 
2017-09-19T00:02:38.4934Z ROSS6 -- stats -- 2017/09/19 00:02:38 UTC -- TIME 4280371000 LAT 56.831524 LON -132.3629983 ALT 7.16 SATVIS 8 ROLL -0.025 PITCH -0.036 YAW 0.498 SP 1.06031453609 HD 28 TH 104 CURWP 1
2017-09-19T00:02:38.5945Z ROSS6 -- winchinfo -- 2017/09/19 00:02:38 UTC -- 8_16_2017 
2017-09-19T00:02:39.4935Z ROSS6 -- stats -- 2017/09/19 00:02:39 UTC -- TIME 4281372000 LAT 56.8315293 LON -132.3629841 ALT 7.12 SATVIS 8 ROLL -0.030 PITCH -0.035 YAW 0.493 SP 1.05586719513 HD 28 TH 104 CURWP 1
2017-09-19T00:02:39.5945Z ROSS6 -- winchinfo -- 2017/09/19 00:02:39 UTC -- 2017 
2017-09-19T00:02:40.4934Z ROSS6 -- stats -- 2017/09/19 00:02:40 UTC -- TIME 4282372000 LAT 56.8315344 LON -132.3629697 ALT 7.1 SATVIS 7 ROLL -0.024 PITCH -0.035 YAW 0.489 SP 1.05099666119 HD 27 TH 104 CURWP 1
2017-09-19T00:02:40.5943Z ROSS6 -- winchinfo -- 2017/09/19 00:02:40 UTC -- r 8_16_2017 
2017-09-19T00:02:41.4933Z ROSS6 -- stats -- 2017/09/19 00:02:41 UTC -- TIME 4283371000 LAT 56.8315393 LON -132.3629556 ALT 7.07 SATVIS 7 ROLL -0.015 PITCH -0.035 YAW 0.483 SP 1.03247785568 HD 27 TH 104 CURWP 1
2017-09-19T00:02:41.5943Z ROSS6 -- winchinfo -- 2017/09/19 00:02:41 UTC -- 00.00 Ver 8_16_2017 
2017-09-19T00:02:42.4933Z ROSS6 -- stats -- 2017/09/19 00:02:42 UTC -- TIME 4284372000 LAT 56.8315443 LON -132.3629415 ALT 7.04 SATVIS 7 ROLL -0.010 PITCH -0.035 YAW 0.477 SP 1.02853965759 HD 27 TH 104 CURWP 1
2017-09-19T00:02:42.5944Z ROSS6 -- winchinfo -- 2017/09/19 00:02:42 UTC -- 0 Spd 100.00 Ver 8_16_2017 
2017-09-19T00:02:43.4932Z ROSS6 -- stats -- 2017/09/19 00:02:43 UTC -- TIME 4285372000 LAT 56.8315495 LON -132.3629278 ALT 6.98 SATVIS 7 ROLL -0.015 PITCH -0.035 YAW 0.471 SP 1.01316571236 HD 27 TH 104 CURWP 1
2017-09-19T00:02:43.5942Z ROSS6 -- winchinfo -- 2017/09/19 00:02:43 UTC --  100.00 Ver 8_16_2017 
2017-09-19T00:02:44.4932Z ROSS6 -- stats -- 2017/09/19 00:02:44 UTC -- TIME 4286372000 LAT 56.8315547 LON -132.3629141 ALT 6.93 SATVIS 7 ROLL -0.023 PITCH -0.036 YAW 0.467 SP 1.0099452734 HD 26 TH 104 CURWP 1
2017-09-19T00:02:44.5943Z ROSS6 -- winchinfo -- 2017/09/19 00:02:44 UTC --  809 Spd 100.00 Ver 8_16_2017 
2017-09-19T00:02:45.5021Z ROSS6 -- stats -- 2017/09/19 00:02:45 UTC -- TIME 4287372000 LAT 56.8315599 LON -132.3629007 ALT 6.87 SATVIS 7 ROLL -0.027 PITCH -0.036 YAW 0.463 SP 1.02138233185 HD 26 TH 104 CURWP 1
2017-09-19T00:02:45.6035Z ROSS6 -- winchinfo -- 2017/09/19 00:02:45 UTC -- v 0 Res 809 Spd 100.00 Ver 8_16_2017 
2017-09-19T00:02:46.4932Z ROSS6 -- stats -- 2017/09/19 00:02:46 UTC -- TIME 4288372000 LAT 56.8315652 LON -132.362887 ALT 6.82 SATVIS 7 ROLL -0.023 PITCH -0.034 YAW 0.458 SP 1.06629550457 HD 26 TH 104 CURWP 1
2017-09-19T00:02:46.5942Z ROSS6 -- winchinfo -- 2017/09/19 00:02:46 UTC -- 16_2017
2017-09-19T00:02:47.4930Z ROSS6 -- stats -- 2017/09/19 00:02:47 UTC -- TIME 4289372000 LAT 56.8315706 LON -132.3628728 ALT 6.75 SATVIS 7 ROLL -0.012 PITCH -0.033 YAW 0.453 SP 1.07569396496 HD 25 TH 104 CURWP 1
2017-09-19T00:02:47.5944Z ROSS6 -- winchinfo -- 2017/09/19 00:02:47 UTC -- stationary  Rev 0 Res 810 Spd 100.00 Ver 8_16_2017 
2017-09-19T00:02:48.4932Z ROSS6 -- stats -- 2017/09/19 00:02:48 UTC -- TIME 4290372000 LAT 56.8315761 LON -132.3628587 ALT 6.7 SATVIS 7 ROLL -0.006 PITCH -0.036 YAW 0.448 SP 1.05286979675 HD 25 TH 104 CURWP 1
2017-09-19T00:02:48.5950Z ROSS6 -- winchinfo -- 2017/09/19 00:02:48 UTC -- onary  Rev 0 Res 809 Spd 100.00 Ver 8_16_2017 
2017-09-19T00:02:49.4929Z ROSS6 -- stats -- 2017/09/19 00:02:49 UTC -- TIME 4291372000 LAT 56.8315817 LON -132.3628451 ALT 6.63 SATVIS 7 ROLL -0.011 PITCH -0.036 YAW 0.444 SP 1.02372038364 HD 25 TH 104 CURWP 1
2017-09-19T00:02:49.5943Z ROSS6 -- winchinfo -- 2017/09/19 00:02:49 UTC -- tationary  Rev 0 Res 809 Spd 100.00 Ver 8_16_2017 
2017-09-19T00:02:50.4933Z ROSS6 -- stats -- 2017/09/19 00:02:50 UTC -- TIME 4292372000 LAT 56.8315874 LON -132.3628317 ALT 6.56 SATVIS 7 ROLL -0.023 PITCH -0.034 YAW 0.441 SP 1.00652766228 HD 25 TH 104 CURWP 1
2017-09-19T00:02:50.5957Z ROSS6 -- winchinfo -- 2017/09/19 00:02:50 UTC -- US 1  Dir stationary  Rev 0 Res 809 Spd 100.00 Ver 8_16_2017 
2017-09-19T00:02:51.4928Z ROSS6 -- stats -- 2017/09/19 00:02:51 UTC -- TIME 4293371000 LAT 56.8315931 LON -132.3628183 ALT 6.5 SATVIS 7 ROLL -0.030 PITCH -0.035 YAW 0.439 SP 1.00897622108 HD 25 TH 104 CURWP 1
2017-09-19T00:02:51.5943Z ROSS6 -- winchinfo -- 2017/09/19 00:02:51 UTC -- STATUS 1  Dir stationary  Rev 0 Res 810 Spd 100.00 Ver 8_16_2017 
2017-09-19T00:02:51.5944Z ROSS6 -- winchstatus -- 2017/09/19 00:02:51 UTC -- STATUS 1  Dir stationary  Rev 0 Res 810 Spd 100.00 Ver 8_16_2017  DOWNLOADING no
2017-09-19T00:02:52.4927Z ROSS6 -- stats -- 2017/09/19 00:02:52 UTC -- TIME 4294372000 LAT 56.8315987 LON -132.3628051 ALT 6.45 SATVIS 7 ROLL -0.027 PITCH -0.036 YAW 0.436 SP 1.02053427696 HD 24 TH 104 CURWP 1
2017-09-19T00:02:52.5943Z ROSS6 -- winchinfo -- 2017/09/19 00:02:52 UTC -- STATUS 1  Dir stationary  Rev 0 Res 809 Spd 100.00 Ver 8_16_2017 
2017-09-19T00:02:52.5945Z ROSS6 -- winchstatus -- 2017/09/19 00:02:52 UTC -- STATUS 1  Dir stationary  Rev 0 Res 809 Spd 100.00 Ver 8_16_2017  DOWNLOADING no
2017-09-19T00:02:53.4927Z ROSS6 -- stats -- 2017/09/19 00:02:53 UTC -- TIME 4295372000 LAT 56.831604 LON -132.3627916 ALT 6.41 SATVIS 7 ROLL -0.016 PITCH -0.035 YAW 0.432 SP 1.01877677441 HD 24 TH 104 CURWP 1
2017-09-19T00:02:53.5941Z ROSS6 -- winchinfo -- 2017/09/19 00:02:53 UTC -- STATUS 1  Dir stationary  Rev 0 Res 810 Spd 100.00 Ver 8_16_2017 
2017-09-19T00:02:53.5943Z ROSS6 -- winchstatus -- 2017/09/19 00:02:53 UTC -- STATUS 1  Dir stationary  Rev 0 Res 810 Spd 100.00 Ver 8_16_2017  DOWNLOADING no
2017-09-19T00:02:54.4924Z ROSS6 -- stats -- 2017/09/19 00:02:54 UTC -- TIME 4296372000 LAT 56.8316093 LON -132.3627786 ALT 6.39 SATVIS 8 ROLL -0.008 PITCH -0.034 YAW 0.427 SP 1.00410759449 HD 24 TH 104 CURWP 1
2017-09-19T00:02:54.5939Z ROSS6 -- winchinfo -- 2017/09/19 00:02:54 UTC -- STATUS 1  Dir stationary  Rev 0 Res 810 Spd 100.00 Ver 8_16_2017 
2017-09-19T00:02:54.5940Z ROSS6 -- winchstatus -- 2017/09/19 00:02:54 UTC -- STATUS 1  Dir stationary  Rev 0 Res 810 Spd 100.00 Ver 8_16_2017  DOWNLOADING no
2017-09-19T00:02:55.4924Z ROSS6 -- stats -- 2017/09/19 00:02:55 UTC -- TIME 4297372000 LAT 56.8316149 LON -132.3627658 ALT 6.33 SATVIS 8 ROLL -0.011 PITCH -0.035 YAW 0.423 SP 0.989442169666 HD 24 TH 104 CURWP 1
2017-09-19T00:02:55.5940Z ROSS6 -- winchinfo -- 2017/09/19 00:02:55 UTC -- STATUS 1  Dir stationary  Rev 0 Res 809 Spd 100.00 Ver 8_16_2017 
2017-09-19T00:02:55.5942Z ROSS6 -- winchstatus -- 2017/09/19 00:02:55 UTC -- STATUS 1  Dir stationary  Rev 0 Res 809 Spd 100.00 Ver 8_16_2017  DOWNLOADING no
2017-09-19T00:02:56.5015Z ROSS6 -- stats -- 2017/09/19 00:02:56 UTC -- TIME 4298372000 LAT 56.8316205 LON -132.3627533 ALT 6.28 SATVIS 8 ROLL -0.022 PITCH -0.036 YAW 0.419 SP 0.975900113583 HD 24 TH 104 CURWP 1
2017-09-19T00:02:56.6032Z ROSS6 -- winchinfo -- 2017/09/19 00:02:56 UTC -- STATUS 1  Dir stationary  Rev 0 Res 810 Spd 100.00 Ver 8_16_2017 
2017-09-19T00:02:56.6034Z ROSS6 -- winchstatus -- 2017/09/19 00:02:56 UTC -- STATUS 1  Dir stationary  Rev 0 Res 810 Spd 100.00 Ver 8_16_2017  DOWNLOADING no
2017-09-19T00:02:57.4924Z ROSS6 -- stats -- 2017/09/19 00:02:57 UTC -- TIME 4299371000 LAT 56.8316262 LON -132.3627409 ALT 6.22 SATVIS 8 ROLL -0.029 PITCH -0.036 YAW 0.416 SP 0.989453673363 HD 23 TH 104 CURWP 1
2017-09-19T00:02:57.5937Z ROSS6 -- winchinfo -- 2017/09/19 00:02:57 UTC -- ionary  Rev 0 Res 810 Spd 100.00 Ver 8_16_2017 
2017-09-19T00:02:58.4924Z ROSS6 -- stats -- 2017/09/19 00:02:58 UTC -- TIME 4300372000 LAT 56.8316315 LON -132.3627285 ALT 6.18 SATVIS 8 ROLL -0.025 PITCH -0.035 YAW 0.412 SP 0.986492037773 HD 23 TH 104 CURWP 1
2017-09-19T00:02:58.5940Z ROSS6 -- winchinfo -- 2017/09/19 00:02:58 UTC -- STATUS 1  Dir stationary  Rev 0 Res 810 Spd 100.00 Ver 8_16_2017 
2017-09-19T00:02:58.5942Z ROSS6 -- winchstatus -- 2017/09/19 00:02:58 UTC -- STATUS 1  Dir stationary  Rev 0 Res 810 Spd 100.00 Ver 8_16_2017  DOWNLOADING no
2017-09-19T00:02:59.4923Z ROSS6 -- stats -- 2017/09/19 00:02:59 UTC -- TIME 4301372000 LAT 56.8316367 LON -132.362716 ALT 6.13 SATVIS 8 ROLL -0.013 PITCH -0.035 YAW 0.406 SP 0.970931351185 HD 23 TH 104 CURWP 1
2017-09-19T00:02:59.5938Z ROSS6 -- winchinfo -- 2017/09/19 00:02:59 UTC -- STATUS 1  Dir stationary  Rev 0 Res 810 Spd 100.00 Ver 8_16_2017 
2017-09-19T00:02:59.5940Z ROSS6 -- winchstatus -- 2017/09/19 00:02:59 UTC -- STATUS 1  Dir stationary  Rev 0 Res 810 Spd 100.00 Ver 8_16_2017  DOWNLOADING no
2017-09-19T00:03:00.4921Z ROSS6 -- stats -- 2017/09/19 00:03:00 UTC -- TIME 4302371000 LAT 56.8316419 LON -132.3627038 ALT 6.12 SATVIS 8 ROLL -0.007 PITCH -0.034 YAW 0.400 SP 0.950200259686 HD 22 TH 104 CURWP 1
2017-09-19T00:03:00.5935Z ROSS6 -- winchinfo -- 2017/09/19 00:03:00 UTC -- STATUS 1  Dir stationary  Rev 0 Res 809 Spd 100.00 Ver 8_16_2017 
2017-09-19T00:03:00.5937Z ROSS6 -- winchstatus -- 2017/09/19 00:03:00 UTC -- STATUS 1  Dir stationary  Rev 0 Res 809 Spd 100.00 Ver 8_16_2017  DOWNLOADING no
2017-09-19T00:03:01.4921Z ROSS6 -- stats -- 2017/09/19 00:03:01 UTC -- TIME 4303371000 LAT 56.8316471 LON -132.3626921 ALT 6.11 SATVIS 8 ROLL -0.013 PITCH -0.035 YAW 0.394 SP 0.943171977997 HD 22 TH 104 CURWP 1
2017-09-19T00:03:01.5935Z ROSS6 -- winchinfo -- 2017/09/19 00:03:01 UTC -- STATUS 1  Dir stationary  Rev 0 Res 810 Spd 100.00 Ver 8_16_2017 
2017-09-19T00:03:01.5937Z ROSS6 -- winchstatus -- 2017/09/19 00:03:01 UTC -- STATUS 1  Dir stationary  Rev 0 Res 810 Spd 100.00 Ver 8_16_2017  DOWNLOADING no
2017-09-19T00:03:02.4921Z ROSS6 -- stats -- 2017/09/19 00:03:02 UTC -- TIME 4304372000 LAT 56.8316527 LON -132.362681 ALT 6.05 SATVIS 8 ROLL -0.025 PITCH -0.035 YAW 0.388 SP 0.927401065826 HD 22 TH 104 CURWP 1
2017-09-19T00:03:02.5937Z ROSS6 -- winchinfo -- 2017/09/19 00:03:02 UTC -- STATUS 1  Dir stationary  Rev 0 Res 810 Spd 100.00 Ver 8_16_2017 
2017-09-19T00:03:02.5938Z ROSS6 -- winchstatus -- 2017/09/19 00:03:02 UTC -- STATUS 1  Dir stationary  Rev 0 Res 810 Spd 100.00 Ver 8_16_2017  DOWNLOADING no
2017-09-19T00:03:03.4923Z ROSS6 -- stats -- 2017/09/19 00:03:03 UTC -- TIME 4305372000 LAT 56.8316582 LON -132.36267 ALT 5.99 SATVIS 8 ROLL -0.030 PITCH -0.036 YAW 0.382 SP 0.939666748047 HD 21 TH 104 CURWP 1
2017-09-19T00:03:03.5945Z ROSS6 -- winchinfo -- 2017/09/19 00:03:03 UTC -- STATUS 1  Dir stationary  Rev 0 Res 810 Spd 100.00 Ver 8_16_2017 
2017-09-19T00:03:03.5948Z ROSS6 -- winchstatus -- 2017/09/19 00:03:03 UTC -- STATUS 1  Dir stationary  Rev 0 Res 810 Spd 100.00 Ver 8_16_2017  DOWNLOADING no
2017-09-19T00:03:04.4921Z ROSS6 -- stats -- 2017/09/19 00:03:04 UTC -- TIME 4306371000 LAT 56.8316636 LON -132.3626587 ALT 5.92 SATVIS 8 ROLL -0.024 PITCH -0.036 YAW 0.375 SP 0.933685719967 HD 21 TH 104 CURWP 1
2017-09-19T00:03:04.5939Z ROSS6 -- winchinfo -- 2017/09/19 00:03:04 UTC -- STATUS 1  Dir stationary  Rev 0 Res 810 Spd 100.00 Ver 8_16_2017 
2017-09-19T00:03:04.5941Z ROSS6 -- winchstatus -- 2017/09/19 00:03:04 UTC -- STATUS 1  Dir stationary  Rev 0 Res 810 Spd 100.00 Ver 8_16_2017  DOWNLOADING no
2017-09-19T00:03:05.4919Z ROSS6 -- stats -- 2017/09/19 00:03:05 UTC -- TIME 4307372000 LAT 56.8316689 LON -132.3626474 ALT 5.83 SATVIS 8 ROLL -0.014 PITCH -0.035 YAW 0.367 SP 0.930039167404 HD 21 TH 104 CURWP 1
2017-09-19T00:03:05.5934Z ROSS6 -- winchinfo -- 2017/09/19 00:03:05 UTC -- STATUS 1  Dir stationary  Rev 0 Res 810 Spd 100.00 Ver 8_16_2017 
2017-09-19T00:03:05.5936Z ROSS6 -- winchstatus -- 2017/09/19 00:03:05 UTC -- STATUS 1  Dir stationary  Rev 0 Res 810 Spd 100.00 Ver 8_16_2017  DOWNLOADING no
2017-09-19T00:03:06.4919Z ROSS6 -- stats -- 2017/09/19 00:03:06 UTC -- TIME 4308372000 LAT 56.8316739 LON -132.3626351 ALT 5.72 SATVIS 8 ROLL -0.009 PITCH -0.035 YAW 0.359 SP 0.911806583405 HD 20 TH 104 CURWP 1
2017-09-19T00:03:06.5936Z ROSS6 -- winchinfo -- 2017/09/19 00:03:06 UTC -- STATUS 1  Dir stationary  Rev 0 Res 810 Spd 100.00 Ver 8_16_2017 
2017-09-19T00:03:06.5938Z ROSS6 -- winchstatus -- 2017/09/19 00:03:06 UTC -- STATUS 1  Dir stationary  Rev 0 Res 810 Spd 100.00 Ver 8_16_2017  DOWNLOADING no
2017-09-19T00:03:07.5008Z ROSS6 -- stats -- 2017/09/19 00:03:07 UTC -- TIME 4309371000 LAT 56.8316791 LON -132.3626232 ALT 5.61 SATVIS 8 ROLL -0.013 PITCH -0.036 YAW 0.351 SP 0.903106868267 HD 20 TH 104 CURWP 1
2017-09-19T00:03:07.6026Z ROSS6 -- winchinfo -- 2017/09/19 00:03:07 UTC -- STATUS 1  Dir stationary  Rev 0 Res 810 Spd 100.00 Ver 8_16_2017 
2017-09-19T00:03:07.6028Z ROSS6 -- winchstatus -- 2017/09/19 00:03:07 UTC -- STATUS 1  Dir stationary  Rev 0 Res 810 Spd 100.00 Ver 8_16_2017  DOWNLOADING no
2017-09-19T00:03:08.4917Z ROSS6 -- stats -- 2017/09/19 00:03:08 UTC -- TIME 4310372000 LAT 56.8316845 LON -132.3626117 ALT 5.48 SATVIS 8 ROLL -0.023 PITCH -0.036 YAW 0.344 SP 0.912841320038 HD 19 TH 104 CURWP 1
2017-09-19T00:03:08.5942Z ROSS6 -- winchinfo -- 2017/09/19 00:03:08 UTC -- STATUS 1  Dir stationary  Rev 0 Res 809 Spd 100.00 Ver 8_16_2017 
2017-09-19T00:03:08.5945Z ROSS6 -- winchstatus -- 2017/09/19 00:03:08 UTC -- STATUS 1  Dir stationary  Rev 0 Res 809 Spd 100.00 Ver 8_16_2017  DOWNLOADING no
2017-09-19T00:03:09.4917Z ROSS6 -- stats -- 2017/09/19 00:03:09 UTC -- TIME 4311372000 LAT 56.8316895 LON -132.3625999 ALT 5.42 SATVIS 8 ROLL -0.029 PITCH -0.036 YAW 0.337 SP 0.920937657356 HD 19 TH 104 CURWP 1
2017-09-19T00:03:09.5933Z ROSS6 -- winchinfo -- 2017/09/19 00:03:09 UTC -- STATUS 1  Dir stationary  Rev 0 Res 810 Spd 100.00 Ver 8_16_2017 
2017-09-19T00:03:09.5935Z ROSS6 -- winchstatus -- 2017/09/19 00:03:09 UTC -- STATUS 1  Dir stationary  Rev 0 Res 810 Spd 100.00 Ver 8_16_2017  DOWNLOADING no
2017-09-19T00:03:10.4920Z ROSS6 -- stats -- 2017/09/19 00:03:10 UTC -- TIME 4312371000 LAT 56.8316941 LON -132.3625878 ALT 5.42 SATVIS 8 ROLL -0.025 PITCH -0.035 YAW 0.329 SP 0.92758333683 HD 18 TH 104 CURWP 1
2017-09-19T00:03:10.5944Z ROSS6 -- winchinfo -- 2017/09/19 00:03:10 UTC -- STATUS 1  Dir stationary  Rev 0 Res 810 Spd 100.00 Ver 8_16_2017 
2017-09-19T00:03:10.5947Z ROSS6 -- winchstatus -- 2017/09/19 00:03:10 UTC -- STATUS 1  Dir stationary  Rev 0 Res 810 Spd 100.00 Ver 8_16_2017  DOWNLOADING no
2017-09-19T00:03:11.4917Z ROSS6 -- stats -- 2017/09/19 00:03:11 UTC -- TIME 4313372000 LAT 56.8316985 LON -132.362576 ALT 5.46 SATVIS 8 ROLL -0.015 PITCH -0.035 YAW 0.322 SP 0.906817376614 HD 18 TH 104 CURWP 1
2017-09-19T00:03:11.5936Z ROSS6 -- winchinfo -- 2017/09/19 00:03:11 UTC -- STATUS 1  Dir stationary  Rev 0 Res 810 Spd 100.00 Ver 8_16_2017 
2017-09-19T00:03:11.5938Z ROSS6 -- winchstatus -- 2017/09/19 00:03:11 UTC -- STATUS 1  Dir stationary  Rev 0 Res 810 Spd 100.00 Ver 8_16_2017  DOWNLOADING no
2017-09-19T00:03:12.4916Z ROSS6 -- stats -- 2017/09/19 00:03:12 UTC -- TIME 4314372000 LAT 56.8317033 LON -132.3625648 ALT 5.46 SATVIS 8 ROLL -0.009 PITCH -0.035 YAW 0.314 SP 0.886294484138 HD 18 TH 104 CURWP 1
2017-09-19T00:03:12.5931Z ROSS6 -- winchinfo -- 2017/09/19 00:03:12 UTC -- STATUS 1  Dir stationary  Rev 0 Res 810 Spd 100.00 Ver 8_16_2017 
2017-09-19T00:03:12.5933Z ROSS6 -- winchstatus -- 2017/09/19 00:03:12 UTC -- STATUS 1  Dir stationary  Rev 0 Res 810 Spd 100.00 Ver 8_16_2017  DOWNLOADING no
2017-09-19T00:03:13.4926Z ROSS6 -- stats -- 2017/09/19 00:03:13 UTC -- TIME 4315372000 LAT 56.8317089 LON -132.3625545 ALT 5.31 SATVIS 8 ROLL -0.013 PITCH -0.036 YAW 0.308 SP 0.863312363625 HD 17 TH 104 CURWP 1
2017-09-19T00:03:13.5940Z ROSS6 -- winchinfo -- 2017/09/19 00:03:13 UTC -- STATUS 1  Dir stationary  Rev 0 Res 810 Spd 100.00 Ver 8_16_2017 
2017-09-19T00:03:13.5942Z ROSS6 -- winchstatus -- 2017/09/19 00:03:13 UTC -- STATUS 1  Dir stationary  Rev 0 Res 810 Spd 100.00 Ver 8_16_2017  DOWNLOADING no
2017-09-19T00:03:14.4910Z ROSS6 -- stats -- 2017/09/19 00:03:14 UTC -- TIME 4316372000 LAT 56.8317145 LON -132.3625442 ALT 5.18 SATVIS 8 ROLL -0.021 PITCH -0.036 YAW 0.303 SP 0.858827471733 HD 17 TH 104 CURWP 1
2017-09-19T00:03:14.5924Z ROSS6 -- winchinfo -- 2017/09/19 00:03:14 UTC -- STATUS 1  Dir stationary  Rev 0 Res 809 Spd 100.00 Ver 8_16_2017 
2017-09-19T00:03:14.5925Z ROSS6 -- winchstatus -- 2017/09/19 00:03:14 UTC -- STATUS 1  Dir stationary  Rev 0 Res 809 Spd 100.00 Ver 8_16_2017  DOWNLOADING no
2017-09-19T00:03:15.4916Z ROSS6 -- stats -- 2017/09/19 00:03:15 UTC -- TIME 4317372000 LAT 56.8317201 LON -132.3625342 ALT 5.06 SATVIS 8 ROLL -0.025 PITCH -0.036 YAW 0.298 SP 0.868973433971 HD 17 TH 104 CURWP 1
2017-09-19T00:03:15.5935Z ROSS6 -- winchinfo -- 2017/09/19 00:03:15 UTC -- STATUS 1  Dir stationary  Rev 0 Res 809 Spd 100.00 Ver 8_16_2017 
2017-09-19T00:03:15.5937Z ROSS6 -- winchstatus -- 2017/09/19 00:03:15 UTC -- STATUS 1  Dir stationary  Rev 0 Res 809 Spd 100.00 Ver 8_16_2017  DOWNLOADING no
