2017-04-17T22:57:22.0006Z Set server time to GPS time : 2017-04-17 22:57:22
2017-04-17T22:57:23.0341Z ROSS6 -- stats -- 2017/04/17 22:57:23 UTC -- TIME 57930000 LAT 56.8109772 LON -132.9683732 ALT -0.71 SATVIS 9 ROLL -0.033 PITCH 0.038 YAW 2.525 SP 0.124691843987 HD 144 TH 60 CURWP 2
2017-04-17T22:57:23.1345Z ROSS6 -- winchinfo -- 2017/04/17 22:57:23 UTC -- 017 
2017-04-17T22:57:24.0331Z ROSS6 -- stats -- 2017/04/17 22:57:24 UTC -- TIME 58931000 LAT 56.8109791 LON -132.9683737 ALT -0.46 SATVIS 9 ROLL -0.034 PITCH 0.038 YAW 2.542 SP 0.138433068991 HD 145 TH 60 CURWP 2
2017-04-17T22:57:24.1337Z ROSS6 -- winchinfo -- 2017/04/17 22:57:24 UTC -- STATUS 1  Dir up  Rev 0 Res 634 Spd 82.52 Ver 4_17_2017 
2017-04-17T22:57:24.1338Z ROSS6 -- winchstatus -- 2017/04/17 22:57:24 UTC -- STATUS 1  Dir up  Rev 0 Res 634 Spd 82.52 Ver 4_17_2017  DOWNLOADING no
2017-04-17T22:57:25.0331Z ROSS6 -- stats -- 2017/04/17 22:57:25 UTC -- TIME 59931000 LAT 56.8109797 LON -132.9683739 ALT -0.74 SATVIS 9 ROLL -0.032 PITCH 0.037 YAW 2.557 SP 0.0999871268868 HD 146 TH 60 CURWP 2
2017-04-17T22:57:25.1339Z ROSS6 -- winchinfo -- 2017/04/17 22:57:25 UTC -- STATUS 1  Dir stationary  Rev 0 Res 629 Spd 100.00 Ver 4_17_2017 
2017-04-17T22:57:25.1340Z ROSS6 -- winchstatus -- 2017/04/17 22:57:25 UTC -- STATUS 1  Dir stationary  Rev 0 Res 629 Spd 100.00 Ver 4_17_2017  DOWNLOADING no
2017-04-17T22:57:26.0340Z ROSS6 -- stats -- 2017/04/17 22:57:26 UTC -- TIME 60950000 LAT 56.8109805 LON -132.9683737 ALT -0.91 SATVIS 9 ROLL -0.032 PITCH 0.036 YAW 2.571 SP 0.082637026906 HD 147 TH 60 CURWP 2
2017-04-17T22:57:26.1347Z ROSS6 -- winchinfo -- 2017/04/17 22:57:26 UTC -- STATUS 1  Dir stationary  Rev 0 Res 633 Spd 100.00 Ver 4_17_2017 
2017-04-17T22:57:26.1348Z ROSS6 -- winchstatus -- 2017/04/17 22:57:26 UTC -- STATUS 1  Dir stationary  Rev 0 Res 633 Spd 100.00 Ver 4_17_2017  DOWNLOADING no
2017-04-17T22:57:27.0339Z ROSS6 -- stats -- 2017/04/17 22:57:27 UTC -- TIME 61950000 LAT 56.8109808 LON -132.9683735 ALT -0.97 SATVIS 9 ROLL -0.033 PITCH 0.036 YAW 2.584 SP 0.0680220648646 HD 148 TH 60 CURWP 2
2017-04-17T22:57:27.1346Z ROSS6 -- winchinfo -- 2017/04/17 22:57:27 UTC -- STATUS 1  Dir stationary  Rev 0 Res 635 Spd 100.00 Ver 4_17_2017 
2017-04-17T22:57:27.1347Z ROSS6 -- winchstatus -- 2017/04/17 22:57:27 UTC -- STATUS 1  Dir stationary  Rev 0 Res 635 Spd 100.00 Ver 4_17_2017  DOWNLOADING no
2017-04-17T22:57:28.0419Z ROSS6 -- stats -- 2017/04/17 22:57:28 UTC -- TIME 62950000 LAT 56.8109821 LON -132.9683752 ALT -0.98 SATVIS 9 ROLL -0.032 PITCH 0.037 YAW 2.596 SP 0.0958721190691 HD 148 TH 60 CURWP 2
2017-04-17T22:57:28.1683Z ROSS6 -- winchinfo -- 2017/04/17 22:57:28 UTC -- STATUS 1  Dir stationary  Rev 0 Res 640 Spd 100.00 Ver 4_17_2017 
2017-04-17T22:57:28.1684Z ROSS6 -- winchstatus -- 2017/04/17 22:57:28 UTC -- STATUS 1  Dir stationary  Rev 0 Res 640 Spd 100.00 Ver 4_17_2017  DOWNLOADING no
2017-04-17T22:57:29.0328Z ROSS6 -- stats -- 2017/04/17 22:57:29 UTC -- TIME 63950000 LAT 56.8109826 LON -132.9683752 ALT -0.98 SATVIS 9 ROLL -0.032 PITCH 0.037 YAW 2.607 SP 0.0848189890385 HD 149 TH 60 CURWP 2
2017-04-17T22:57:29.1336Z ROSS6 -- winchinfo -- 2017/04/17 22:57:29 UTC -- STATUS 1  Dir stationary  Rev 0 Res 638 Spd 100.00 Ver 4_17_2017 
2017-04-17T22:57:29.1336Z ROSS6 -- winchstatus -- 2017/04/17 22:57:29 UTC -- STATUS 1  Dir stationary  Rev 0 Res 638 Spd 100.00 Ver 4_17_2017  DOWNLOADING no
2017-04-17T22:57:30.0339Z ROSS6 -- stats -- 2017/04/17 22:57:30 UTC -- TIME 64931000 LAT 56.8109832 LON -132.9683775 ALT -1.23 SATVIS 9 ROLL -0.031 PITCH 0.037 YAW 2.617 SP 0.102180592716 HD 149 TH 60 CURWP 2
2017-04-17T22:57:30.1346Z ROSS6 -- winchinfo -- 2017/04/17 22:57:30 UTC -- STATUS 1  Dir up  Rev 0 Res 640 Spd 85.37 Ver 4_17_2017 
2017-04-17T22:57:30.1346Z ROSS6 -- winchstatus -- 2017/04/17 22:57:30 UTC -- STATUS 1  Dir up  Rev 0 Res 640 Spd 85.37 Ver 4_17_2017  DOWNLOADING no
2017-04-17T22:57:31.0336Z ROSS6 -- stats -- 2017/04/17 22:57:31 UTC -- TIME 65930000 LAT 56.8109832 LON -132.9683778 ALT -1.09 SATVIS 9 ROLL -0.031 PITCH 0.036 YAW 2.626 SP 0.056730389595 HD 150 TH 60 CURWP 2
2017-04-17T22:57:31.1343Z ROSS6 -- winchinfo -- 2017/04/17 22:57:31 UTC -- STATUS 1  Dir stationary  Rev 0 Res 630 Spd 100.00 Ver 4_17_2017 
2017-04-17T22:57:31.1344Z ROSS6 -- winchstatus -- 2017/04/17 22:57:31 UTC -- STATUS 1  Dir stationary  Rev 0 Res 630 Spd 100.00 Ver 4_17_2017  DOWNLOADING no
2017-04-17T22:57:32.0325Z ROSS6 -- stats -- 2017/04/17 22:57:32 UTC -- TIME 66950000 LAT 56.8109844 LON -132.9683788 ALT -0.94 SATVIS 9 ROLL -0.032 PITCH 0.037 YAW 2.635 SP 0.0981875881553 HD 150 TH 60 CURWP 2
2017-04-17T22:57:32.1332Z ROSS6 -- winchinfo -- 2017/04/17 22:57:32 UTC -- STATUS 1  Dir stationary  Rev 0 Res 629 Spd 100.00 Ver 4_17_2017 
2017-04-17T22:57:32.1333Z ROSS6 -- winchstatus -- 2017/04/17 22:57:32 UTC -- STATUS 1  Dir stationary  Rev 0 Res 629 Spd 100.00 Ver 4_17_2017  DOWNLOADING no
2017-04-17T22:57:33.0335Z ROSS6 -- stats -- 2017/04/17 22:57:33 UTC -- TIME 67930000 LAT 56.8109841 LON -132.9683796 ALT -0.96 SATVIS 9 ROLL -0.032 PITCH 0.036 YAW 2.643 SP 0.0686068758368 HD 151 TH 60 CURWP 2
2017-04-17T22:57:33.1342Z ROSS6 -- winchinfo -- 2017/04/17 22:57:33 UTC -- STATUS 1  Dir stationary  Rev 0 Res 634 Spd 100.00 Ver 4_17_2017 
2017-04-17T22:57:33.1343Z ROSS6 -- winchstatus -- 2017/04/17 22:57:33 UTC -- STATUS 1  Dir stationary  Rev 0 Res 634 Spd 100.00 Ver 4_17_2017  DOWNLOADING no
2017-04-17T22:57:34.0325Z ROSS6 -- stats -- 2017/04/17 22:57:34 UTC -- TIME 68931000 LAT 56.8109847 LON -132.9683804 ALT -1.08 SATVIS 9 ROLL -0.032 PITCH 0.036 YAW 2.650 SP 0.0584483332932 HD 151 TH 60 CURWP 2
2017-04-17T22:57:34.1333Z ROSS6 -- winchinfo -- 2017/04/17 22:57:34 UTC -- STATUS 1  Dir stationary  Rev 0 Res 639 Spd 100.00 Ver 4_17_2017 
2017-04-17T22:57:34.1333Z ROSS6 -- winchstatus -- 2017/04/17 22:57:34 UTC -- STATUS 1  Dir stationary  Rev 0 Res 639 Spd 100.00 Ver 4_17_2017  DOWNLOADING no
2017-04-17T22:57:35.0324Z ROSS6 -- stats -- 2017/04/17 22:57:35 UTC -- TIME 69931000 LAT 56.8109848 LON -132.968381 ALT -1.1 SATVIS 9 ROLL -0.032 PITCH 0.036 YAW 2.657 SP 0.051801469177 HD 152 TH 60 CURWP 2
2017-04-17T22:57:35.1331Z ROSS6 -- winchinfo -- 2017/04/17 22:57:35 UTC -- STATUS 1  Dir stationary  Rev 0 Res 637 Spd 100.00 Ver 4_17_2017 
2017-04-17T22:57:35.1332Z ROSS6 -- winchstatus -- 2017/04/17 22:57:35 UTC -- STATUS 1  Dir stationary  Rev 0 Res 637 Spd 100.00 Ver 4_17_2017  DOWNLOADING no
2017-04-17T22:57:36.0323Z ROSS6 -- stats -- 2017/04/17 22:57:36 UTC -- TIME 70950000 LAT 56.8109843 LON -132.9683816 ALT -1.02 SATVIS 9 ROLL -0.032 PITCH 0.035 YAW 2.664 SP 0.0365755707026 HD 152 TH 60 CURWP 2
2017-04-17T22:57:36.1978Z ROSS6 -- winchinfo -- 2017/04/17 22:57:36 UTC -- STATUS 1  Dir stationary  Rev 0 Res 626 Spd 100.00 Ver 4_17_2017 
2017-04-17T22:57:36.1979Z ROSS6 -- winchstatus -- 2017/04/17 22:57:36 UTC -- STATUS 1  Dir stationary  Rev 0 Res 626 Spd 100.00 Ver 4_17_2017  DOWNLOADING no
2017-04-17T22:57:37.0333Z ROSS6 -- stats -- 2017/04/17 22:57:37 UTC -- TIME 71950000 LAT 56.8109852 LON -132.9683812 ALT -1.11 SATVIS 9 ROLL -0.034 PITCH 0.036 YAW 2.670 SP 0.03496344015 HD 152 TH 60 CURWP 2
2017-04-17T22:57:37.1342Z ROSS6 -- winchinfo -- 2017/04/17 22:57:37 UTC -- STATUS 1  Dir stationary  Rev 0 Res 637 Spd 100.00 Ver 4_17_2017 
2017-04-17T22:57:37.1343Z ROSS6 -- winchstatus -- 2017/04/17 22:57:37 UTC -- STATUS 1  Dir stationary  Rev 0 Res 637 Spd 100.00 Ver 4_17_2017  DOWNLOADING no
2017-04-17T22:57:38.0323Z ROSS6 -- stats -- 2017/04/17 22:57:38 UTC -- TIME 72950000 LAT 56.8109853 LON -132.9683812 ALT -1.17 SATVIS 9 ROLL -0.033 PITCH 0.037 YAW 2.675 SP 0.0413057096303 HD 153 TH 60 CURWP 2
2017-04-17T22:57:38.0332Z ROSS6 -- winchinfo -- 2017/04/17 22:57:38 UTC -- STATUS 1  Dir stationary  Rev 0 Res 634 Spd 100.00 Ver 4_17_2017 
2017-04-17T22:57:38.0333Z ROSS6 -- winchstatus -- 2017/04/17 22:57:38 UTC -- STATUS 1  Dir stationary  Rev 0 Res 634 Spd 100.00 Ver 4_17_2017  DOWNLOADING no
2017-04-17T22:57:39.0412Z ROSS6 -- stats -- 2017/04/17 22:57:39 UTC -- TIME 73930000 LAT 56.8109851 LON -132.9683805 ALT -1.16 SATVIS 9 ROLL -0.033 PITCH 0.036 YAW 2.681 SP 0.0230545867234 HD 153 TH 60 CURWP 2
2017-04-17T22:57:40.1439Z ROSS6 -- winchinfo -- 2017/04/17 22:57:40 UTC -- STATUS 1  Dir stationary  Rev 0 Res 636 Spd 100.00 Ver 4_17_2017 
2017-04-17T22:57:40.1440Z ROSS6 -- winchstatus -- 2017/04/17 22:57:40 UTC -- STATUS 1  Dir stationary  Rev 0 Res 636 Spd 100.00 Ver 4_17_2017  DOWNLOADING no
2017-04-17T22:57:41.1505Z ROSS6 -- stats -- 2017/04/17 22:57:41 UTC -- TIME 74931000 LAT 56.8109854 LON -132.9683798 ALT -1.5 SATVIS 9 ROLL -0.033 PITCH 0.037 YAW 2.685 SP 0.0431484915316 HD 153 TH 60 CURWP 2
2017-04-17T22:57:41.2511Z ROSS6 -- winchinfo -- 2017/04/17 22:57:41 UTC -- STATUS 1  Dir stationary  Rev 0 Res 642 Spd 100.00 Ver 4_17_2017 
2017-04-17T22:57:41.2512Z ROSS6 -- winchstatus -- 2017/04/17 22:57:41 UTC -- STATUS 1  Dir stationary  Rev 0 Res 642 Spd 100.00 Ver 4_17_2017  DOWNLOADING no
2017-04-17T22:57:42.0321Z ROSS6 -- stats -- 2017/04/17 22:57:42 UTC -- TIME 76950000 LAT 56.8109871 LON -132.9683791 ALT -1.52 SATVIS 9 ROLL -0.033 PITCH 0.038 YAW 2.694 SP 0.089584633708 HD 154 TH 60 CURWP 2
2017-04-17T22:57:42.1328Z ROSS6 -- winchinfo -- 2017/04/17 22:57:42 UTC -- STATUS 1  Dir stationary  Rev 0 Res 631 Spd 100.00 Ver 4_17_2017 
2017-04-17T22:57:42.1329Z ROSS6 -- winchstatus -- 2017/04/17 22:57:42 UTC -- STATUS 1  Dir stationary  Rev 0 Res 631 Spd 100.00 Ver 4_17_2017  DOWNLOADING no
2017-04-17T22:57:43.0319Z ROSS6 -- stats -- 2017/04/17 22:57:43 UTC -- TIME 77931000 LAT 56.8109875 LON -132.9683786 ALT -1.72 SATVIS 9 ROLL -0.033 PITCH 0.038 YAW 2.698 SP 0.0844356492162 HD 154 TH 60 CURWP 2
2017-04-17T22:57:43.2103Z ROSS6 -- winchinfo -- 2017/04/17 22:57:43 UTC -- STATUS 1  Dir stationary  Rev 0 Res 636 Spd 100.00 Ver 4_17_2017 
2017-04-17T22:57:43.2104Z ROSS6 -- winchstatus -- 2017/04/17 22:57:43 UTC -- STATUS 1  Dir stationary  Rev 0 Res 636 Spd 100.00 Ver 4_17_2017  DOWNLOADING no
2017-04-17T22:57:44.0319Z ROSS6 -- stats -- 2017/04/17 22:57:44 UTC -- TIME 78930000 LAT 56.8109878 LON -132.9683781 ALT -1.6 SATVIS 9 ROLL -0.033 PITCH 0.038 YAW 2.702 SP 0.0736766755581 HD 154 TH 60 CURWP 2
2017-04-17T22:57:44.1327Z ROSS6 -- winchinfo -- 2017/04/17 22:57:44 UTC -- STATUS 1  Dir stationary  Rev 0 Res 630 Spd 100.00 Ver 4_17_2017 
2017-04-17T22:57:44.1327Z ROSS6 -- winchstatus -- 2017/04/17 22:57:44 UTC -- STATUS 1  Dir stationary  Rev 0 Res 630 Spd 100.00 Ver 4_17_2017  DOWNLOADING no
2017-04-17T22:57:45.0318Z ROSS6 -- stats -- 2017/04/17 22:57:45 UTC -- TIME 79931000 LAT 56.8109887 LON -132.9683778 ALT -1.62 SATVIS 9 ROLL -0.033 PITCH 0.039 YAW 2.706 SP 0.106685526669 HD 155 TH 60 CURWP 2
2017-04-17T22:57:45.1326Z ROSS6 -- winchinfo -- 2017/04/17 22:57:45 UTC -- STATUS 1  Dir stationary  Rev 0 Res 630 Spd 100.00 Ver 4_17_2017 
2017-04-17T22:57:45.1326Z ROSS6 -- winchstatus -- 2017/04/17 22:57:45 UTC -- STATUS 1  Dir stationary  Rev 0 Res 630 Spd 100.00 Ver 4_17_2017  DOWNLOADING no
2017-04-17T22:57:46.0318Z ROSS6 -- stats -- 2017/04/17 22:57:46 UTC -- TIME 80950000 LAT 56.8109888 LON -132.9683762 ALT -1.63 SATVIS 9 ROLL -0.033 PITCH 0.038 YAW 2.709 SP 0.0789879113436 HD 155 TH 60 CURWP 2
2017-04-17T22:57:46.1326Z ROSS6 -- winchinfo -- 2017/04/17 22:57:46 UTC -- STATUS 1  Dir stationary  Rev 0 Res 645 Spd 100.00 Ver 4_17_2017 
2017-04-17T22:57:46.1327Z ROSS6 -- winchstatus -- 2017/04/17 22:57:46 UTC -- STATUS 1  Dir stationary  Rev 0 Res 645 Spd 100.00 Ver 4_17_2017  DOWNLOADING no
2017-04-17T22:57:47.0328Z ROSS6 -- stats -- 2017/04/17 22:57:47 UTC -- TIME 81931000 LAT 56.8109893 LON -132.968375 ALT -1.51 SATVIS 9 ROLL -0.033 PITCH 0.037 YAW 2.712 SP 0.0897836089134 HD 155 TH 60 CURWP 2
2017-04-17T22:57:47.1335Z ROSS6 -- winchinfo -- 2017/04/17 22:57:47 UTC -- STATUS 1  Dir up  Rev 0 Res 658 Spd 93.55 Ver 4_17_2017 
2017-04-17T22:57:47.1336Z ROSS6 -- winchstatus -- 2017/04/17 22:57:47 UTC -- STATUS 1  Dir up  Rev 0 Res 658 Spd 93.55 Ver 4_17_2017  DOWNLOADING no
2017-04-17T22:57:48.0326Z ROSS6 -- stats -- 2017/04/17 22:57:48 UTC -- TIME 82930000 LAT 56.8109894 LON -132.9683747 ALT -1.44 SATVIS 9 ROLL -0.032 PITCH 0.038 YAW 2.715 SP 0.0868470594287 HD 155 TH 60 CURWP 2
2017-04-17T22:57:48.1341Z ROSS6 -- winchinfo -- 2017/04/17 22:57:48 UTC -- STATUS 1  Dir stationary  Rev 0 Res 649 Spd 100.00 Ver 4_17_2017 
2017-04-17T22:57:48.1343Z ROSS6 -- winchstatus -- 2017/04/17 22:57:48 UTC -- STATUS 1  Dir stationary  Rev 0 Res 649 Spd 100.00 Ver 4_17_2017  DOWNLOADING no
2017-04-17T22:57:49.0321Z ROSS6 -- stats -- 2017/04/17 22:57:49 UTC -- TIME 83931000 LAT 56.8109891 LON -132.9683742 ALT -1.51 SATVIS 9 ROLL -0.032 PITCH 0.037 YAW 2.718 SP 0.0456931069493 HD 155 TH 60 CURWP 2
2017-04-17T22:57:49.1341Z ROSS6 -- winchinfo -- 2017/04/17 22:57:49 UTC -- STATUS 1  Dir stationary  Rev 0 Res 623 Spd 100.00 Ver 4_17_2017 
2017-04-17T22:57:49.1343Z ROSS6 -- winchstatus -- 2017/04/17 22:57:49 UTC -- STATUS 1  Dir stationary  Rev 0 Res 623 Spd 100.00 Ver 4_17_2017  DOWNLOADING no
2017-04-17T22:57:50.0412Z ROSS6 -- stats -- 2017/04/17 22:57:50 UTC -- TIME 84930000 LAT 56.8109892 LON -132.9683736 ALT -1.49 SATVIS 9 ROLL -0.032 PITCH 0.037 YAW 2.720 SP 0.0318485610187 HD 155 TH 60 CURWP 2
2017-04-17T22:57:50.1430Z ROSS6 -- winchinfo -- 2017/04/17 22:57:50 UTC -- STATUS 1  Dir stationary  Rev 0 Res 658 Spd 100.00 Ver 4_17_2017 
2017-04-17T22:57:50.1432Z ROSS6 -- winchstatus -- 2017/04/17 22:57:50 UTC -- STATUS 1  Dir stationary  Rev 0 Res 658 Spd 100.00 Ver 4_17_2017  DOWNLOADING no
2017-04-17T22:57:51.0319Z ROSS6 -- stats -- 2017/04/17 22:57:51 UTC -- TIME 85930000 LAT 56.8109894 LON -132.968373 ALT -1.42 SATVIS 9 ROLL -0.032 PITCH 0.037 YAW 2.723 SP 0.0373538248241 HD 155 TH 60 CURWP 2
2017-04-17T22:57:51.1338Z ROSS6 -- winchinfo -- 2017/04/17 22:57:51 UTC -- STATUS 1  Dir stationary  Rev 0 Res 636 Spd 100.00 Ver 4_17_2017 
2017-04-17T22:57:51.1340Z ROSS6 -- winchstatus -- 2017/04/17 22:57:51 UTC -- STATUS 1  Dir stationary  Rev 0 Res 636 Spd 100.00 Ver 4_17_2017  DOWNLOADING no
2017-04-17T22:57:52.0320Z ROSS6 -- stats -- 2017/04/17 22:57:52 UTC -- TIME 86930000 LAT 56.8109892 LON -132.9683724 ALT -1.52 SATVIS 9 ROLL -0.032 PITCH 0.037 YAW 2.725 SP 0.0124837867916 HD 156 TH 60 CURWP 2
2017-04-17T22:57:52.1342Z ROSS6 -- winchinfo -- 2017/04/17 22:57:52 UTC -- STATUS 1  Dir stationary  Rev 0 Res 633 Spd 100.00 Ver 4_17_2017 
2017-04-17T22:57:52.1344Z ROSS6 -- winchstatus -- 2017/04/17 22:57:52 UTC -- STATUS 1  Dir stationary  Rev 0 Res 633 Spd 100.00 Ver 4_17_2017  DOWNLOADING no
2017-04-17T22:57:53.0318Z ROSS6 -- stats -- 2017/04/17 22:57:53 UTC -- TIME 87931000 LAT 56.8109896 LON -132.968372 ALT -1.64 SATVIS 9 ROLL -0.032 PITCH 0.037 YAW 2.727 SP 0.0127744935453 HD 156 TH 60 CURWP 2
2017-04-17T22:57:53.1337Z ROSS6 -- winchinfo -- 2017/04/17 22:57:53 UTC -- STATUS 1  Dir up  Rev 0 Res 642 Spd 90.39 Ver 4_17_2017 
2017-04-17T22:57:53.1340Z ROSS6 -- winchstatus -- 2017/04/17 22:57:53 UTC -- STATUS 1  Dir up  Rev 0 Res 642 Spd 90.39 Ver 4_17_2017  DOWNLOADING no
2017-04-17T22:57:54.0329Z ROSS6 -- stats -- 2017/04/17 22:57:54 UTC -- TIME 88931000 LAT 56.8109895 LON -132.9683714 ALT -1.65 SATVIS 9 ROLL -0.032 PITCH 0.037 YAW 2.729 SP 0.0220502894372 HD 156 TH 60 CURWP 2
2017-04-17T22:57:54.1347Z ROSS6 -- winchinfo -- 2017/04/17 22:57:54 UTC -- STATUS 1  Dir stationary  Rev 0 Res 631 Spd 100.00 Ver 4_17_2017 
2017-04-17T22:57:54.1349Z ROSS6 -- winchstatus -- 2017/04/17 22:57:54 UTC -- STATUS 1  Dir stationary  Rev 0 Res 631 Spd 100.00 Ver 4_17_2017  DOWNLOADING no
2017-04-17T22:57:55.0316Z ROSS6 -- stats -- 2017/04/17 22:57:55 UTC -- TIME 89930000 LAT 56.8109894 LON -132.9683709 ALT -1.55 SATVIS 9 ROLL -0.032 PITCH 0.038 YAW 2.731 SP 0.0240303631872 HD 156 TH 60 CURWP 2
2017-04-17T22:57:55.1332Z ROSS6 -- winchinfo -- 2017/04/17 22:57:55 UTC -- STATUS 1  Dir stationary  Rev 0 Res 641 Spd 100.00 Ver 4_17_2017 
2017-04-17T22:57:55.1333Z ROSS6 -- winchstatus -- 2017/04/17 22:57:55 UTC -- STATUS 1  Dir stationary  Rev 0 Res 641 Spd 100.00 Ver 4_17_2017  DOWNLOADING no
2017-04-17T22:57:56.0325Z ROSS6 -- stats -- 2017/04/17 22:57:56 UTC -- TIME 90950000 LAT 56.8109896 LON -132.9683706 ALT -1.48 SATVIS 9 ROLL -0.033 PITCH 0.038 YAW 2.732 SP 0.0499760359526 HD 156 TH 60 CURWP 2
2017-04-17T22:57:56.1341Z ROSS6 -- winchinfo -- 2017/04/17 22:57:56 UTC -- STATUS 1  Dir stationary  Rev 0 Res 638 Spd 100.00 Ver 4_17_2017 
2017-04-17T22:57:56.1343Z ROSS6 -- winchstatus -- 2017/04/17 22:57:56 UTC -- STATUS 1  Dir stationary  Rev 0 Res 638 Spd 100.00 Ver 4_17_2017  DOWNLOADING no
2017-04-17T22:57:57.0316Z ROSS6 -- stats -- 2017/04/17 22:57:57 UTC -- TIME 91931000 LAT 56.8109899 LON -132.9683698 ALT -1.28 SATVIS 9 ROLL -0.034 PITCH 0.039 YAW 2.734 SP 0.0892550498247 HD 156 TH 60 CURWP 2
2017-04-17T22:57:57.1333Z ROSS6 -- winchinfo -- 2017/04/17 22:57:57 UTC -- STATUS 1  Dir stationary  Rev 0 Res 638 Spd 100.00 Ver 4_17_2017 
2017-04-17T22:57:57.1335Z ROSS6 -- winchstatus -- 2017/04/17 22:57:57 UTC -- STATUS 1  Dir stationary  Rev 0 Res 638 Spd 100.00 Ver 4_17_2017  DOWNLOADING no
2017-04-17T22:57:58.0325Z ROSS6 -- stats -- 2017/04/17 22:57:58 UTC -- TIME 92931000 LAT 56.81099 LON -132.9683693 ALT -1.11 SATVIS 9 ROLL -0.033 PITCH 0.038 YAW 2.735 SP 0.0784627497196 HD 156 TH 60 CURWP 2
2017-04-17T22:57:58.1341Z ROSS6 -- winchinfo -- 2017/04/17 22:57:58 UTC -- STATUS 1  Dir stationary  Rev 0 Res 617 Spd 100.00 Ver 4_17_2017 
2017-04-17T22:57:58.1342Z ROSS6 -- winchstatus -- 2017/04/17 22:57:58 UTC -- STATUS 1  Dir stationary  Rev 0 Res 617 Spd 100.00 Ver 4_17_2017  DOWNLOADING no
2017-04-17T22:57:59.0323Z ROSS6 -- stats -- 2017/04/17 22:57:59 UTC -- TIME 93930000 LAT 56.8109897 LON -132.9683688 ALT -1.17 SATVIS 9 ROLL -0.032 PITCH 0.037 YAW 2.736 SP 0.0558928959072 HD 156 TH 60 CURWP 2
2017-04-17T22:57:59.2170Z ROSS6 -- winchinfo -- 2017/04/17 22:57:59 UTC -- STATUS 1  Dir stationary  Rev 0 Res 641 Spd 100.00 Ver 4_17_2017 
2017-04-17T22:57:59.2172Z ROSS6 -- winchstatus -- 2017/04/17 22:57:59 UTC -- STATUS 1  Dir stationary  Rev 0 Res 641 Spd 100.00 Ver 4_17_2017  DOWNLOADING no
2017-04-17T22:58:00.0323Z ROSS6 -- stats -- 2017/04/17 22:58:00 UTC -- TIME 94931000 LAT 56.8109888 LON -132.9683678 ALT -1.36 SATVIS 9 ROLL -0.032 PITCH 0.037 YAW 2.737 SP 0.0265071634203 HD 156 TH 60 CURWP 2
2017-04-17T22:58:00.1342Z ROSS6 -- winchinfo -- 2017/04/17 22:58:00 UTC -- STATUS 1  Dir stationary  Rev 0 Res 637 Spd 100.00 Ver 4_17_2017 
2017-04-17T22:58:00.1343Z ROSS6 -- winchstatus -- 2017/04/17 22:58:00 UTC -- STATUS 1  Dir stationary  Rev 0 Res 637 Spd 100.00 Ver 4_17_2017  DOWNLOADING no
2017-04-17T22:58:01.0403Z ROSS6 -- stats -- 2017/04/17 22:58:01 UTC -- TIME 95930000 LAT 56.8109896 LON -132.9683675 ALT -1.55 SATVIS 9 ROLL -0.032 PITCH 0.038 YAW 2.738 SP 0.0369534417987 HD 156 TH 60 CURWP 2
2017-04-17T22:58:01.1415Z ROSS6 -- winchinfo -- 2017/04/17 22:58:01 UTC --  Res 629 Spd 100.00 Ver 4_17_2017 
2017-04-17T22:58:02.0312Z ROSS6 -- stats -- 2017/04/17 22:58:02 UTC -- TIME 96931000 LAT 56.8109899 LON -132.9683668 ALT -1.71 SATVIS 9 ROLL -0.033 PITCH 0.038 YAW 2.739 SP 0.0686660036445 HD 156 TH 60 CURWP 2
2017-04-17T22:58:02.1321Z ROSS6 -- winchinfo -- 2017/04/17 22:58:02 UTC -- er 4_17_2017 
2017-04-17T22:58:03.0322Z ROSS6 -- stats -- 2017/04/17 22:58:03 UTC -- TIME 97930000 LAT 56.8109904 LON -132.968367 ALT -1.66 SATVIS 9 ROLL -0.032 PITCH 0.039 YAW 2.740 SP 0.0994795113802 HD 156 TH 60 CURWP 2
2017-04-17T22:58:03.1337Z ROSS6 -- winchinfo -- 2017/04/17 22:58:03 UTC -- STATUS 1  Dir stationary  Rev 0 Res 637 Spd 100.00 Ver 4_17_2017 
2017-04-17T22:58:03.1339Z ROSS6 -- winchstatus -- 2017/04/17 22:58:03 UTC -- STATUS 1  Dir stationary  Rev 0 Res 637 Spd 100.00 Ver 4_17_2017  DOWNLOADING no
2017-04-17T22:58:04.0312Z ROSS6 -- stats -- 2017/04/17 22:58:04 UTC -- TIME 98931000 LAT 56.8109894 LON -132.9683671 ALT -1.7 SATVIS 9 ROLL -0.032 PITCH 0.038 YAW 2.741 SP 0.0427994690835 HD 157 TH 60 CURWP 2
2017-04-17T22:58:04.1326Z ROSS6 -- winchinfo -- 2017/04/17 22:58:04 UTC -- STATUS 1  Dir up  Rev 0 Res 632 Spd 93.62 Ver 4_17_2017 
2017-04-17T22:58:04.1327Z ROSS6 -- winchstatus -- 2017/04/17 22:58:04 UTC -- STATUS 1  Dir up  Rev 0 Res 632 Spd 93.62 Ver 4_17_2017  DOWNLOADING no
2017-04-17T22:58:05.0321Z ROSS6 -- stats -- 2017/04/17 22:58:05 UTC -- TIME 99930000 LAT 56.8109887 LON -132.9683665 ALT -1.57 SATVIS 9 ROLL -0.031 PITCH 0.037 YAW 2.742 SP 0.0263169836253 HD 157 TH 60 CURWP 2
2017-04-17T22:58:05.1336Z ROSS6 -- winchinfo -- 2017/04/17 22:58:05 UTC -- STATUS 1  Dir stationary  Rev 0 Res 627 Spd 100.00 Ver 4_17_2017 
2017-04-17T22:58:05.1338Z ROSS6 -- winchstatus -- 2017/04/17 22:58:05 UTC -- STATUS 1  Dir stationary  Rev 0 Res 627 Spd 100.00 Ver 4_17_2017  DOWNLOADING no
2017-04-17T22:58:06.0320Z ROSS6 -- stats -- 2017/04/17 22:58:06 UTC -- TIME 100930000 LAT 56.8109894 LON -132.9683658 ALT -1.53 SATVIS 9 ROLL -0.032 PITCH 0.038 YAW 2.742 SP 0.0446305572987 HD 157 TH 60 CURWP 2
2017-04-17T22:58:06.1335Z ROSS6 -- winchinfo -- 2017/04/17 22:58:06 UTC -- STATUS 1  Dir stationary  Rev 0 Res 640 Spd 100.00 Ver 4_17_2017 
2017-04-17T22:58:06.1337Z ROSS6 -- winchstatus -- 2017/04/17 22:58:06 UTC -- STATUS 1  Dir stationary  Rev 0 Res 640 Spd 100.00 Ver 4_17_2017  DOWNLOADING no
2017-04-17T22:58:07.0319Z ROSS6 -- stats -- 2017/04/17 22:58:07 UTC -- TIME 101950000 LAT 56.8109894 LON -132.9683657 ALT -1.56 SATVIS 9 ROLL -0.032 PITCH 0.038 YAW 2.743 SP 0.0406154245138 HD 157 TH 60 CURWP 2
2017-04-17T22:58:07.1332Z ROSS6 -- winchinfo -- 2017/04/17 22:58:07 UTC -- STATUS 1  Dir stationary  Rev 0 Res 628 Spd 100.00 Ver 4_17_2017 
2017-04-17T22:58:07.1333Z ROSS6 -- winchstatus -- 2017/04/17 22:58:07 UTC -- STATUS 1  Dir stationary  Rev 0 Res 628 Spd 100.00 Ver 4_17_2017  DOWNLOADING no
2017-04-17T22:58:08.0308Z ROSS6 -- stats -- 2017/04/17 22:58:08 UTC -- TIME 102950000 LAT 56.8109894 LON -132.9683655 ALT -1.48 SATVIS 9 ROLL -0.032 PITCH 0.038 YAW 2.743 SP 0.0605990178883 HD 157 TH 60 CURWP 2
2017-04-17T22:58:08.1324Z ROSS6 -- winchinfo -- 2017/04/17 22:58:08 UTC -- STATUS 1  Dir stationary  Rev 0 Res 633 Spd 100.00 Ver 4_17_2017 
2017-04-17T22:58:08.1326Z ROSS6 -- winchstatus -- 2017/04/17 22:58:08 UTC -- STATUS 1  Dir stationary  Rev 0 Res 633 Spd 100.00 Ver 4_17_2017  DOWNLOADING no
2017-04-17T22:58:09.0317Z ROSS6 -- stats -- 2017/04/17 22:58:09 UTC -- TIME 103931000 LAT 56.8109893 LON -132.9683648 ALT -1.53 SATVIS 9 ROLL -0.033 PITCH 0.038 YAW 2.744 SP 0.0558282136917 HD 157 TH 60 CURWP 2
2017-04-17T22:58:09.1332Z ROSS6 -- winchinfo -- 2017/04/17 22:58:09 UTC -- STATUS 1  Dir stationary  Rev 0 Res 637 Spd 100.00 Ver 4_17_2017 
2017-04-17T22:58:09.1334Z ROSS6 -- winchstatus -- 2017/04/17 22:58:09 UTC -- STATUS 1  Dir stationary  Rev 0 Res 637 Spd 100.00 Ver 4_17_2017  DOWNLOADING no
2017-04-17T22:58:10.0316Z ROSS6 -- stats -- 2017/04/17 22:58:10 UTC -- TIME 104930000 LAT 56.8109888 LON -132.9683635 ALT -1.38 SATVIS 9 ROLL -0.033 PITCH 0.037 YAW 2.744 SP 0.0374346747994 HD 157 TH 60 CURWP 2
2017-04-17T22:58:10.1332Z ROSS6 -- winchinfo -- 2017/04/17 22:58:10 UTC -- STATUS 1  Dir stationary  Rev 0 Res 632 Spd 100.00 Ver 4_17_2017 
2017-04-17T22:58:10.1334Z ROSS6 -- winchstatus -- 2017/04/17 22:58:10 UTC -- STATUS 1  Dir stationary  Rev 0 Res 632 Spd 100.00 Ver 4_17_2017  DOWNLOADING no
2017-04-17T22:58:11.0317Z ROSS6 -- stats -- 2017/04/17 22:58:11 UTC -- TIME 105930000 LAT 56.8109888 LON -132.968363 ALT -1.36 SATVIS 9 ROLL -0.033 PITCH 0.038 YAW 2.744 SP 0.0606518909335 HD 157 TH 60 CURWP 2
2017-04-17T22:58:11.1333Z ROSS6 -- winchinfo -- 2017/04/17 22:58:11 UTC -- STATUS 1  Dir stationary  Rev 0 Res 628 Spd 100.00 Ver 4_17_2017 
2017-04-17T22:58:11.1335Z ROSS6 -- winchstatus -- 2017/04/17 22:58:11 UTC -- STATUS 1  Dir stationary  Rev 0 Res 628 Spd 100.00 Ver 4_17_2017  DOWNLOADING no
2017-04-17T22:58:12.0394Z ROSS6 -- stats -- 2017/04/17 22:58:12 UTC -- TIME 106930000 LAT 56.8109882 LON -132.9683618 ALT -1.23 SATVIS 9 ROLL -0.033 PITCH 0.037 YAW 2.745 SP 0.0441147312522 HD 157 TH 60 CURWP 2
2017-04-17T22:58:12.1408Z ROSS6 -- winchinfo -- 2017/04/17 22:58:12 UTC -- STATUS 1  Dir stationary  Rev 0 Res 630 Spd 100.00 Ver 4_17_2017 
2017-04-17T22:58:12.1409Z ROSS6 -- winchstatus -- 2017/04/17 22:58:12 UTC -- STATUS 1  Dir stationary  Rev 0 Res 630 Spd 100.00 Ver 4_17_2017  DOWNLOADING no
2017-04-17T22:58:13.0315Z ROSS6 -- stats -- 2017/04/17 22:58:13 UTC -- TIME 107930000 LAT 56.8109868 LON -132.9683616 ALT -1.2 SATVIS 9 ROLL -0.032 PITCH 0.036 YAW 2.745 SP 0.0482891462743 HD 157 TH 60 CURWP 2
2017-04-17T22:58:13.1331Z ROSS6 -- winchinfo -- 2017/04/17 22:58:13 UTC -- STATUS 1  Dir stationary  Rev 0 Res 637 Spd 100.00 Ver 4_17_2017 
2017-04-17T22:58:13.1333Z ROSS6 -- winchstatus -- 2017/04/17 22:58:13 UTC -- STATUS 1  Dir stationary  Rev 0 Res 637 Spd 100.00 Ver 4_17_2017  DOWNLOADING no
2017-04-17T22:58:14.0305Z ROSS6 -- stats -- 2017/04/17 22:58:14 UTC -- TIME 108931000 LAT 56.8109864 LON -132.968361 ALT -1.22 SATVIS 9 ROLL -0.033 PITCH 0.038 YAW 2.745 SP 0.0028212023899 HD 157 TH 60 CURWP 2
2017-04-17T22:58:14.1321Z ROSS6 -- winchinfo -- 2017/04/17 22:58:14 UTC -- STATUS 1  Dir stationary  Rev 0 Res 640 Spd 100.00 Ver 4_17_2017 
2017-04-17T22:58:14.1323Z ROSS6 -- winchstatus -- 2017/04/17 22:58:14 UTC -- STATUS 1  Dir stationary  Rev 0 Res 640 Spd 100.00 Ver 4_17_2017  DOWNLOADING no
2017-04-17T22:58:15.0303Z ROSS6 -- stats -- 2017/04/17 22:58:15 UTC -- TIME 109930000 LAT 56.8109864 LON -132.9683596 ALT -1.03 SATVIS 9 ROLL -0.033 PITCH 0.039 YAW 2.745 SP 0.0468580834568 HD 157 TH 60 CURWP 2
2017-04-17T22:58:15.2210Z ROSS6 -- winchinfo -- 2017/04/17 22:58:15 UTC -- STATUS 1  Dir stationary  Rev 0 Res 639 Spd 100.00 Ver 4_17_2017 
2017-04-17T22:58:15.2212Z ROSS6 -- winchstatus -- 2017/04/17 22:58:15 UTC -- STATUS 1  Dir stationary  Rev 0 Res 639 Spd 100.00 Ver 4_17_2017  DOWNLOADING no
2017-04-17T22:58:16.0313Z ROSS6 -- stats -- 2017/04/17 22:58:16 UTC -- TIME 110950000 LAT 56.8109862 LON -132.9683585 ALT -0.87 SATVIS 9 ROLL -0.033 PITCH 0.039 YAW 2.745 SP 0.0639241486788 HD 157 TH 60 CURWP 2
2017-04-17T22:58:16.1330Z ROSS6 -- winchinfo -- 2017/04/17 22:58:16 UTC -- STATUS 1  Dir stationary  Rev 0 Res 637 Spd 100.00 Ver 4_17_2017 
2017-04-17T22:58:16.1332Z ROSS6 -- winchstatus -- 2017/04/17 22:58:16 UTC -- STATUS 1  Dir stationary  Rev 0 Res 637 Spd 100.00 Ver 4_17_2017  DOWNLOADING no
2017-04-17T22:58:17.0313Z ROSS6 -- stats -- 2017/04/17 22:58:17 UTC -- TIME 111931000 LAT 56.8109862 LON -132.9683577 ALT -0.94 SATVIS 9 ROLL -0.033 PITCH 0.041 YAW 2.746 SP 0.121833100915 HD 157 TH 60 CURWP 2
2017-04-17T22:58:17.1328Z ROSS6 -- winchinfo -- 2017/04/17 22:58:17 UTC -- STATUS 1  Dir stationary  Rev 0 Res 625 Spd 100.00 Ver 4_17_2017 
2017-04-17T22:58:17.1329Z ROSS6 -- winchstatus -- 2017/04/17 22:58:17 UTC -- STATUS 1  Dir stationary  Rev 0 Res 625 Spd 100.00 Ver 4_17_2017  DOWNLOADING no
2017-04-17T22:58:18.0313Z ROSS6 -- stats -- 2017/04/17 22:58:18 UTC -- TIME 112931000 LAT 56.8109849 LON -132.9683561 ALT -0.9 SATVIS 9 ROLL -0.033 PITCH 0.039 YAW 2.745 SP 0.0710977390409 HD 157 TH 60 CURWP 2
2017-04-17T22:58:18.1330Z ROSS6 -- winchinfo -- 2017/04/17 22:58:18 UTC -- STATUS 1  Dir stationary  Rev 0 Res 633 Spd 100.00 Ver 4_17_2017 
2017-04-17T22:58:18.1332Z ROSS6 -- winchstatus -- 2017/04/17 22:58:18 UTC -- STATUS 1  Dir stationary  Rev 0 Res 633 Spd 100.00 Ver 4_17_2017  DOWNLOADING no
2017-04-17T22:58:19.0313Z ROSS6 -- stats -- 2017/04/17 22:58:19 UTC -- TIME 113931000 LAT 56.8109827 LON -132.9683556 ALT -0.88 SATVIS 9 ROLL -0.032 PITCH 0.037 YAW 2.746 SP 0.038406804204 HD 157 TH 60 CURWP 2
2017-04-17T22:58:19.1328Z ROSS6 -- winchinfo -- 2017/04/17 22:58:19 UTC -- STATUS 1  Dir stationary  Rev 0 Res 640 Spd 100.00 Ver 4_17_2017 
2017-04-17T22:58:19.1330Z ROSS6 -- winchstatus -- 2017/04/17 22:58:19 UTC -- STATUS 1  Dir stationary  Rev 0 Res 640 Spd 100.00 Ver 4_17_2017  DOWNLOADING no
2017-04-17T22:58:20.0312Z ROSS6 -- stats -- 2017/04/17 22:58:20 UTC -- TIME 114950000 LAT 56.810981 LON -132.9683546 ALT -0.8 SATVIS 9 ROLL -0.032 PITCH 0.037 YAW 2.746 SP 0.0686202421784 HD 157 TH 60 CURWP 2
2017-04-17T22:58:20.1327Z ROSS6 -- winchinfo -- 2017/04/17 22:58:20 UTC -- STATUS 1  Dir stationary  Rev 0 Res 633 Spd 100.00 Ver 4_17_2017 
2017-04-17T22:58:20.1329Z ROSS6 -- winchstatus -- 2017/04/17 22:58:20 UTC -- STATUS 1  Dir stationary  Rev 0 Res 633 Spd 100.00 Ver 4_17_2017  DOWNLOADING no
2017-04-17T22:58:21.0312Z ROSS6 -- stats -- 2017/04/17 22:58:21 UTC -- TIME 115950000 LAT 56.8109803 LON -132.9683541 ALT -0.94 SATVIS 9 ROLL -0.032 PITCH 0.039 YAW 2.745 SP 0.0169937647879 HD 157 TH 60 CURWP 2
2017-04-17T22:58:21.1326Z ROSS6 -- winchinfo -- 2017/04/17 22:58:21 UTC -- STATUS 1  Dir up  Rev 0 Res 632 Spd 99.92 Ver 4_17_2017 
2017-04-17T22:58:21.1328Z ROSS6 -- winchstatus -- 2017/04/17 22:58:21 UTC -- STATUS 1  Dir up  Rev 0 Res 632 Spd 99.92 Ver 4_17_2017  DOWNLOADING no
2017-04-17T22:58:22.0311Z ROSS6 -- stats -- 2017/04/17 22:58:22 UTC -- TIME 116950000 LAT 56.8109791 LON -132.9683541 ALT -1.21 SATVIS 9 ROLL -0.031 PITCH 0.039 YAW 2.746 SP 0.0127947274595 HD 157 TH 60 CURWP 2
2017-04-17T22:58:22.1327Z ROSS6 -- winchinfo -- 2017/04/17 22:58:22 UTC -- STATUS 1  Dir stationary  Rev 0 Res 632 Spd 100.00 Ver 4_17_2017 
2017-04-17T22:58:22.1329Z ROSS6 -- winchstatus -- 2017/04/17 22:58:22 UTC -- STATUS 1  Dir stationary  Rev 0 Res 632 Spd 100.00 Ver 4_17_2017  DOWNLOADING no
2017-04-17T22:58:23.0391Z ROSS6 -- stats -- 2017/04/17 22:58:23 UTC -- TIME 117931000 LAT 56.8109782 LON -132.9683536 ALT -1.46 SATVIS 9 ROLL -0.032 PITCH 0.039 YAW 2.745 SP 0.0158864948899 HD 157 TH 60 CURWP 2
2017-04-17T22:58:23.1409Z ROSS6 -- winchinfo -- 2017/04/17 22:58:23 UTC -- STATUS 1  Dir stationary  Rev 0 Res 631 Spd 100.00 Ver 4_17_2017 
2017-04-17T22:58:23.1411Z ROSS6 -- winchstatus -- 2017/04/17 22:58:23 UTC -- STATUS 1  Dir stationary  Rev 0 Res 631 Spd 100.00 Ver 4_17_2017  DOWNLOADING no
2017-04-17T22:58:24.0311Z ROSS6 -- stats -- 2017/04/17 22:58:24 UTC -- TIME 118950000 LAT 56.8109767 LON -132.9683535 ALT -1.55 SATVIS 9 ROLL -0.032 PITCH 0.039 YAW 2.745 SP 0.012975551188 HD 157 TH 60 CURWP 2
2017-04-17T22:58:24.1329Z ROSS6 -- winchinfo -- 2017/04/17 22:58:24 UTC -- STATUS 1  Dir stationary  Rev 0 Res 631 Spd 100.00 Ver 4_17_2017 
2017-04-17T22:58:24.1331Z ROSS6 -- winchstatus -- 2017/04/17 22:58:24 UTC -- STATUS 1  Dir stationary  Rev 0 Res 631 Spd 100.00 Ver 4_17_2017  DOWNLOADING no
2017-04-17T22:58:25.0314Z ROSS6 -- stats -- 2017/04/17 22:58:25 UTC -- TIME 119950000 LAT 56.8109755 LON -132.9683536 ALT -1.78 SATVIS 9 ROLL -0.032 PITCH 0.039 YAW 2.745 SP 0.031489752233 HD 157 TH 60 CURWP 2
2017-04-17T22:58:25.1337Z ROSS6 -- winchinfo -- 2017/04/17 22:58:25 UTC -- STATUS 1  Dir stationary  Rev 0 Res 635 Spd 100.00 Ver 4_17_2017 
2017-04-17T22:58:25.1340Z ROSS6 -- winchstatus -- 2017/04/17 22:58:25 UTC -- STATUS 1  Dir stationary  Rev 0 Res 635 Spd 100.00 Ver 4_17_2017  DOWNLOADING no
2017-04-17T22:58:26.0311Z ROSS6 -- stats -- 2017/04/17 22:58:26 UTC -- TIME 120930000 LAT 56.8109745 LON -132.9683534 ALT -1.5 SATVIS 9 ROLL -0.033 PITCH 0.039 YAW 2.745 SP 0.011987362057 HD 157 TH 60 CURWP 2
2017-04-17T22:58:26.1329Z ROSS6 -- winchinfo -- 2017/04/17 22:58:26 UTC -- STATUS 1  Dir stationary  Rev 0 Res 636 Spd 100.00 Ver 4_17_2017 
2017-04-17T22:58:26.1330Z ROSS6 -- winchstatus -- 2017/04/17 22:58:26 UTC -- STATUS 1  Dir stationary  Rev 0 Res 636 Spd 100.00 Ver 4_17_2017  DOWNLOADING no
2017-04-17T22:58:27.0299Z ROSS6 -- stats -- 2017/04/17 22:58:27 UTC -- TIME 121930000 LAT 56.8109726 LON -132.9683536 ALT -1.4 SATVIS 9 ROLL -0.032 PITCH 0.038 YAW 2.745 SP 0.0496646724641 HD 157 TH 60 CURWP 2
2017-04-17T22:58:27.1307Z ROSS6 -- winchinfo -- 2017/04/17 22:58:27 UTC -- STATUS 1  Dir stationary  Rev 0 Res 623 Spd 100.00 Ver 4_17_2017 
2017-04-17T22:58:27.1308Z ROSS6 -- winchstatus -- 2017/04/17 22:58:27 UTC -- STATUS 1  Dir stationary  Rev 0 Res 623 Spd 100.00 Ver 4_17_2017  DOWNLOADING no
2017-04-17T22:58:28.0308Z ROSS6 -- stats -- 2017/04/17 22:58:28 UTC -- TIME 122930000 LAT 56.8109722 LON -132.9683542 ALT -1.27 SATVIS 9 ROLL -0.033 PITCH 0.040 YAW 2.744 SP 0.0389634110034 HD 157 TH 60 CURWP 2
2017-04-17T22:58:28.1323Z ROSS6 -- winchinfo -- 2017/04/17 22:58:28 UTC -- STATUS 1  Dir stationary  Rev 0 Res 631 Spd 100.00 Ver 4_17_2017 
2017-04-17T22:58:28.1325Z ROSS6 -- winchstatus -- 2017/04/17 22:58:28 UTC -- STATUS 1  Dir stationary  Rev 0 Res 631 Spd 100.00 Ver 4_17_2017  DOWNLOADING no
2017-04-17T22:58:29.0297Z ROSS6 -- stats -- 2017/04/17 22:58:29 UTC -- TIME 123931000 LAT 56.8109705 LON -132.9683542 ALT -1.19 SATVIS 9 ROLL -0.032 PITCH 0.039 YAW 2.744 SP 0.0417721793056 HD 157 TH 60 CURWP 2
2017-04-17T22:58:29.1313Z ROSS6 -- winchinfo -- 2017/04/17 22:58:29 UTC -- STATUS 1  Dir stationary  Rev 0 Res 629 Spd 100.00 Ver 4_17_2017 
2017-04-17T22:58:29.1315Z ROSS6 -- winchstatus -- 2017/04/17 22:58:29 UTC -- STATUS 1  Dir stationary  Rev 0 Res 629 Spd 100.00 Ver 4_17_2017  DOWNLOADING no
2017-04-17T22:58:30.0297Z ROSS6 -- stats -- 2017/04/17 22:58:30 UTC -- TIME 124950000 LAT 56.810969 LON -132.9683542 ALT -0.98 SATVIS 9 ROLL -0.033 PITCH 0.039 YAW 2.744 SP 0.0427383631468 HD 157 TH 60 CURWP 2
2017-04-17T22:58:30.1314Z ROSS6 -- winchinfo -- 2017/04/17 22:58:30 UTC -- STATUS 1  Dir stationary  Rev 0 Res 631 Spd 100.00 Ver 4_17_2017 
2017-04-17T22:58:30.1316Z ROSS6 -- winchstatus -- 2017/04/17 22:58:30 UTC -- STATUS 1  Dir stationary  Rev 0 Res 631 Spd 100.00 Ver 4_17_2017  DOWNLOADING no
2017-04-17T22:58:31.0306Z ROSS6 -- stats -- 2017/04/17 22:58:31 UTC -- TIME 125931000 LAT 56.8109688 LON -132.9683545 ALT -0.8 SATVIS 9 ROLL -0.033 PITCH 0.041 YAW 2.744 SP 0.0611490681767 HD 157 TH 60 CURWP 2
2017-04-17T22:58:31.1324Z ROSS6 -- winchinfo -- 2017/04/17 22:58:31 UTC -- STATUS 1  Dir stationary  Rev 0 Res 648 Spd 100.00 Ver 4_17_2017 
2017-04-17T22:58:31.1326Z ROSS6 -- winchstatus -- 2017/04/17 22:58:31 UTC -- STATUS 1  Dir stationary  Rev 0 Res 648 Spd 100.00 Ver 4_17_2017  DOWNLOADING no
2017-04-17T22:58:32.0305Z ROSS6 -- stats -- 2017/04/17 22:58:32 UTC -- TIME 126930000 LAT 56.8109684 LON -132.9683554 ALT -0.79 SATVIS 9 ROLL -0.033 PITCH 0.042 YAW 2.743 SP 0.119406849146 HD 157 TH 60 CURWP 2
2017-04-17T22:58:32.1343Z ROSS6 -- winchinfo -- 2017/04/17 22:58:32 UTC -- STATUS 1  Dir up  Rev 0 Res 633 Spd 86.92 Ver 4_17_2017 
2017-04-17T22:58:32.1345Z ROSS6 -- winchstatus -- 2017/04/17 22:58:32 UTC -- STATUS 1  Dir up  Rev 0 Res 633 Spd 86.92 Ver 4_17_2017  DOWNLOADING no
2017-04-17T22:58:33.0305Z ROSS6 -- stats -- 2017/04/17 22:58:33 UTC -- TIME 127931000 LAT 56.8109677 LON -132.9683557 ALT -0.85 SATVIS 9 ROLL -0.032 PITCH 0.041 YAW 2.743 SP 0.110250361264 HD 157 TH 60 CURWP 2
2017-04-17T22:58:33.1321Z ROSS6 -- winchinfo -- 2017/04/17 22:58:33 UTC -- STATUS 1  Dir stationary  Rev 0 Res 629 Spd 100.00 Ver 4_17_2017 
2017-04-17T22:58:33.1323Z ROSS6 -- winchstatus -- 2017/04/17 22:58:33 UTC -- STATUS 1  Dir stationary  Rev 0 Res 629 Spd 100.00 Ver 4_17_2017  DOWNLOADING no
2017-04-17T22:58:34.0384Z ROSS6 -- stats -- 2017/04/17 22:58:34 UTC -- TIME 128931000 LAT 56.8109656 LON -132.9683562 ALT -0.78 SATVIS 9 ROLL -0.032 PITCH 0.039 YAW 2.743 SP 0.0608110539615 HD 157 TH 60 CURWP 2
2017-04-17T22:58:34.1399Z ROSS6 -- winchinfo -- 2017/04/17 22:58:34 UTC -- STATUS 1  Dir stationary  Rev 0 Res 634 Spd 100.00 Ver 4_17_2017 
2017-04-17T22:58:34.1401Z ROSS6 -- winchstatus -- 2017/04/17 22:58:34 UTC -- STATUS 1  Dir stationary  Rev 0 Res 634 Spd 100.00 Ver 4_17_2017  DOWNLOADING no
2017-04-17T22:58:35.0304Z ROSS6 -- stats -- 2017/04/17 22:58:35 UTC -- TIME 129950000 LAT 56.8109647 LON -132.9683562 ALT -0.56 SATVIS 9 ROLL -0.033 PITCH 0.039 YAW 2.742 SP 0.0283458139747 HD 157 TH 60 CURWP 2
2017-04-17T22:58:35.1319Z ROSS6 -- winchinfo -- 2017/04/17 22:58:35 UTC -- STATUS 1  Dir stationary  Rev 0 Res 636 Spd 100.00 Ver 4_17_2017 
2017-04-17T22:58:35.1321Z ROSS6 -- winchstatus -- 2017/04/17 22:58:35 UTC -- STATUS 1  Dir stationary  Rev 0 Res 636 Spd 100.00 Ver 4_17_2017  DOWNLOADING no
2017-04-17T22:58:36.0303Z ROSS6 -- stats -- 2017/04/17 22:58:36 UTC -- TIME 130950000 LAT 56.810964 LON -132.9683555 ALT -0.47 SATVIS 9 ROLL -0.034 PITCH 0.039 YAW 2.742 SP 0.00456855027005 HD 157 TH 60 CURWP 2
2017-04-17T22:58:36.1318Z ROSS6 -- winchinfo -- 2017/04/17 22:58:36 UTC -- STATUS 1  Dir stationary  Rev 0 Res 638 Spd 100.00 Ver 4_17_2017 
2017-04-17T22:58:36.1319Z ROSS6 -- winchstatus -- 2017/04/17 22:58:36 UTC -- STATUS 1  Dir stationary  Rev 0 Res 638 Spd 100.00 Ver 4_17_2017  DOWNLOADING no
2017-04-17T22:58:37.0302Z ROSS6 -- stats -- 2017/04/17 22:58:37 UTC -- TIME 131950000 LAT 56.8109633 LON -132.9683549 ALT -0.46 SATVIS 9 ROLL -0.034 PITCH 0.039 YAW 2.742 SP 0.0175388399512 HD 157 TH 60 CURWP 2
2017-04-17T22:58:37.1318Z ROSS6 -- winchinfo -- 2017/04/17 22:58:37 UTC -- STATUS 1  Dir stationary  Rev 0 Res 639 Spd 100.00 Ver 4_17_2017 
2017-04-17T22:58:37.1320Z ROSS6 -- winchstatus -- 2017/04/17 22:58:37 UTC -- STATUS 1  Dir stationary  Rev 0 Res 639 Spd 100.00 Ver 4_17_2017  DOWNLOADING no
2017-04-17T22:58:38.0302Z ROSS6 -- stats -- 2017/04/17 22:58:38 UTC -- TIME 132950000 LAT 56.8109621 LON -132.9683551 ALT -0.31 SATVIS 9 ROLL -0.033 PITCH 0.038 YAW 2.741 SP 0.0280301049352 HD 157 TH 60 CURWP 2
2017-04-17T22:58:38.1317Z ROSS6 -- winchinfo -- 2017/04/17 22:58:38 UTC -- STATUS 1  Dir stationary  Rev 0 Res 622 Spd 100.00 Ver 4_17_2017 
2017-04-17T22:58:38.1319Z ROSS6 -- winchstatus -- 2017/04/17 22:58:38 UTC -- STATUS 1  Dir stationary  Rev 0 Res 622 Spd 100.00 Ver 4_17_2017  DOWNLOADING no
2017-04-17T22:58:39.0291Z ROSS6 -- stats -- 2017/04/17 22:58:39 UTC -- TIME 133950000 LAT 56.8109615 LON -132.9683555 ALT -0.09 SATVIS 9 ROLL -0.033 PITCH 0.038 YAW 2.741 SP 0.0202465429902 HD 157 TH 60 CURWP 2
2017-04-17T22:58:39.1307Z ROSS6 -- winchinfo -- 2017/04/17 22:58:39 UTC -- STATUS 1  Dir stationary  Rev 0 Res 632 Spd 100.00 Ver 4_17_2017 
2017-04-17T22:58:39.1309Z ROSS6 -- winchstatus -- 2017/04/17 22:58:39 UTC -- STATUS 1  Dir stationary  Rev 0 Res 632 Spd 100.00 Ver 4_17_2017  DOWNLOADING no
2017-04-17T22:58:40.0290Z ROSS6 -- stats -- 2017/04/17 22:58:40 UTC -- TIME 134950000 LAT 56.8109612 LON -132.9683559 ALT -0.13 SATVIS 9 ROLL -0.033 PITCH 0.039 YAW 2.740 SP 0.0318353027105 HD 157 TH 60 CURWP 2
2017-04-17T22:58:40.1306Z ROSS6 -- winchinfo -- 2017/04/17 22:58:40 UTC -- STATUS 1  Dir stationary  Rev 0 Res 633 Spd 100.00 Ver 4_17_2017 
2017-04-17T22:58:40.1308Z ROSS6 -- winchstatus -- 2017/04/17 22:58:40 UTC -- STATUS 1  Dir stationary  Rev 0 Res 633 Spd 100.00 Ver 4_17_2017  DOWNLOADING no
2017-04-17T22:58:41.0310Z ROSS6 -- stats -- 2017/04/17 22:58:41 UTC -- TIME 135950000 LAT 56.8109607 LON -132.9683562 ALT -0.16 SATVIS 9 ROLL -0.033 PITCH 0.040 YAW 2.740 SP 0.0572040304542 HD 156 TH 60 CURWP 2
2017-04-17T22:58:41.1325Z ROSS6 -- winchinfo -- 2017/04/17 22:58:41 UTC -- STATUS 1  Dir stationary  Rev 0 Res 637 Spd 100.00 Ver 4_17_2017 
2017-04-17T22:58:41.1326Z ROSS6 -- winchstatus -- 2017/04/17 22:58:41 UTC -- STATUS 1  Dir stationary  Rev 0 Res 637 Spd 100.00 Ver 4_17_2017  DOWNLOADING no
2017-04-17T22:58:42.0300Z ROSS6 -- stats -- 2017/04/17 22:58:42 UTC -- TIME 136950000 LAT 56.8109604 LON -132.9683557 ALT -0.11 SATVIS 9 ROLL -0.034 PITCH 0.039 YAW 2.739 SP 0.0529278181493 HD 156 TH 60 CURWP 2
2017-04-17T22:58:42.1317Z ROSS6 -- winchinfo -- 2017/04/17 22:58:42 UTC -- STATUS 1  Dir stationary  Rev 0 Res 638 Spd 100.00 Ver 4_17_2017 
2017-04-17T22:58:42.1319Z ROSS6 -- winchstatus -- 2017/04/17 22:58:42 UTC -- STATUS 1  Dir stationary  Rev 0 Res 638 Spd 100.00 Ver 4_17_2017  DOWNLOADING no
2017-04-17T22:58:43.0289Z ROSS6 -- stats -- 2017/04/17 22:58:43 UTC -- TIME 137930000 LAT 56.8109594 LON -132.9683566 ALT -0.11 SATVIS 9 ROLL -0.033 PITCH 0.039 YAW 2.739 SP 0.0236445330083 HD 156 TH 60 CURWP 2
2017-04-17T22:58:43.1304Z ROSS6 -- winchinfo -- 2017/04/17 22:58:43 UTC -- STATUS 1  Dir up  Rev 0 Res 655 Spd 84.40 Ver 4_17_2017 
2017-04-17T22:58:43.1306Z ROSS6 -- winchstatus -- 2017/04/17 22:58:43 UTC -- STATUS 1  Dir up  Rev 0 Res 655 Spd 84.40 Ver 4_17_2017  DOWNLOADING no
2017-04-17T22:58:44.0299Z ROSS6 -- stats -- 2017/04/17 22:58:44 UTC -- TIME 138931000 LAT 56.8109589 LON -132.9683564 ALT -0.01 SATVIS 9 ROLL -0.034 PITCH 0.038 YAW 2.738 SP 0.017185440287 HD 156 TH 60 CURWP 2
2017-04-17T22:58:44.1316Z ROSS6 -- winchinfo -- 2017/04/17 22:58:44 UTC -- STATUS 1  Dir stationary  Rev 0 Res 631 Spd 100.00 Ver 4_17_2017 
2017-04-17T22:58:44.1318Z ROSS6 -- winchstatus -- 2017/04/17 22:58:44 UTC -- STATUS 1  Dir stationary  Rev 0 Res 631 Spd 100.00 Ver 4_17_2017  DOWNLOADING no
2017-04-17T22:58:45.0378Z ROSS6 -- stats -- 2017/04/17 22:58:45 UTC -- TIME 139930000 LAT 56.8109588 LON -132.9683563 ALT 0.0 SATVIS 9 ROLL -0.034 PITCH 0.039 YAW 2.738 SP 0.0361440293491 HD 156 TH 60 CURWP 2
2017-04-17T22:58:45.1394Z ROSS6 -- winchinfo -- 2017/04/17 22:58:45 UTC -- STATUS 1  Dir stationary  Rev 0 Res 634 Spd 100.00 Ver 4_17_2017 
2017-04-17T22:58:45.1396Z ROSS6 -- winchstatus -- 2017/04/17 22:58:45 UTC -- STATUS 1  Dir stationary  Rev 0 Res 634 Spd 100.00 Ver 4_17_2017  DOWNLOADING no
2017-04-17T22:58:46.0301Z ROSS6 -- stats -- 2017/04/17 22:58:46 UTC -- TIME 140950000 LAT 56.8109582 LON -132.968357 ALT 0.16 SATVIS 9 ROLL -0.033 PITCH 0.039 YAW 2.737 SP 0.037557169795 HD 156 TH 60 CURWP 2
2017-04-17T22:58:46.1319Z ROSS6 -- winchinfo -- 2017/04/17 22:58:46 UTC -- STATUS 1  Dir stationary  Rev 0 Res 629 Spd 100.00 Ver 4_17_2017 
2017-04-17T22:58:46.1321Z ROSS6 -- winchstatus -- 2017/04/17 22:58:46 UTC -- STATUS 1  Dir stationary  Rev 0 Res 629 Spd 100.00 Ver 4_17_2017  DOWNLOADING no
2017-04-17T22:58:47.0298Z ROSS6 -- stats -- 2017/04/17 22:58:47 UTC -- TIME 141930000 LAT 56.8109578 LON -132.9683568 ALT 0.31 SATVIS 9 ROLL -0.033 PITCH 0.039 YAW 2.737 SP 0.0538593381643 HD 156 TH 60 CURWP 2
2017-04-17T22:58:47.1316Z ROSS6 -- winchinfo -- 2017/04/17 22:58:47 UTC -- STATUS 1  Dir stationary  Rev 0 Res 642 Spd 100.00 Ver 4_17_2017 
2017-04-17T22:58:47.1318Z ROSS6 -- winchstatus -- 2017/04/17 22:58:47 UTC -- STATUS 1  Dir stationary  Rev 0 Res 642 Spd 100.00 Ver 4_17_2017  DOWNLOADING no
2017-04-17T22:58:48.0297Z ROSS6 -- stats -- 2017/04/17 22:58:48 UTC -- TIME 142950000 LAT 56.8109563 LON -132.9683558 ALT 0.31 SATVIS 9 ROLL -0.034 PITCH 0.038 YAW 2.736 SP 0.0399530753493 HD 156 TH 60 CURWP 2
2017-04-17T22:58:48.1314Z ROSS6 -- winchinfo -- 2017/04/17 22:58:48 UTC -- STATUS 1  Dir stationary  Rev 0 Res 609 Spd 100.00 Ver 4_17_2017 
2017-04-17T22:58:48.1315Z ROSS6 -- winchstatus -- 2017/04/17 22:58:48 UTC -- STATUS 1  Dir stationary  Rev 0 Res 609 Spd 100.00 Ver 4_17_2017  DOWNLOADING no
2017-04-17T22:58:49.0296Z ROSS6 -- stats -- 2017/04/17 22:58:49 UTC -- TIME 143950000 LAT 56.8109557 LON -132.9683563 ALT 0.51 SATVIS 9 ROLL -0.034 PITCH 0.039 YAW 2.736 SP 0.0254649240524 HD 156 TH 60 CURWP 2
2017-04-17T22:58:49.1320Z ROSS6 -- winchinfo -- 2017/04/17 22:58:49 UTC -- STATUS 1  Dir stationary  Rev 0 Res 633 Spd 100.00 Ver 4_17_2017 
2017-04-17T22:58:49.1321Z ROSS6 -- winchstatus -- 2017/04/17 22:58:49 UTC -- STATUS 1  Dir stationary  Rev 0 Res 633 Spd 100.00 Ver 4_17_2017  DOWNLOADING no
2017-04-17T22:58:50.0285Z ROSS6 -- stats -- 2017/04/17 22:58:50 UTC -- TIME 144950000 LAT 56.8109541 LON -132.9683574 ALT 0.29 SATVIS 9 ROLL -0.032 PITCH 0.037 YAW 2.736 SP 0.0594122074544 HD 156 TH 60 CURWP 2
2017-04-17T22:58:50.1301Z ROSS6 -- winchinfo -- 2017/04/17 22:58:50 UTC -- STATUS 1  Dir stationary  Rev 0 Res 620 Spd 100.00 Ver 4_17_2017 
2017-04-17T22:58:50.1303Z ROSS6 -- winchstatus -- 2017/04/17 22:58:50 UTC -- STATUS 1  Dir stationary  Rev 0 Res 620 Spd 100.00 Ver 4_17_2017  DOWNLOADING no
2017-04-17T22:58:51.0295Z ROSS6 -- stats -- 2017/04/17 22:58:51 UTC -- TIME 145950000 LAT 56.810954 LON -132.968358 ALT 0.5 SATVIS 9 ROLL -0.033 PITCH 0.038 YAW 2.736 SP 0.0412078090012 HD 156 TH 60 CURWP 2
2017-04-17T22:58:51.1311Z ROSS6 -- winchinfo -- 2017/04/17 22:58:51 UTC -- STATUS 1  Dir stationary  Rev 0 Res 642 Spd 100.00 Ver 4_17_2017 
2017-04-17T22:58:51.1313Z ROSS6 -- winchstatus -- 2017/04/17 22:58:51 UTC -- STATUS 1  Dir stationary  Rev 0 Res 642 Spd 100.00 Ver 4_17_2017  DOWNLOADING no
2017-04-17T22:58:52.0294Z ROSS6 -- stats -- 2017/04/17 22:58:52 UTC -- TIME 146950000 LAT 56.8109541 LON -132.9683578 ALT 0.78 SATVIS 9 ROLL -0.033 PITCH 0.039 YAW 2.735 SP 0.00287163886242 HD 156 TH 60 CURWP 2
2017-04-17T22:58:52.1310Z ROSS6 -- winchinfo -- 2017/04/17 22:58:52 UTC -- STATUS 1  Dir stationary  Rev 0 Res 638 Spd 100.00 Ver 4_17_2017 
2017-04-17T22:58:52.1311Z ROSS6 -- winchstatus -- 2017/04/17 22:58:52 UTC -- STATUS 1  Dir stationary  Rev 0 Res 638 Spd 100.00 Ver 4_17_2017  DOWNLOADING no
2017-04-17T22:58:53.0298Z ROSS6 -- stats -- 2017/04/17 22:58:53 UTC -- TIME 147950000 LAT 56.8109542 LON -132.9683587 ALT 0.8 SATVIS 9 ROLL -0.033 PITCH 0.039 YAW 2.735 SP 0.0274305231869 HD 156 TH 60 CURWP 2
2017-04-17T22:58:53.1321Z ROSS6 -- winchinfo -- 2017/04/17 22:58:53 UTC -- STATUS 1  Dir up  Rev 0 Res 637 Spd 77.52 Ver 4_17_2017 
2017-04-17T22:58:53.1323Z ROSS6 -- winchstatus -- 2017/04/17 22:58:53 UTC -- STATUS 1  Dir up  Rev 0 Res 637 Spd 77.52 Ver 4_17_2017  DOWNLOADING no
2017-04-17T22:58:54.0294Z ROSS6 -- stats -- 2017/04/17 22:58:54 UTC -- TIME 148950000 LAT 56.8109547 LON -132.9683596 ALT 0.87 SATVIS 9 ROLL -0.033 PITCH 0.040 YAW 2.734 SP 0.0812162086368 HD 156 TH 60 CURWP 2
2017-04-17T22:58:54.1313Z ROSS6 -- winchinfo -- 2017/04/17 22:58:54 UTC -- STATUS 1  Dir stationary  Rev 0 Res 643 Spd 100.00 Ver 4_17_2017 
2017-04-17T22:58:54.1315Z ROSS6 -- winchstatus -- 2017/04/17 22:58:54 UTC -- STATUS 1  Dir stationary  Rev 0 Res 643 Spd 100.00 Ver 4_17_2017  DOWNLOADING no
2017-04-17T22:58:55.0282Z ROSS6 -- stats -- 2017/04/17 22:58:55 UTC -- TIME 149931000 LAT 56.8109551 LON -132.9683606 ALT 1.06 SATVIS 9 ROLL -0.033 PITCH 0.040 YAW 2.734 SP 0.111394383013 HD 156 TH 60 CURWP 2
2017-04-17T22:58:55.1298Z ROSS6 -- winchinfo -- 2017/04/17 22:58:55 UTC -- STATUS 1  Dir stationary  Rev 0 Res 641 Spd 100.00 Ver 4_17_2017 
2017-04-17T22:58:55.1299Z ROSS6 -- winchstatus -- 2017/04/17 22:58:55 UTC -- STATUS 1  Dir stationary  Rev 0 Res 641 Spd 100.00 Ver 4_17_2017  DOWNLOADING no
2017-04-17T22:58:56.0381Z ROSS6 -- stats -- 2017/04/17 22:58:56 UTC -- TIME 150930000 LAT 56.8109559 LON -132.9683608 ALT 1.26 SATVIS 9 ROLL -0.033 PITCH 0.040 YAW 2.734 SP 0.124813228846 HD 156 TH 60 CURWP 2
2017-04-17T22:58:56.1397Z ROSS6 -- winchinfo -- 2017/04/17 22:58:56 UTC -- STATUS 1  Dir stationary  Rev 0 Res 644 Spd 100.00 Ver 4_17_2017 
2017-04-17T22:58:56.1399Z ROSS6 -- winchstatus -- 2017/04/17 22:58:56 UTC -- STATUS 1  Dir stationary  Rev 0 Res 644 Spd 100.00 Ver 4_17_2017  DOWNLOADING no
2017-04-17T22:58:57.0293Z ROSS6 -- stats -- 2017/04/17 22:58:57 UTC -- TIME 151950000 LAT 56.8109554 LON -132.968361 ALT 1.33 SATVIS 9 ROLL -0.033 PITCH 0.038 YAW 2.733 SP 0.0614138580859 HD 156 TH 60 CURWP 2
2017-04-17T22:58:57.1314Z ROSS6 -- winchinfo -- 2017/04/17 22:58:57 UTC -- STATUS 1  Dir stationary  Rev 0 Res 647 Spd 100.00 Ver 4_17_2017 
2017-04-17T22:58:57.1316Z ROSS6 -- winchstatus -- 2017/04/17 22:58:57 UTC -- STATUS 1  Dir stationary  Rev 0 Res 647 Spd 100.00 Ver 4_17_2017  DOWNLOADING no
2017-04-17T22:58:58.0291Z ROSS6 -- stats -- 2017/04/17 22:58:58 UTC -- TIME 152950000 LAT 56.8109555 LON -132.9683616 ALT 1.32 SATVIS 9 ROLL -0.033 PITCH 0.038 YAW 2.733 SP 0.0453956909478 HD 156 TH 60 CURWP 2
2017-04-17T22:58:58.1306Z ROSS6 -- winchinfo -- 2017/04/17 22:58:58 UTC -- STATUS 1  Dir up  Rev 0 Res 642 Spd 95.22 Ver 4_17_2017 
2017-04-17T22:58:58.1308Z ROSS6 -- winchstatus -- 2017/04/17 22:58:58 UTC -- STATUS 1  Dir up  Rev 0 Res 642 Spd 95.22 Ver 4_17_2017  DOWNLOADING no
2017-04-17T22:58:59.0289Z ROSS6 -- stats -- 2017/04/17 22:58:59 UTC -- TIME 153950000 LAT 56.8109551 LON -132.968362 ALT 1.43 SATVIS 9 ROLL -0.032 PITCH 0.037 YAW 2.733 SP 0.0077185803093 HD 156 TH 60 CURWP 2
2017-04-17T22:58:59.1305Z ROSS6 -- winchinfo -- 2017/04/17 22:58:59 UTC -- STATUS 1  Dir stationary  Rev 0 Res 632 Spd 100.00 Ver 4_17_2017 
2017-04-17T22:58:59.1307Z ROSS6 -- winchstatus -- 2017/04/17 22:58:59 UTC -- STATUS 1  Dir stationary  Rev 0 Res 632 Spd 100.00 Ver 4_17_2017  DOWNLOADING no
2017-04-17T22:59:00.0290Z ROSS6 -- stats -- 2017/04/17 22:59:00 UTC -- TIME 154931000 LAT 56.8109552 LON -132.9683629 ALT 1.5 SATVIS 9 ROLL -0.032 PITCH 0.037 YAW 2.732 SP 0.0167053323239 HD 156 TH 60 CURWP 2
2017-04-17T22:59:00.1306Z ROSS6 -- winchinfo -- 2017/04/17 22:59:00 UTC -- STATUS 1  Dir stationary  Rev 0 Res 628 Spd 100.00 Ver 4_17_2017 
2017-04-17T22:59:00.1308Z ROSS6 -- winchstatus -- 2017/04/17 22:59:00 UTC -- STATUS 1  Dir stationary  Rev 0 Res 628 Spd 100.00 Ver 4_17_2017  DOWNLOADING no
2017-04-17T22:59:01.0290Z ROSS6 -- stats -- 2017/04/17 22:59:01 UTC -- TIME 155931000 LAT 56.8109549 LON -132.968364 ALT 1.74 SATVIS 9 ROLL -0.032 PITCH 0.037 YAW 2.732 SP 0.0187202133238 HD 156 TH 60 CURWP 2
2017-04-17T22:59:01.1311Z ROSS6 -- winchinfo -- 2017/04/17 22:59:01 UTC -- STATUS 1  Dir stationary  Rev 0 Res 635 Spd 100.00 Ver 4_17_2017 
2017-04-17T22:59:01.1313Z ROSS6 -- winchstatus -- 2017/04/17 22:59:01 UTC -- STATUS 1  Dir stationary  Rev 0 Res 635 Spd 100.00 Ver 4_17_2017  DOWNLOADING no
2017-04-17T22:59:02.0278Z ROSS6 -- stats -- 2017/04/17 22:59:02 UTC -- TIME 156950000 LAT 56.810954 LON -132.9683642 ALT 1.79 SATVIS 9 ROLL -0.032 PITCH 0.036 YAW 2.731 SP 0.0521643161774 HD 156 TH 60 CURWP 2
2017-04-17T22:59:02.1294Z ROSS6 -- winchinfo -- 2017/04/17 22:59:02 UTC -- STATUS 1  Dir stationary  Rev 0 Res 635 Spd 100.00 Ver 4_17_2017 
2017-04-17T22:59:02.1297Z ROSS6 -- winchstatus -- 2017/04/17 22:59:02 UTC -- STATUS 1  Dir stationary  Rev 0 Res 635 Spd 100.00 Ver 4_17_2017  DOWNLOADING no
2017-04-17T22:59:03.0287Z ROSS6 -- stats -- 2017/04/17 22:59:03 UTC -- TIME 157950000 LAT 56.8109542 LON -132.9683652 ALT 1.96 SATVIS 9 ROLL -0.032 PITCH 0.037 YAW 2.731 SP 0.0314783863723 HD 156 TH 60 CURWP 2
2017-04-17T22:59:03.1304Z ROSS6 -- winchinfo -- 2017/04/17 22:59:03 UTC -- STATUS 1  Dir stationary  Rev 0 Res 647 Spd 100.00 Ver 4_17_2017 
2017-04-17T22:59:03.1306Z ROSS6 -- winchstatus -- 2017/04/17 22:59:03 UTC -- STATUS 1  Dir stationary  Rev 0 Res 647 Spd 100.00 Ver 4_17_2017  DOWNLOADING no
2017-04-17T22:59:04.0286Z ROSS6 -- stats -- 2017/04/17 22:59:04 UTC -- TIME 158950000 LAT 56.8109545 LON -132.9683655 ALT 2.24 SATVIS 9 ROLL -0.033 PITCH 0.038 YAW 2.731 SP 0.0236628428102 HD 156 TH 60 CURWP 2
2017-04-17T22:59:04.0333Z ROSS6 -- winchinfo -- 2017/04/17 22:59:04 UTC -- STATUS 1  Dir stationary  Rev 0 Res 631 Spd 100.00 Ver 4_17_2017 
2017-04-17T22:59:04.0334Z ROSS6 -- winchstatus -- 2017/04/17 22:59:04 UTC -- STATUS 1  Dir stationary  Rev 0 Res 631 Spd 100.00 Ver 4_17_2017  DOWNLOADING no
2017-04-17T22:59:05.0277Z ROSS6 -- stats -- 2017/04/17 22:59:05 UTC -- TIME 159950000 LAT 56.8109542 LON -132.9683664 ALT 2.31 SATVIS 9 ROLL -0.033 PITCH 0.038 YAW 2.731 SP 0.0216812808067 HD 156 TH 60 CURWP 2
2017-04-17T22:59:06.1319Z ROSS6 -- winchinfo -- 2017/04/17 22:59:06 UTC -- STATUS 1  Dir stationary  Rev 0 Res 617 Spd 100.00 Ver 4_17_2017 
2017-04-17T22:59:06.1321Z ROSS6 -- winchstatus -- 2017/04/17 22:59:06 UTC -- STATUS 1  Dir stationary  Rev 0 Res 617 Spd 100.00 Ver 4_17_2017  DOWNLOADING no
2017-04-17T22:59:07.1484Z ROSS6 -- stats -- 2017/04/17 22:59:07 UTC -- TIME 160950000 LAT 56.8109549 LON -132.9683662 ALT 1.9 SATVIS 9 ROLL -0.034 PITCH 0.039 YAW 2.730 SP 0.0661100372672 HD 156 TH 60 CURWP 2
2017-04-17T22:59:07.2503Z ROSS6 -- winchinfo -- 2017/04/17 22:59:07 UTC -- STATUS 1  Dir stationary  Rev 0 Res 637 Spd 100.00 Ver 4_17_2017 
2017-04-17T22:59:07.2505Z ROSS6 -- winchstatus -- 2017/04/17 22:59:07 UTC -- STATUS 1  Dir stationary  Rev 0 Res 637 Spd 100.00 Ver 4_17_2017  DOWNLOADING no
2017-04-17T22:59:08.0285Z ROSS6 -- stats -- 2017/04/17 22:59:08 UTC -- TIME 162950000 LAT 56.810956 LON -132.9683671 ALT 2.34 SATVIS 9 ROLL -0.033 PITCH 0.039 YAW 2.729 SP 0.0883644074202 HD 156 TH 60 CURWP 2
2017-04-17T22:59:08.1303Z ROSS6 -- winchinfo -- 2017/04/17 22:59:08 UTC -- STATUS 1  Dir stationary  Rev 0 Res 641 Spd 100.00 Ver 4_17_2017 
2017-04-17T22:59:08.1305Z ROSS6 -- winchstatus -- 2017/04/17 22:59:08 UTC -- STATUS 1  Dir stationary  Rev 0 Res 641 Spd 100.00 Ver 4_17_2017  DOWNLOADING no
2017-04-17T22:59:09.0286Z ROSS6 -- stats -- 2017/04/17 22:59:09 UTC -- TIME 163931000 LAT 56.8109568 LON -132.9683678 ALT 2.65 SATVIS 9 ROLL -0.033 PITCH 0.039 YAW 2.729 SP 0.0983519926667 HD 156 TH 60 CURWP 2
2017-04-17T22:59:09.1305Z ROSS6 -- winchinfo -- 2017/04/17 22:59:09 UTC -- v 0 Res 640 Spd 81.99 Ver 4_17_2017 
2017-04-17T22:59:10.0274Z ROSS6 -- stats -- 2017/04/17 22:59:10 UTC -- TIME 164931000 LAT 56.8109575 LON -132.9683674 ALT 2.86 SATVIS 9 ROLL -0.034 PITCH 0.038 YAW 2.728 SP 0.0936978086829 HD 156 TH 60 CURWP 2
2017-04-17T22:59:10.1291Z ROSS6 -- winchinfo -- 2017/04/17 22:59:10 UTC -- STATUS 1  Dir stationary  Rev 0 Res 631 Spd 100.00 Ver 4_17_2017 
2017-04-17T22:59:10.1293Z ROSS6 -- winchstatus -- 2017/04/17 22:59:10 UTC -- STATUS 1  Dir stationary  Rev 0 Res 631 Spd 100.00 Ver 4_17_2017  DOWNLOADING no
2017-04-17T22:59:11.0283Z ROSS6 -- stats -- 2017/04/17 22:59:11 UTC -- TIME 165950000 LAT 56.810958 LON -132.9683673 ALT 3.04 SATVIS 9 ROLL -0.033 PITCH 0.038 YAW 2.728 SP 0.080358505249 HD 156 TH 60 CURWP 2
2017-04-17T22:59:11.1299Z ROSS6 -- winchinfo -- 2017/04/17 22:59:11 UTC -- STATUS 1  Dir stationary  Rev 0 Res 633 Spd 100.00 Ver 4_17_2017 
2017-04-17T22:59:11.1301Z ROSS6 -- winchstatus -- 2017/04/17 22:59:11 UTC -- STATUS 1  Dir stationary  Rev 0 Res 633 Spd 100.00 Ver 4_17_2017  DOWNLOADING no
2017-04-17T22:59:12.0283Z ROSS6 -- stats -- 2017/04/17 22:59:12 UTC -- TIME 166950000 LAT 56.810959 LON -132.9683678 ALT 3.06 SATVIS 9 ROLL -0.033 PITCH 0.038 YAW 2.728 SP 0.0863925889134 HD 156 TH 60 CURWP 2
2017-04-17T22:59:12.1300Z ROSS6 -- winchinfo -- 2017/04/17 22:59:12 UTC -- STATUS 1  Dir stationary  Rev 0 Res 633 Spd 100.00 Ver 4_17_2017 
2017-04-17T22:59:12.1302Z ROSS6 -- winchstatus -- 2017/04/17 22:59:12 UTC -- STATUS 1  Dir stationary  Rev 0 Res 633 Spd 100.00 Ver 4_17_2017  DOWNLOADING no
2017-04-17T22:59:13.0283Z ROSS6 -- stats -- 2017/04/17 22:59:13 UTC -- TIME 167930000 LAT 56.8109595 LON -132.9683681 ALT 3.27 SATVIS 9 ROLL -0.033 PITCH 0.037 YAW 2.727 SP 0.0663807615638 HD 156 TH 60 CURWP 2
2017-04-17T22:59:13.1303Z ROSS6 -- winchinfo -- 2017/04/17 22:59:13 UTC -- STATUS 1  Dir stationary  Rev 0 Res 640 Spd 100.00 Ver 4_17_2017 
2017-04-17T22:59:13.1306Z ROSS6 -- winchstatus -- 2017/04/17 22:59:13 UTC -- STATUS 1  Dir stationary  Rev 0 Res 640 Spd 100.00 Ver 4_17_2017  DOWNLOADING no
2017-04-17T22:59:14.0285Z ROSS6 -- stats -- 2017/04/17 22:59:14 UTC -- TIME 168950000 LAT 56.8109604 LON -132.9683693 ALT 3.44 SATVIS 9 ROLL -0.032 PITCH 0.038 YAW 2.727 SP 0.0880256071687 HD 156 TH 60 CURWP 2
2017-04-17T22:59:14.1304Z ROSS6 -- winchinfo -- 2017/04/17 22:59:14 UTC -- STATUS 1  Dir stationary  Rev 0 Res 627 Spd 100.00 Ver 4_17_2017 
2017-04-17T22:59:14.1306Z ROSS6 -- winchstatus -- 2017/04/17 22:59:14 UTC -- STATUS 1  Dir stationary  Rev 0 Res 627 Spd 100.00 Ver 4_17_2017  DOWNLOADING no
2017-04-17T22:59:15.0281Z ROSS6 -- stats -- 2017/04/17 22:59:15 UTC -- TIME 169950000 LAT 56.8109609 LON -132.9683703 ALT 3.4 SATVIS 9 ROLL -0.032 PITCH 0.038 YAW 2.726 SP 0.0910992771387 HD 156 TH 60 CURWP 2
2017-04-17T22:59:15.1297Z ROSS6 -- winchinfo -- 2017/04/17 22:59:15 UTC -- STATUS 1  Dir stationary  Rev 0 Res 632 Spd 100.00 Ver 4_17_2017 
2017-04-17T22:59:15.1299Z ROSS6 -- winchstatus -- 2017/04/17 22:59:15 UTC -- STATUS 1  Dir stationary  Rev 0 Res 632 Spd 100.00 Ver 4_17_2017  DOWNLOADING no
2017-04-17T22:59:16.0280Z ROSS6 -- stats -- 2017/04/17 22:59:16 UTC -- TIME 170950000 LAT 56.8109614 LON -132.9683709 ALT 3.4 SATVIS 9 ROLL -0.031 PITCH 0.037 YAW 2.726 SP 0.0803576335311 HD 156 TH 60 CURWP 2
2017-04-17T22:59:16.1298Z ROSS6 -- winchinfo -- 2017/04/17 22:59:16 UTC -- STATUS 1  Dir stationary  Rev 0 Res 628 Spd 100.00 Ver 4_17_2017 
2017-04-17T22:59:16.1299Z ROSS6 -- winchstatus -- 2017/04/17 22:59:16 UTC -- STATUS 1  Dir stationary  Rev 0 Res 628 Spd 100.00 Ver 4_17_2017  DOWNLOADING no
2017-04-17T22:59:17.0280Z ROSS6 -- stats -- 2017/04/17 22:59:17 UTC -- TIME 171950000 LAT 56.8109631 LON -132.9683715 ALT 3.55 SATVIS 9 ROLL -0.033 PITCH 0.038 YAW 2.726 SP 0.136441975832 HD 156 TH 60 CURWP 2
2017-04-17T22:59:17.1295Z ROSS6 -- winchinfo -- 2017/04/17 22:59:17 UTC -- STATUS 1  Dir stationary  Rev 0 Res 634 Spd 100.00 Ver 4_17_2017 
2017-04-17T22:59:17.1297Z ROSS6 -- winchstatus -- 2017/04/17 22:59:17 UTC -- STATUS 1  Dir stationary  Rev 0 Res 634 Spd 100.00 Ver 4_17_2017  DOWNLOADING no
2017-04-17T22:59:18.0379Z ROSS6 -- stats -- 2017/04/17 22:59:18 UTC -- TIME 172950000 LAT 56.8109632 LON -132.9683717 ALT 3.67 SATVIS 9 ROLL -0.033 PITCH 0.037 YAW 2.725 SP 0.101090051234 HD 156 TH 60 CURWP 2
2017-04-17T22:59:18.1395Z ROSS6 -- winchinfo -- 2017/04/17 22:59:18 UTC -- STATUS 1  Dir stationary  Rev 0 Res 631 Spd 100.00 Ver 4_17_2017 
2017-04-17T22:59:18.1397Z ROSS6 -- winchstatus -- 2017/04/17 22:59:18 UTC -- STATUS 1  Dir stationary  Rev 0 Res 631 Spd 100.00 Ver 4_17_2017  DOWNLOADING no
2017-04-17T22:59:19.0279Z ROSS6 -- stats -- 2017/04/17 22:59:19 UTC -- TIME 173950000 LAT 56.8109636 LON -132.9683717 ALT 4.03 SATVIS 10 ROLL -0.033 PITCH 0.037 YAW 2.725 SP 0.0693013295531 HD 156 TH 60 CURWP 2
2017-04-17T22:59:19.1294Z ROSS6 -- winchinfo -- 2017/04/17 22:59:19 UTC -- STATUS 1  Dir stationary  Rev 0 Res 637 Spd 100.00 Ver 4_17_2017 
2017-04-17T22:59:19.1296Z ROSS6 -- winchstatus -- 2017/04/17 22:59:19 UTC -- STATUS 1  Dir stationary  Rev 0 Res 637 Spd 100.00 Ver 4_17_2017  DOWNLOADING no
2017-04-17T22:59:20.0288Z ROSS6 -- stats -- 2017/04/17 22:59:20 UTC -- TIME 174950000 LAT 56.8109637 LON -132.9683729 ALT 4.1 SATVIS 10 ROLL -0.032 PITCH 0.037 YAW 2.724 SP 0.0592800192535 HD 156 TH 60 CURWP 2
2017-04-17T22:59:20.1304Z ROSS6 -- winchinfo -- 2017/04/17 22:59:20 UTC -- STATUS 1  Dir stationary  Rev 0 Res 636 Spd 100.00 Ver 4_17_2017 
2017-04-17T22:59:20.1305Z ROSS6 -- winchstatus -- 2017/04/17 22:59:20 UTC -- STATUS 1  Dir stationary  Rev 0 Res 636 Spd 100.00 Ver 4_17_2017  DOWNLOADING no
2017-04-17T22:59:21.0278Z ROSS6 -- stats -- 2017/04/17 22:59:21 UTC -- TIME 175950000 LAT 56.8109638 LON -132.9683732 ALT 4.4 SATVIS 10 ROLL -0.033 PITCH 0.036 YAW 2.724 SP 0.0379778295755 HD 156 TH 60 CURWP 2
2017-04-17T22:59:21.1295Z ROSS6 -- winchinfo -- 2017/04/17 22:59:21 UTC -- STATUS 1  Dir stationary  Rev 0 Res 624 Spd 100.00 Ver 4_17_2017 
2017-04-17T22:59:21.1297Z ROSS6 -- winchstatus -- 2017/04/17 22:59:21 UTC -- STATUS 1  Dir stationary  Rev 0 Res 624 Spd 100.00 Ver 4_17_2017  DOWNLOADING no
2017-04-17T22:59:22.0277Z ROSS6 -- stats -- 2017/04/17 22:59:22 UTC -- TIME 176950000 LAT 56.8109644 LON -132.9683735 ALT 4.52 SATVIS 10 ROLL -0.033 PITCH 0.037 YAW 2.724 SP 0.0435577891767 HD 156 TH 60 CURWP 2
2017-04-17T22:59:22.1292Z ROSS6 -- winchinfo -- 2017/04/17 22:59:22 UTC -- STATUS 1  Dir stationary  Rev 0 Res 642 Spd 100.00 Ver 4_17_2017 
2017-04-17T22:59:22.1294Z ROSS6 -- winchstatus -- 2017/04/17 22:59:22 UTC -- STATUS 1  Dir stationary  Rev 0 Res 642 Spd 100.00 Ver 4_17_2017  DOWNLOADING no
2017-04-17T22:59:23.0277Z ROSS6 -- stats -- 2017/04/17 22:59:23 UTC -- TIME 177950000 LAT 56.8109646 LON -132.9683738 ALT 4.71 SATVIS 10 ROLL -0.033 PITCH 0.037 YAW 2.723 SP 0.0306329820305 HD 156 TH 60 CURWP 2
2017-04-17T22:59:23.1292Z ROSS6 -- winchinfo -- 2017/04/17 22:59:23 UTC -- STATUS 1  Dir stationary  Rev 0 Res 631 Spd 100.00 Ver 4_17_2017 
2017-04-17T22:59:23.1294Z ROSS6 -- winchstatus -- 2017/04/17 22:59:23 UTC -- STATUS 1  Dir stationary  Rev 0 Res 631 Spd 100.00 Ver 4_17_2017  DOWNLOADING no
2017-04-17T22:59:24.0276Z ROSS6 -- stats -- 2017/04/17 22:59:24 UTC -- TIME 178950000 LAT 56.8109645 LON -132.9683739 ALT 4.72 SATVIS 10 ROLL -0.033 PITCH 0.037 YAW 2.723 SP 0.0190441776067 HD 156 TH 60 CURWP 2
2017-04-17T22:59:24.1291Z ROSS6 -- winchinfo -- 2017/04/17 22:59:24 UTC -- STATUS 1  Dir stationary  Rev 0 Res 629 Spd 100.00 Ver 4_17_2017 
2017-04-17T22:59:24.1293Z ROSS6 -- winchstatus -- 2017/04/17 22:59:24 UTC -- STATUS 1  Dir stationary  Rev 0 Res 629 Spd 100.00 Ver 4_17_2017  DOWNLOADING no
2017-04-17T22:59:25.0275Z ROSS6 -- stats -- 2017/04/17 22:59:25 UTC -- TIME 179950000 LAT 56.8109655 LON -132.9683738 ALT 4.75 SATVIS 10 ROLL -0.033 PITCH 0.037 YAW 2.723 SP 0.0387055166066 HD 155 TH 60 CURWP 2
2017-04-17T22:59:25.1291Z ROSS6 -- winchinfo -- 2017/04/17 22:59:25 UTC -- STATUS 1  Dir stationary  Rev 0 Res 635 Spd 100.00 Ver 4_17_2017 
2017-04-17T22:59:25.1292Z ROSS6 -- winchstatus -- 2017/04/17 22:59:25 UTC -- STATUS 1  Dir stationary  Rev 0 Res 635 Spd 100.00 Ver 4_17_2017  DOWNLOADING no
2017-04-17T22:59:26.0275Z ROSS6 -- stats -- 2017/04/17 22:59:26 UTC -- TIME 180950000 LAT 56.8109664 LON -132.9683739 ALT 4.73 SATVIS 10 ROLL -0.033 PITCH 0.037 YAW 2.722 SP 0.0681236535311 HD 155 TH 60 CURWP 2
2017-04-17T22:59:26.1290Z ROSS6 -- winchinfo -- 2017/04/17 22:59:26 UTC -- STATUS 1  Dir stationary  Rev 0 Res 637 Spd 100.00 Ver 4_17_2017 
2017-04-17T22:59:26.1292Z ROSS6 -- winchstatus -- 2017/04/17 22:59:26 UTC -- STATUS 1  Dir stationary  Rev 0 Res 637 Spd 100.00 Ver 4_17_2017  DOWNLOADING no
2017-04-17T22:59:27.0274Z ROSS6 -- stats -- 2017/04/17 22:59:27 UTC -- TIME 181950000 LAT 56.8109671 LON -132.9683745 ALT 4.87 SATVIS 10 ROLL -0.032 PITCH 0.038 YAW 2.722 SP 0.0705301985145 HD 155 TH 60 CURWP 2
2017-04-17T22:59:27.1290Z ROSS6 -- winchinfo -- 2017/04/17 22:59:27 UTC -- STATUS 1  Dir stationary  Rev 0 Res 633 Spd 100.00 Ver 4_17_2017 
2017-04-17T22:59:27.1292Z ROSS6 -- winchstatus -- 2017/04/17 22:59:27 UTC -- STATUS 1  Dir stationary  Rev 0 Res 633 Spd 100.00 Ver 4_17_2017  DOWNLOADING no
2017-04-17T22:59:28.0274Z ROSS6 -- stats -- 2017/04/17 22:59:28 UTC -- TIME 182950000 LAT 56.8109682 LON -132.9683743 ALT 5.09 SATVIS 10 ROLL -0.032 PITCH 0.038 YAW 2.721 SP 0.090461820364 HD 155 TH 60 CURWP 2
2017-04-17T22:59:28.1289Z ROSS6 -- winchinfo -- 2017/04/17 22:59:28 UTC -- STATUS 1  Dir stationary  Rev 0 Res 631 Spd 100.00 Ver 4_17_2017 
2017-04-17T22:59:28.1291Z ROSS6 -- winchstatus -- 2017/04/17 22:59:28 UTC -- STATUS 1  Dir stationary  Rev 0 Res 631 Spd 100.00 Ver 4_17_2017  DOWNLOADING no
2017-04-17T22:59:29.0353Z ROSS6 -- stats -- 2017/04/17 22:59:29 UTC -- TIME 183950000 LAT 56.8109691 LON -132.9683739 ALT 5.22 SATVIS 10 ROLL -0.033 PITCH 0.038 YAW 2.721 SP 0.0792308524251 HD 155 TH 60 CURWP 2
2017-04-17T22:59:29.1368Z ROSS6 -- winchinfo -- 2017/04/17 22:59:29 UTC -- STATUS 1  Dir stationary  Rev 0 Res 636 Spd 100.00 Ver 4_17_2017 
2017-04-17T22:59:29.1370Z ROSS6 -- winchstatus -- 2017/04/17 22:59:29 UTC -- STATUS 1  Dir stationary  Rev 0 Res 636 Spd 100.00 Ver 4_17_2017  DOWNLOADING no
2017-04-17T22:59:30.0273Z ROSS6 -- stats -- 2017/04/17 22:59:30 UTC -- TIME 184950000 LAT 56.8109696 LON -132.9683743 ALT 5.24 SATVIS 10 ROLL -0.032 PITCH 0.037 YAW 2.721 SP 0.0416878610849 HD 155 TH 60 CURWP 2
2017-04-17T22:59:30.1290Z ROSS6 -- winchinfo -- 2017/04/17 22:59:30 UTC -- STATUS 1  Dir stationary  Rev 0 Res 640 Spd 100.00 Ver 4_17_2017 
2017-04-17T22:59:30.1292Z ROSS6 -- winchstatus -- 2017/04/17 22:59:30 UTC -- STATUS 1  Dir stationary  Rev 0 Res 640 Spd 100.00 Ver 4_17_2017  DOWNLOADING no
2017-04-17T22:59:31.0262Z ROSS6 -- stats -- 2017/04/17 22:59:31 UTC -- TIME 185950000 LAT 56.8109702 LON -132.9683748 ALT 5.22 SATVIS 10 ROLL -0.033 PITCH 0.037 YAW 2.720 SP 0.0433953292668 HD 155 TH 60 CURWP 2
2017-04-17T22:59:31.1277Z ROSS6 -- winchinfo -- 2017/04/17 22:59:31 UTC -- STATUS 1  Dir stationary  Rev 0 Res 628 Spd 100.00 Ver 4_17_2017 
2017-04-17T22:59:31.1279Z ROSS6 -- winchstatus -- 2017/04/17 22:59:31 UTC -- STATUS 1  Dir stationary  Rev 0 Res 628 Spd 100.00 Ver 4_17_2017  DOWNLOADING no
2017-04-17T22:59:32.0270Z ROSS6 -- stats -- 2017/04/17 22:59:32 UTC -- TIME 186950000 LAT 56.8109707 LON -132.9683747 ALT 5.31 SATVIS 10 ROLL -0.033 PITCH 0.037 YAW 2.720 SP 0.0503338091075 HD 155 TH 60 CURWP 2
2017-04-17T22:59:32.1286Z ROSS6 -- winchinfo -- 2017/04/17 22:59:32 UTC -- STATUS 1  Dir stationary  Rev 0 Res 629 Spd 100.00 Ver 4_17_2017 
2017-04-17T22:59:32.1288Z ROSS6 -- winchstatus -- 2017/04/17 22:59:32 UTC -- STATUS 1  Dir stationary  Rev 0 Res 629 Spd 100.00 Ver 4_17_2017  DOWNLOADING no
2017-04-17T22:59:33.0270Z ROSS6 -- stats -- 2017/04/17 22:59:33 UTC -- TIME 187951000 LAT 56.8109711 LON -132.9683741 ALT 5.49 SATVIS 10 ROLL -0.033 PITCH 0.037 YAW 2.720 SP 0.0628334358335 HD 155 TH 60 CURWP 2
2017-04-17T22:59:33.1286Z ROSS6 -- winchinfo -- 2017/04/17 22:59:33 UTC -- STATUS 1  Dir stationary  Rev 0 Res 637 Spd 100.00 Ver 4_17_2017 
2017-04-17T22:59:33.1288Z ROSS6 -- winchstatus -- 2017/04/17 22:59:33 UTC -- STATUS 1  Dir stationary  Rev 0 Res 637 Spd 100.00 Ver 4_17_2017  DOWNLOADING no
2017-04-17T22:59:34.0263Z ROSS6 -- stats -- 2017/04/17 22:59:34 UTC -- TIME 188950000 LAT 56.8109718 LON -132.9683751 ALT 5.69 SATVIS 10 ROLL -0.033 PITCH 0.038 YAW 2.720 SP 0.0784138590097 HD 155 TH 60 CURWP 2
2017-04-17T22:59:34.1283Z ROSS6 -- winchinfo -- 2017/04/17 22:59:34 UTC -- STATUS 1  Dir stationary  Rev 0 Res 642 Spd 100.00 Ver 4_17_2017 
2017-04-17T22:59:34.1284Z ROSS6 -- winchstatus -- 2017/04/17 22:59:34 UTC -- STATUS 1  Dir stationary  Rev 0 Res 642 Spd 100.00 Ver 4_17_2017  DOWNLOADING no
2017-04-17T22:59:35.0270Z ROSS6 -- stats -- 2017/04/17 22:59:35 UTC -- TIME 189950000 LAT 56.8109721 LON -132.9683759 ALT 5.82 SATVIS 10 ROLL -0.032 PITCH 0.037 YAW 2.719 SP 0.0648389607668 HD 155 TH 60 CURWP 2
2017-04-17T22:59:35.1286Z ROSS6 -- winchinfo -- 2017/04/17 22:59:35 UTC -- STATUS 1  Dir stationary  Rev 0 Res 645 Spd 100.00 Ver 4_17_2017 
2017-04-17T22:59:35.1288Z ROSS6 -- winchstatus -- 2017/04/17 22:59:35 UTC -- STATUS 1  Dir stationary  Rev 0 Res 645 Spd 100.00 Ver 4_17_2017  DOWNLOADING no
2017-04-17T22:59:36.0269Z ROSS6 -- stats -- 2017/04/17 22:59:36 UTC -- TIME 190950000 LAT 56.8109722 LON -132.968377 ALT 5.7 SATVIS 10 ROLL -0.032 PITCH 0.037 YAW 2.719 SP 0.0584453456104 HD 155 TH 60 CURWP 2
2017-04-17T22:59:36.1301Z ROSS6 -- winchinfo -- 2017/04/17 22:59:36 UTC -- STATUS 1  Dir up  Rev 0 Res 644 Spd 86.43 Ver 4_17_2017 
2017-04-17T22:59:36.1303Z ROSS6 -- winchstatus -- 2017/04/17 22:59:36 UTC -- STATUS 1  Dir up  Rev 0 Res 644 Spd 86.43 Ver 4_17_2017  DOWNLOADING no
2017-04-17T22:59:37.0270Z ROSS6 -- stats -- 2017/04/17 22:59:37 UTC -- TIME 191951000 LAT 56.8109724 LON -132.9683784 ALT 5.63 SATVIS 10 ROLL -0.032 PITCH 0.038 YAW 2.718 SP 0.0743812546134 HD 155 TH 60 CURWP 2
2017-04-17T22:59:37.1293Z ROSS6 -- winchinfo -- 2017/04/17 22:59:37 UTC -- STATUS 1  Dir stationary  Rev 0 Res 635 Spd 100.00 Ver 4_17_2017 
2017-04-17T22:59:37.1295Z ROSS6 -- winchstatus -- 2017/04/17 22:59:37 UTC -- STATUS 1  Dir stationary  Rev 0 Res 635 Spd 100.00 Ver 4_17_2017  DOWNLOADING no
2017-04-17T22:59:38.0259Z ROSS6 -- stats -- 2017/04/17 22:59:38 UTC -- TIME 192951000 LAT 56.810972 LON -132.9683794 ALT 5.7 SATVIS 10 ROLL -0.032 PITCH 0.037 YAW 2.718 SP 0.0530363991857 HD 155 TH 60 CURWP 2
2017-04-17T22:59:38.1274Z ROSS6 -- winchinfo -- 2017/04/17 22:59:38 UTC -- STATUS 1  Dir stationary  Rev 0 Res 632 Spd 100.00 Ver 4_17_2017 
2017-04-17T22:59:38.1276Z ROSS6 -- winchstatus -- 2017/04/17 22:59:38 UTC -- STATUS 1  Dir stationary  Rev 0 Res 632 Spd 100.00 Ver 4_17_2017  DOWNLOADING no
2017-04-17T22:59:39.0268Z ROSS6 -- stats -- 2017/04/17 22:59:39 UTC -- TIME 193950000 LAT 56.8109716 LON -132.9683812 ALT 5.6 SATVIS 10 ROLL -0.031 PITCH 0.037 YAW 2.718 SP 0.075662560761 HD 155 TH 60 CURWP 2
2017-04-17T22:59:39.1284Z ROSS6 -- winchinfo -- 2017/04/17 22:59:39 UTC -- STATUS 1  Dir stationary  Rev 0 Res 644 Spd 100.00 Ver 4_17_2017 
2017-04-17T22:59:39.1286Z ROSS6 -- winchstatus -- 2017/04/17 22:59:39 UTC -- STATUS 1  Dir stationary  Rev 0 Res 644 Spd 100.00 Ver 4_17_2017  DOWNLOADING no
2017-04-17T22:59:40.0357Z ROSS6 -- stats -- 2017/04/17 22:59:40 UTC -- TIME 194950000 LAT 56.810973 LON -132.9683818 ALT 5.49 SATVIS 10 ROLL -0.033 PITCH 0.039 YAW 2.717 SP 0.10113850981 HD 155 TH 60 CURWP 2
2017-04-17T22:59:40.1372Z ROSS6 -- winchinfo -- 2017/04/17 22:59:40 UTC -- STATUS 1  Dir stationary  Rev 0 Res 636 Spd 100.00 Ver 4_17_2017 
2017-04-17T22:59:40.1374Z ROSS6 -- winchstatus -- 2017/04/17 22:59:40 UTC -- STATUS 1  Dir stationary  Rev 0 Res 636 Spd 100.00 Ver 4_17_2017  DOWNLOADING no
2017-04-17T22:59:41.0267Z ROSS6 -- stats -- 2017/04/17 22:59:41 UTC -- TIME 195950000 LAT 56.8109728 LON -132.9683827 ALT 5.29 SATVIS 10 ROLL -0.033 PITCH 0.038 YAW 2.717 SP 0.0811761692166 HD 155 TH 60 CURWP 2
2017-04-17T22:59:41.1282Z ROSS6 -- winchinfo -- 2017/04/17 22:59:41 UTC -- STATUS 1  Dir stationary  Rev 0 Res 637 Spd 100.00 Ver 4_17_2017 
2017-04-17T22:59:41.1284Z ROSS6 -- winchstatus -- 2017/04/17 22:59:41 UTC -- STATUS 1  Dir stationary  Rev 0 Res 637 Spd 100.00 Ver 4_17_2017  DOWNLOADING no
2017-04-17T22:59:42.0266Z ROSS6 -- stats -- 2017/04/17 22:59:42 UTC -- TIME 196951000 LAT 56.8109735 LON -132.9683834 ALT 5.28 SATVIS 10 ROLL -0.034 PITCH 0.038 YAW 2.716 SP 0.0938421785831 HD 155 TH 60 CURWP 2
2017-04-17T22:59:42.1282Z ROSS6 -- winchinfo -- 2017/04/17 22:59:42 UTC -- STATUS 1  Dir stationary  Rev 0 Res 629 Spd 100.00 Ver 4_17_2017 
2017-04-17T22:59:42.1284Z ROSS6 -- winchstatus -- 2017/04/17 22:59:42 UTC -- STATUS 1  Dir stationary  Rev 0 Res 629 Spd 100.00 Ver 4_17_2017  DOWNLOADING no
2017-04-17T22:59:43.0266Z ROSS6 -- stats -- 2017/04/17 22:59:43 UTC -- TIME 197951000 LAT 56.8109742 LON -132.9683835 ALT 5.23 SATVIS 10 ROLL -0.035 PITCH 0.038 YAW 2.716 SP 0.103165112436 HD 155 TH 60 CURWP 2
2017-04-17T22:59:43.1281Z ROSS6 -- winchinfo -- 2017/04/17 22:59:43 UTC -- STATUS 1  Dir stationary  Rev 0 Res 624 Spd 100.00 Ver 4_17_2017 
2017-04-17T22:59:43.1283Z ROSS6 -- winchstatus -- 2017/04/17 22:59:43 UTC -- STATUS 1  Dir stationary  Rev 0 Res 624 Spd 100.00 Ver 4_17_2017  DOWNLOADING no
2017-04-17T22:59:44.0265Z ROSS6 -- stats -- 2017/04/17 22:59:44 UTC -- TIME 198950000 LAT 56.810974 LON -132.9683841 ALT 5.08 SATVIS 10 ROLL -0.033 PITCH 0.037 YAW 2.716 SP 0.057378385216 HD 155 TH 60 CURWP 2
2017-04-17T22:59:44.1280Z ROSS6 -- winchinfo -- 2017/04/17 22:59:44 UTC -- STATUS 1  Dir stationary  Rev 0 Res 632 Spd 100.00 Ver 4_17_2017 
2017-04-17T22:59:44.1282Z ROSS6 -- winchstatus -- 2017/04/17 22:59:44 UTC -- STATUS 1  Dir stationary  Rev 0 Res 632 Spd 100.00 Ver 4_17_2017  DOWNLOADING no
2017-04-17T22:59:45.0263Z ROSS6 -- stats -- 2017/04/17 22:59:45 UTC -- TIME 199950000 LAT 56.8109738 LON -132.9683843 ALT 4.88 SATVIS 10 ROLL -0.033 PITCH 0.037 YAW 2.716 SP 0.0255126487464 HD 155 TH 60 CURWP 2
2017-04-17T22:59:45.1279Z ROSS6 -- winchinfo -- 2017/04/17 22:59:45 UTC -- STATUS 1  Dir stationary  Rev 0 Res 638 Spd 100.00 Ver 4_17_2017 
2017-04-17T22:59:45.1281Z ROSS6 -- winchstatus -- 2017/04/17 22:59:45 UTC -- STATUS 1  Dir stationary  Rev 0 Res 638 Spd 100.00 Ver 4_17_2017  DOWNLOADING no
2017-04-17T22:59:46.0262Z ROSS6 -- stats -- 2017/04/17 22:59:46 UTC -- TIME 200970000 LAT 56.8109737 LON -132.9683841 ALT 4.73 SATVIS 10 ROLL -0.033 PITCH 0.036 YAW 2.715 SP 0.0278924815357 HD 155 TH 60 CURWP 2
2017-04-17T22:59:46.1279Z ROSS6 -- winchinfo -- 2017/04/17 22:59:46 UTC -- STATUS 1  Dir stationary  Rev 0 Res 636 Spd 100.00 Ver 4_17_2017 
2017-04-17T22:59:46.1281Z ROSS6 -- winchstatus -- 2017/04/17 22:59:46 UTC -- STATUS 1  Dir stationary  Rev 0 Res 636 Spd 100.00 Ver 4_17_2017  DOWNLOADING no
2017-04-17T22:59:47.0262Z ROSS6 -- stats -- 2017/04/17 22:59:47 UTC -- TIME 201970000 LAT 56.8109747 LON -132.9683838 ALT 4.58 SATVIS 10 ROLL -0.033 PITCH 0.038 YAW 2.715 SP 0.07292316854 HD 155 TH 60 CURWP 2
2017-04-17T22:59:47.1278Z ROSS6 -- winchinfo -- 2017/04/17 22:59:47 UTC -- STATUS 1  Dir stationary  Rev 0 Res 636 Spd 100.00 Ver 4_17_2017 
2017-04-17T22:59:47.1280Z ROSS6 -- winchstatus -- 2017/04/17 22:59:47 UTC -- STATUS 1  Dir stationary  Rev 0 Res 636 Spd 100.00 Ver 4_17_2017  DOWNLOADING no
2017-04-17T22:59:48.0263Z ROSS6 -- stats -- 2017/04/17 22:59:48 UTC -- TIME 202950000 LAT 56.8109748 LON -132.9683836 ALT 4.52 SATVIS 10 ROLL -0.033 PITCH 0.037 YAW 2.715 SP 0.0690464526415 HD 155 TH 60 CURWP 2
2017-04-17T22:59:48.1278Z ROSS6 -- winchinfo -- 2017/04/17 22:59:48 UTC -- STATUS 1  Dir stationary  Rev 0 Res 634 Spd 100.00 Ver 4_17_2017 
2017-04-17T22:59:48.1280Z ROSS6 -- winchstatus -- 2017/04/17 22:59:48 UTC -- STATUS 1  Dir stationary  Rev 0 Res 634 Spd 100.00 Ver 4_17_2017  DOWNLOADING no
2017-04-17T22:59:49.0252Z ROSS6 -- stats -- 2017/04/17 22:59:49 UTC -- TIME 203951000 LAT 56.8109746 LON -132.9683843 ALT 4.36 SATVIS 10 ROLL -0.031 PITCH 0.037 YAW 2.715 SP 0.0395551994443 HD 155 TH 60 CURWP 2
2017-04-17T22:59:49.1268Z ROSS6 -- winchinfo -- 2017/04/17 22:59:49 UTC -- STATUS 1  Dir stationary  Rev 0 Res 623 Spd 100.00 Ver 4_17_2017 
2017-04-17T22:59:49.1270Z ROSS6 -- winchstatus -- 2017/04/17 22:59:49 UTC -- STATUS 1  Dir stationary  Rev 0 Res 623 Spd 100.00 Ver 4_17_2017  DOWNLOADING no
2017-04-17T22:59:50.0261Z ROSS6 -- stats -- 2017/04/17 22:59:50 UTC -- TIME 204970000 LAT 56.810975 LON -132.9683837 ALT 4.26 SATVIS 10 ROLL -0.032 PITCH 0.037 YAW 2.714 SP 0.0439827218652 HD 155 TH 60 CURWP 2
2017-04-17T22:59:50.1277Z ROSS6 -- winchinfo -- 2017/04/17 22:59:50 UTC -- STATUS 1  Dir stationary  Rev 0 Res 645 Spd 100.00 Ver 4_17_2017 
2017-04-17T22:59:50.1279Z ROSS6 -- winchstatus -- 2017/04/17 22:59:50 UTC -- STATUS 1  Dir stationary  Rev 0 Res 645 Spd 100.00 Ver 4_17_2017  DOWNLOADING no
2017-04-17T22:59:51.0341Z ROSS6 -- stats -- 2017/04/17 22:59:51 UTC -- TIME 205970000 LAT 56.8109752 LON -132.9683835 ALT 4.1 SATVIS 10 ROLL -0.033 PITCH 0.037 YAW 2.714 SP 0.0529186911881 HD 155 TH 60 CURWP 2
2017-04-17T22:59:51.1357Z ROSS6 -- winchinfo -- 2017/04/17 22:59:51 UTC -- STATUS 1  Dir stationary  Rev 0 Res 649 Spd 100.00 Ver 4_17_2017 
2017-04-17T22:59:51.1360Z ROSS6 -- winchstatus -- 2017/04/17 22:59:51 UTC -- STATUS 1  Dir stationary  Rev 0 Res 649 Spd 100.00 Ver 4_17_2017  DOWNLOADING no
2017-04-17T22:59:52.0261Z ROSS6 -- stats -- 2017/04/17 22:59:52 UTC -- TIME 206950000 LAT 56.8109753 LON -132.9683835 ALT 4.06 SATVIS 10 ROLL -0.032 PITCH 0.037 YAW 2.714 SP 0.0378218181431 HD 155 TH 60 CURWP 2
2017-04-17T22:59:52.1278Z ROSS6 -- winchinfo -- 2017/04/17 22:59:52 UTC -- STATUS 1  Dir stationary  Rev 0 Res 629 Spd 100.00 Ver 4_17_2017 
2017-04-17T22:59:52.1280Z ROSS6 -- winchstatus -- 2017/04/17 22:59:52 UTC -- STATUS 1  Dir stationary  Rev 0 Res 629 Spd 100.00 Ver 4_17_2017  DOWNLOADING no
2017-04-17T22:59:53.0249Z ROSS6 -- stats -- 2017/04/17 22:59:53 UTC -- TIME 207950000 LAT 56.8109762 LON -132.9683836 ALT 3.9 SATVIS 10 ROLL -0.032 PITCH 0.038 YAW 2.713 SP 0.078575707972 HD 155 TH 60 CURWP 2
2017-04-17T22:59:53.1267Z ROSS6 -- winchinfo -- 2017/04/17 22:59:53 UTC -- STATUS 1  Dir stationary  Rev 0 Res 637 Spd 100.00 Ver 4_17_2017 
2017-04-17T22:59:53.1269Z ROSS6 -- winchstatus -- 2017/04/17 22:59:53 UTC -- STATUS 1  Dir stationary  Rev 0 Res 637 Spd 100.00 Ver 4_17_2017  DOWNLOADING no
2017-04-17T22:59:54.0259Z ROSS6 -- stats -- 2017/04/17 22:59:54 UTC -- TIME 208951000 LAT 56.8109761 LON -132.9683833 ALT 3.83 SATVIS 10 ROLL -0.032 PITCH 0.037 YAW 2.713 SP 0.0402756743133 HD 155 TH 60 CURWP 2
2017-04-17T22:59:54.1275Z ROSS6 -- winchinfo -- 2017/04/17 22:59:54 UTC -- STATUS 1  Dir stationary  Rev 0 Res 622 Spd 100.00 Ver 4_17_2017 
2017-04-17T22:59:54.1277Z ROSS6 -- winchstatus -- 2017/04/17 22:59:54 UTC -- STATUS 1  Dir stationary  Rev 0 Res 622 Spd 100.00 Ver 4_17_2017  DOWNLOADING no
2017-04-17T22:59:55.0259Z ROSS6 -- stats -- 2017/04/17 22:59:55 UTC -- TIME 209950000 LAT 56.810976 LON -132.9683829 ALT 3.7 SATVIS 10 ROLL -0.031 PITCH 0.036 YAW 2.713 SP 0.0192775186151 HD 155 TH 60 CURWP 2
2017-04-17T22:59:55.1274Z ROSS6 -- winchinfo -- 2017/04/17 22:59:55 UTC -- STATUS 1  Dir stationary  Rev 0 Res 642 Spd 100.00 Ver 4_17_2017 
2017-04-17T22:59:55.1276Z ROSS6 -- winchstatus -- 2017/04/17 22:59:55 UTC -- STATUS 1  Dir stationary  Rev 0 Res 642 Spd 100.00 Ver 4_17_2017  DOWNLOADING no
2017-04-17T22:59:56.0258Z ROSS6 -- stats -- 2017/04/17 22:59:56 UTC -- TIME 210951000 LAT 56.8109761 LON -132.968383 ALT 3.6 SATVIS 10 ROLL -0.031 PITCH 0.037 YAW 2.713 SP 0.0139801055193 HD 155 TH 60 CURWP 2
2017-04-17T22:59:56.1274Z ROSS6 -- winchinfo -- 2017/04/17 22:59:56 UTC -- STATUS 1  Dir stationary  Rev 0 Res 634 Spd 100.00 Ver 4_17_2017 
2017-04-17T22:59:56.1276Z ROSS6 -- winchstatus -- 2017/04/17 22:59:56 UTC -- STATUS 1  Dir stationary  Rev 0 Res 634 Spd 100.00 Ver 4_17_2017  DOWNLOADING no
2017-04-17T22:59:57.0258Z ROSS6 -- stats -- 2017/04/17 22:59:57 UTC -- TIME 211950000 LAT 56.810977 LON -132.9683834 ALT 3.52 SATVIS 10 ROLL -0.031 PITCH 0.038 YAW 2.712 SP 0.0594518892467 HD 155 TH 60 CURWP 2
2017-04-17T22:59:57.1273Z ROSS6 -- winchinfo -- 2017/04/17 22:59:57 UTC -- STATUS 1  Dir stationary  Rev 0 Res 637 Spd 100.00 Ver 4_17_2017 
2017-04-17T22:59:57.1275Z ROSS6 -- winchstatus -- 2017/04/17 22:59:57 UTC -- STATUS 1  Dir stationary  Rev 0 Res 637 Spd 100.00 Ver 4_17_2017  DOWNLOADING no
2017-04-17T22:59:58.0257Z ROSS6 -- stats -- 2017/04/17 22:59:58 UTC -- TIME 212951000 LAT 56.8109768 LON -132.9683831 ALT 3.46 SATVIS 10 ROLL -0.032 PITCH 0.038 YAW 2.712 SP 0.0465346500278 HD 155 TH 60 CURWP 2
2017-04-17T22:59:58.1273Z ROSS6 -- winchinfo -- 2017/04/17 22:59:58 UTC -- STATUS 1  Dir stationary  Rev 0 Res 643 Spd 100.00 Ver 4_17_2017 
2017-04-17T22:59:58.1274Z ROSS6 -- winchstatus -- 2017/04/17 22:59:58 UTC -- STATUS 1  Dir stationary  Rev 0 Res 643 Spd 100.00 Ver 4_17_2017  DOWNLOADING no
2017-04-17T22:59:59.0257Z ROSS6 -- stats -- 2017/04/17 22:59:59 UTC -- TIME 213951000 LAT 56.8109761 LON -132.9683832 ALT 3.31 SATVIS 10 ROLL -0.032 PITCH 0.037 YAW 2.711 SP 0.00903347786516 HD 155 TH 60 CURWP 2
2017-04-17T22:59:59.1272Z ROSS6 -- winchinfo -- 2017/04/17 22:59:59 UTC -- STATUS 1  Dir stationary  Rev 0 Res 632 Spd 100.00 Ver 4_17_2017 
2017-04-17T22:59:59.1274Z ROSS6 -- winchstatus -- 2017/04/17 22:59:59 UTC -- STATUS 1  Dir stationary  Rev 0 Res 632 Spd 100.00 Ver 4_17_2017  DOWNLOADING no
