2017-04-17T09:08:34.8886Z $GPRMC,020832.50,A,5648.6507608,N,13258.0974227,W,0.12,123.86,170417,19.0,E,A,S*62
2017-04-17T09:08:34.8915Z Setting the system time ...
2017-04-17T09:13:51.5607Z $GPRMC,021349.50,A,5648.6508863,N,13258.0979107,W,0.10,346.78,170417,19.0,E,D,S*63
2017-04-17T09:13:51.5634Z Setting the system time ...
