2016-Jul-14 01:55:41.500	0.0031	25.5841	10.1967	0.0642	0.0638	0.0123
2016-Jul-14 01:55:41.667	0.0020	25.5876	10.2068	0.0743	0.0738	0.0121
2016-Jul-14 01:55:41.833	0.0028	25.5927	10.2014	0.0689	0.0685	0.0123
2016-Jul-14 01:55:42.000	0.0024	25.5974	10.1931	0.0606	0.0602	0.0122
2016-Jul-14 01:55:42.167	0.0033	25.6015	10.1971	0.0646	0.0642	0.0124
2016-Jul-14 01:55:42.333	0.0025	25.6053	10.1995	0.0670	0.0666	0.0122
2016-Jul-14 01:55:42.500	0.0026	25.6079	10.2064	0.0739	0.0735	0.0122
2016-Jul-14 01:55:42.667	0.0023	25.6103	10.2055	0.0730	0.0725	0.0122
2016-Jul-14 01:55:42.833	0.0023	25.6126	10.2015	0.0690	0.0686	0.0122
2016-Jul-14 01:55:43.000	0.0026	25.6152	10.2030	0.0705	0.0701	0.0122
2016-Jul-14 01:55:43.167	0.0030	25.6180	10.2064	0.0739	0.0734	0.0123
2016-Jul-14 01:55:43.333	0.0026	25.6213	10.1982	0.0657	0.0653	0.0122
2016-Jul-14 01:55:43.500	0.0029	25.6250	10.2018	0.0693	0.0689	0.0123
2016-Jul-14 01:55:43.667	0.0037	25.6289	10.2012	0.0687	0.0682	0.0125
2016-Jul-14 01:55:43.833	0.0023	25.6328	10.1981	0.0656	0.0652	0.0122
2016-Jul-14 01:55:44.000	0.0030	25.6362	10.1974	0.0649	0.0645	0.0123
2016-Jul-14 01:55:44.167	0.0020	25.6394	10.1948	0.0623	0.0619	0.0121
2016-Jul-14 01:55:44.333	0.0032	25.6430	10.1995	0.0670	0.0666	0.0123
2016-Jul-14 01:55:44.500	0.0022	25.6467	10.1981	0.0656	0.0652	0.0122
2016-Jul-14 01:55:44.667	0.0022	25.6505	10.1953	0.0628	0.0624	0.0122
2016-Jul-14 01:55:44.833	0.0028	25.6544	10.1989	0.0664	0.0660	0.0123
2016-Jul-14 01:55:45.000	0.0035	25.6581	10.1988	0.0663	0.0659	0.0124
2016-Jul-14 01:55:45.167	0.0022	25.6620	10.1967	0.0642	0.0638	0.0122
2016-Jul-14 01:55:45.333	0.0031	25.6659	10.2029	0.0704	0.0699	0.0123
2016-Jul-14 01:55:45.500	0.0030	25.6699	10.1912	0.0587	0.0584	0.0123
2016-Jul-14 01:55:45.667	0.0029	25.6738	10.2029	0.0704	0.0700	0.0123
2016-Jul-14 01:55:45.833	0.0024	25.6777	10.1936	0.0611	0.0607	0.0122
2016-Jul-14 01:55:46.000	0.0023	25.6815	10.1939	0.0614	0.0611	0.0122
2016-Jul-14 01:55:46.167	0.0025	25.6852	10.1949	0.0624	0.0620	0.0122
2016-Jul-14 01:55:46.333	0.0033	25.6889	10.1936	0.0611	0.0608	0.0124
2016-Jul-14 01:55:46.500	0.0029	25.6927	10.1992	0.0667	0.0663	0.0123
2016-Jul-14 01:55:46.667	0.0025	25.6966	10.1916	0.0591	0.0587	0.0122
2016-Jul-14 01:55:46.833	0.0030	25.7006	10.1937	0.0612	0.0608	0.0123
2016-Jul-14 01:55:47.000	0.0028	25.7049	10.1990	0.0665	0.0661	0.0123
2016-Jul-14 01:55:47.167	0.0029	25.7090	10.1907	0.0582	0.0578	0.0123
2016-Jul-14 01:55:47.333	0.0021	25.7129	10.1950	0.0625	0.0622	0.0122
2016-Jul-14 01:55:47.500	0.0024	25.7167	10.1973	0.0648	0.0644	0.0122
2016-Jul-14 01:55:47.667	0.0031	25.7202	10.1967	0.0642	0.0638	0.0124
2016-Jul-14 01:55:47.833	0.0023	25.7238	10.1953	0.0628	0.0624	0.0122
2016-Jul-14 01:55:48.000	0.0025	25.7275	10.2011	0.0686	0.0682	0.0123
2016-Jul-14 01:55:48.167	0.0037	25.7310	10.1972	0.0647	0.0643	0.0125
2016-Jul-14 01:55:48.333	0.0032	25.7345	10.1952	0.0627	0.0623	0.0124
2016-Jul-14 01:55:48.500	0.0018	25.7382	10.1920	0.0595	0.0591	0.0122
2016-Jul-14 01:55:48.667	0.0032	25.7419	10.1967	0.0642	0.0638	0.0124
2016-Jul-14 01:55:48.833	0.0022	25.7456	10.1997	0.0672	0.0668	0.0122
2016-Jul-14 01:55:49.000	0.0021	25.7490	10.1978	0.0653	0.0649	0.0122
2016-Jul-14 01:55:49.167	0.0031	25.7522	10.2023	0.0698	0.0694	0.0124
2016-Jul-14 01:55:49.333	0.0037	25.7556	10.1932	0.0607	0.0603	0.0125
