2016-Jul-14 01:33:27.167	0.0020	26.7916	10.2148	0.0823	0.0818	0.0125
2016-Jul-14 01:33:27.333	0.0024	26.7914	10.2152	0.0827	0.0822	0.0126
2016-Jul-14 01:33:27.500	0.0027	26.7927	10.2078	0.0753	0.0748	0.0126
2016-Jul-14 01:33:27.667	0.0022	26.7879	10.2148	0.0823	0.0818	0.0125
2016-Jul-14 01:33:27.833	0.0022	26.7819	10.2093	0.0768	0.0764	0.0125
2016-Jul-14 01:33:28.000	0.0023	26.7799	10.2097	0.0772	0.0767	0.0126
2016-Jul-14 01:33:28.167	0.0028	26.7790	10.2093	0.0768	0.0763	0.0126
2016-Jul-14 01:33:28.333	0.0026	26.7748	10.2093	0.0768	0.0763	0.0126
2016-Jul-14 01:33:28.500	0.0018	26.7741	10.2109	0.0784	0.0779	0.0125
2016-Jul-14 01:33:28.667	0.0025	26.7717	10.2156	0.0831	0.0826	0.0126
2016-Jul-14 01:33:28.833	0.0024	26.7659	10.2113	0.0788	0.0783	0.0126
2016-Jul-14 01:33:29.000	0.0020	26.7568	10.2166	0.0841	0.0836	0.0125
2016-Jul-14 01:33:29.167	0.0026	26.7520	10.2038	0.0713	0.0708	0.0126
2016-Jul-14 01:33:29.333	0.0023	26.7498	10.2044	0.0719	0.0715	0.0126
2016-Jul-14 01:33:29.500	0.0025	26.7504	10.2073	0.0748	0.0743	0.0126
2016-Jul-14 01:33:29.667	0.0020	26.7463	10.2105	0.0780	0.0775	0.0125
2016-Jul-14 01:33:29.833	0.0027	26.7420	10.2099	0.0774	0.0769	0.0126
2016-Jul-14 01:33:30.000	0.0022	26.7388	10.2109	0.0784	0.0779	0.0125
2016-Jul-14 01:33:30.167	0.0017	26.7399	10.2074	0.0749	0.0744	0.0125
2016-Jul-14 01:33:30.333	0.0016	26.7371	10.2100	0.0775	0.0770	0.0125
2016-Jul-14 01:33:30.500	0.0031	26.7347	10.2075	0.0750	0.0746	0.0127
2016-Jul-14 01:33:30.667	0.0029	26.7329	10.2049	0.0724	0.0720	0.0127
2016-Jul-14 01:33:30.833	0.0020	26.7321	10.2077	0.0752	0.0747	0.0125
2016-Jul-14 01:33:31.000	0.0022	26.7327	10.2093	0.0768	0.0763	0.0125
2016-Jul-14 01:33:31.167	0.0028	26.7340	10.2121	0.0796	0.0791	0.0126
2016-Jul-14 01:33:31.333	0.0017	26.7335	10.2075	0.0750	0.0745	0.0125
2016-Jul-14 01:33:31.500	0.0028	26.7330	10.2086	0.0761	0.0756	0.0126
2016-Jul-14 01:33:31.667	0.0025	26.7329	10.2132	0.0807	0.0802	0.0126
2050-Apr-15 05:05:01.241	0.0000	0.0000	0.0000	0.0000	0.0000	0.0000
2035-Nov-26 02:24:12.848	0.0002	0.0000	0.0000	0.0000	0.0000	0.0000
2019-May-01 16:30:50.928	0.0000	0.0000	0.0000	0.0000	0.0000	0.0000
2047-May-01 09:47:39.194	0.0000	0.0000	0.0000	0.0000	0.0000	0.0000
2016-Jul-14 01:33:05.975	0.0033	26.7269	10.2050	0.0725	0.0721	0.0127
2016-Jul-14 01:33:32.667	0.0024	26.7238	10.2067	0.0742	0.0737	0.0126
2016-Jul-14 01:33:32.833	0.0017	26.7225	10.2127	0.0802	0.0797	0.0125
2016-Jul-14 01:33:33.000	0.0017	26.7230	10.2119	0.0794	0.0789	0.0125
2016-Jul-14 01:33:33.167	0.0017	26.7234	10.2145	0.0820	0.0815	0.0125
2016-Jul-14 01:33:33.333	0.0020	26.7218	10.2064	0.0739	0.0734	0.0125
2016-Jul-14 01:33:33.500	0.0029	26.7214	10.2066	0.0741	0.0736	0.0126
2016-Jul-14 01:33:33.667	0.0023	26.7216	10.2044	0.0719	0.0715	0.0125
2016-Jul-14 01:33:33.833	0.0020	26.7198	10.2080	0.0755	0.0751	0.0125
2016-Jul-14 01:33:34.000	0.0026	26.7142	10.2103	0.0778	0.0774	0.0126
2016-Jul-14 01:33:34.167	0.0028	26.7047	10.2055	0.0730	0.0725	0.0126
2016-Jul-14 01:33:34.333	0.0022	26.6857	10.2086	0.0761	0.0756	0.0125
2016-Jul-14 01:33:34.500	0.0018	26.6661	10.2117	0.0792	0.0787	0.0125
2016-Jul-14 01:33:34.667	0.0026	26.6517	10.2102	0.0777	0.0773	0.0126
2016-Jul-14 01:33:34.833	0.0024	26.6464	10.2099	0.0774	0.0769	0.0125
2016-Jul-14 01:33:35.000	0.0027	26.6416	10.2106	0.0781	0.0776	0.0126
2016-Jul-14 01:33:35.167	0.0027	26.6307	10.2093	0.0768	0.0763	0.0126
2016-Jul-14 01:33:35.333	0.0022	26.6160	10.2055	0.0730	0.0726	0.0125
2016-Jul-14 01:33:35.500	0.0027	26.6002	10.2055	0.0730	0.0726	0.0126
2016-Jul-14 01:33:35.667	0.0026	26.5912	10.2084	0.0759	0.0754	0.0125
2016-Jul-14 01:33:35.833	0.0027	26.5890	10.2010	0.0685	0.0681	0.0126
2016-Jul-14 01:33:36.000	0.0023	26.5849	10.2075	0.0750	0.0745	0.0125
2016-Jul-14 01:33:36.167	0.0017	26.5764	10.2054	0.0729	0.0725	0.0124
2016-Jul-14 01:33:36.333	0.0027	26.5670	10.2028	0.0703	0.0699	0.0126
2016-Jul-14 01:33:36.500	0.0031	26.5505	10.2046	0.0721	0.0717	0.0126
2016-Jul-14 01:33:36.667	0.0022	26.5319	10.2099	0.0774	0.0769	0.0125
2016-Jul-14 01:33:36.833	0.0018	26.5135	10.2013	0.0688	0.0684	0.0124
2016-Jul-14 01:33:37.000	0.0017	26.5035	10.2011	0.0686	0.0682	0.0124
2016-Jul-14 01:33:37.167	0.0023	26.4911	10.1996	0.0671	0.0667	0.0125
2016-Jul-14 01:33:37.333	0.0020	26.4784	10.2010	0.0685	0.0681	0.0124
2016-Jul-14 01:33:37.500	0.0014	26.4673	10.2035	0.0710	0.0706	0.0124
2016-Jul-14 01:33:37.667	0.0033	26.4547	10.2045	0.0720	0.0715	0.0126
