QGC WPL 110
0	0	0	16	0.000000	0.000000	0.000000	0.000000	44.569656	-123.255806	63.020000	1
1	1	3	16	0.000000	0.000000	0.000000	0.000000	44.568600	-123.255608	0.000000	1
2	0	3	16	0.000000	0.000000	0.000000	0.000000	44.569302	-123.255005	0.000000	1
3	0	3	16	0.000000	0.000000	0.000000	0.000000	44.569698	-123.255211	0.000000	1
